[
  {
    "entity":
    {
      "name":
      {
        "entityName": "yellowVolLight"
        ,
        "tag": "Not Interactable"
      }
      ,
      "transform":
      {
        "pos": "0 0 0"
      }
      ,
      "abs_aabb":
      {
      },
      "render":
      {
		"meshes": [
          {
            "mesh": "data/meshes/cono.mesh",
            "materials": [
              "data/materials/volLightsWrite.material"
            ]
          },
          {
            "mesh": "data/meshes/cono.mesh",
            "materials": [
              "data/materials/volLights.material"
            ]
          }
        ]
      },
	  "vol_light": {
        "lightCol": "0.2 0.29 0.5 ",
        "volEmissive": 24.9,
        "volDepth": 1.8
        "volRim": 1.7
      }
    }
  }
]
