[
  {
    "entity": {
      "name": {
        "entityName": "Roto_Ancho03",
        "tag": "NoInteractable"
      },
      "transform": {
        "pos": "0.151532 0.576136 0.139824",
        "rotation": "0.0 0.0 0.0 -1.0"
      },
      "collider": {
        "shapes": [
          {
            "shape": "convex",
            "collision_mesh": "data/meshes/props/JarronAnchoRotos/JarronAnchoRotos_Roto_Ancho03.col_mesh",
            "group": "all",
            "mask": "all"
          }
        ],
        "density": 1,
        "mass": 1,
        "linearDrag": 0.5,
        "angularDrag": 0.25,
        "dynamic": true,
        "kinematic": false,
        "continuous_collision": true
      },
      "abs_aabb": {
      }
	  ,
      "local_aabb":
      {
        "half_size": "0.2476 0.455624 0.625038"
      },
      "comp_audio": {
        "name": "vase_pieces",
        "sound": "event:/Props/VasePieces",
        "isContact": true
      },
      "render": {
        "mesh": "data/meshes/props/JarronAnchoRotos/JarronAnchoRotos_Roto_Ancho03.mesh",
        "color": "1.0 1.0 1.0 1.0",
        "materials": [
          "data/materials/props/mat_BigVases.material"
        ],
        "rimFactor": 1
      }
    }
  }
]