{
  "technique": "objs_culled_by_gpu.tech"
  ,
  "cast_shadows": true
  ,
  "textures":
  {
      "albedo": "data/textures/swrV12/Mat_Swr_Baseboard01to05_Wood_Base_Color.dds"
	,
	"normal": "data/textures/swrV12/Mat_Swr_Baseboard01to05_Wood_Normal_DirectX.dds"
  }
}
