{
  "technique": "objs_culled_by_gpu.tech"
  ,
  "cast_shadows": true
  ,
  "textures":
  {
    "albedo": "data/textures/swrV12/Mat_Swr_Baseboard06_Fences_Floorpipe_Wallhole_Base_Color.dds"
	,
	"normal": "data/textures/swrV12/Mat_Swr_Baseboard06_Fences_Floorpipe_Wallhole_Normal_DirectX.dds"
	,
	"specular": "data/textures/swrV12/Mat_Swr_Baseboard06_Fences_Floorpipe_Wallhole_Metallic.dds"
  }
}
