{
  "technique": "objs_culled_by_gpu.tech"
  ,
  "cast_shadows": true
  ,
  "textures":
  {
    "albedo": "data/textures/swrV12/Mat_Swr_Columns_Base_Color.dds"
	,
	"normal": "data/textures/swrV12/Mat_Swr_Columns_Normal_DirectX.dds"
  }
}
