{
  "technique": "objs_culled_by_gpu.tech"
  ,
  "cast_shadows": true
  ,
  "textures":
  {
    "albedo": "data/textures/CSTut/Mat_Column_Low_Base_Color.dds"
	,
	"normal": "data/textures/CSTut/Mat_col_normal003_Normal_OpenGL.dds"
  }
}
