{
  "technique": "objs_culled_by_gpu.tech"
  ,
  "cast_shadows": true
  ,
  "textures":
  {
    "albedo": "data/textures/swrV12/Mat_Material_box2x2_Base_Color.dds"
	,
	
	"normal": "data/textures/swrV12/Mat_Material_box2x2_Normal_DirectX.dds"
  }
}
