{
  "technique": "objs_culled_by_gpu.tech"
  ,
  "cast_shadows": true
  ,
  "textures":
  {
    "albedo": "data/textures/CSTut/Mat_SwrBridge_Base_Color.dds",
	"normal": "data/textures/CSTut/Mat_SwrBridge_Normal_DirectX.dds",
	"specular": "data/textures/CSTut/Mat_SwrBridge_Roughness.dds"
  }
}
