[
  {
    "entity": {
      "transform": {
        "pos": "0 0 0",
        "rotation": "0 0 0 1.0"
      },
      "name": "Camera",
      "camera_fp_controller": {
        "offset": "0.0 1.7 0.0",
        "sensitivity": 0.01,
        "controllerSensMult": 350
      }
    }
  },
  {
    "entity": {
      "transform": {},
      "name": "CameraShaker",
      "camera": {
        "near": 0.06,
        "far": 1000,
        "fov": 75
      },
      "hierarchy": {
        "parent": "Camera",
        "pos": "0 0 0"
      },
      "camera_shaker": {
        "xInfluence": 1.0,
        "yInfluence": 0.5,
        "zInfluence": 0.0,
        "smoothing": 75.0
      },
      "camera_move": {
        "walkAmplitude": 0.1,
        "walkSpeed": 5,
        "multYWalk": 2.0,
        "runAmplitude": 0.3,
        "runSpeed": 8.0,
        "multYRun": 2.0,
	    "idleAmplitude": 0.01,
        "idleSpeed": 2.0,
        "smoothVec": 7.5,
        "jumpY": 0.5,
        "landY": -2.0
      },
      "culling": {},
      "render_ao": {
        "enabled": true,
        "Radius": 1.5,
        "ShadowMultiplier": 2.0,
        "ShadowPower": 2.0,
        "FadeOutFrom": 55,
        "FadeOutTo": 100,
        "Sharpness": 1,
        "DetailShadowStrength": 5,
        "HorizonAngleThreshold": 0.5
      },
      "render_blur": {
        "enabled": true
      },
      "render_bloom": {
        "enabled": true,
        "global_distance": 1.75,
        "max_steps": 4,
        "threshold_min": 0.15,
        "threshold_max": 5.0,
        "multiplier": 0.5
      },
      "color_grading": {
	    "enabled": true,
        "lut": "data/textures/lut/lutSwr2.dds"
      },
      "render_outlines": {
        "enabled": true,
        "DepthFade": 0.1,
        "MaxOutline": 1.0,
        "outlineThreshold": 0.3,
        "fogDepthFade": 0.8,
        "maxFog": 0.00,
        "fogContrast": 20.0,
        "fogColor": "0.05 0.05 0.05 1"
      },
      "render_vignette": {
        "enabled": true,
        "ChromAberrationAmount": 0.0
      },
      "render_motionBlur": {
        "enabled": true,
        "motionBlur_samples": 10,
        "motionBlur_speed": 1.5,
        "mBsamples": 10
      },
      "render_antialias": {
        "enabled": true
      },
      "render_overlay": {
        "enabled": true,
        "paletteFileName": "data/textures/palettes/palettes.dds",
        "iluminance": 0.0,
        "intensity": 0.3,
        "colorShift": 0.65,
        "vignette": 0.25,
        "hitAmount": 0.0
      },
      "camera_magic_outlines":
      {
        "enabled": true
      },
      "camera_distorsions":
      {
        "enabled": true
      }
    }
  }
]
