[
  {
    "entity": {
      "name": {
        "entityName": "CST_barrel_low",
        "tag": "Interactable"
      },
      "transform": {
        "pos": "0.00306961 0.471558 0.00357229",
        "rotation": "0.0 0.0 0.0 -1.0"
      },
      "collider": {
        "shapes": [
          {
            "shape": "convex",
            "collision_mesh": "data/meshes/props/barrel_broken/barrelbroken_CST_barrel_low.col_mesh",
            "group": "world",
            "mask": "world"
          }
        ],
        "density": 1.0,
        "mass": 1.0,
        "linearDrag": 0.5,
        "angularDrag": 0.25,
        "dynamic": true,
        "kinematic": false,
        "continuous_collision": true
      },
      "abs_aabb": {
      },
      "local_aabb": {
        "half_size": "0.865535 0.857001 0.536665"
      },
      "comp_audio": {
        "name": "barrel_pieces",
        "sound": "event:/Props/Table",
        "isContact": true
      },
      "magic_outline": {
        "outline_color": "0.14 0.22 0.44 1",
        "outline_glow": 3
      },
      "render": {
        "meshes": [
          { 
            "mesh": "data/meshes/props/barrel_broken/barrelbroken_CST_barrel_low.mesh",
            "materials": [
              "data/materials/glowing_outlines.material",
              "data/materials/glowing_outlines.material"
            ]
          },
          { 
            "mesh": "data/meshes/props/barrel_broken/barrelbroken_CST_barrel_low.mesh",
            "materials": [
              "data/materials/props/mat_barrel_broken.material",
              "data/materials/props/mat_barrel_broken.material"
            ]
          }
        ],
        "rimFactor": 1
      }
    }
  }
]
