{
  "cast_shadows": true
  ,
  "textures":
  {
    "albedo": "data/textures/CSTut/Mat_FallHole_Base_Color.dds",
	"normal": "data/textures/CSTut/Mat_FallHole_Normal.dds",
	"specular": "data/textures/CSTut/Mat_FallHole_Specular.dds"
  }
}
