{
  "technique": "objs_culled_by_gpu.tech"
  ,
  "cast_shadows": true
  ,
  "textures":
  {
    "albedo": "data/textures/CSTut/Mat_Cst_FloorCeil_Base_Color.dds"
	,
	"normal": "data/textures/CSTut/Mat_Cst_FloorCeil_Normal_DirectX.dds"
  }
}
