{
  "technique": "particles_smoke.tech",
  "casts_shadows": false,
  "category": "transparent",
  "textures": {
    "albedo": "data/textures/particles/smoke_07.dds",
	"normal": "data/textures/noise/volLightNoise.dds"
  }
}