{
  "technique": "particles_erosion_1.tech",
  "casts_shadows": false,
  "category": "transparent",
  "textures": {
    "albedo": "data/textures/particles/white.dds",
	"normal": "data/textures/noise/volLightNoise.dds"
  }
}
