[
  {
    "entity":
    {
      "name": "Swr_baseboard_5_mat_Swr_baseboardwood"
      ,
      "transform":
      {
      }
      ,
      "render":
      {
        "instanciable": true
        ,
        "key": 41
        ,
        "mesh": "data/meshes/swrV14/swrV14_Swr_baseboard_5_00.mesh"
        ,
        "color": "1.0 1.0 1.0 1.0"
        ,
        "materials":
        [
          "data/materials/swrV14/mat_Swr_baseboardwood.material"
        ]
      }
    }
  }
]
