[
  {
    "entity":
    {
      "name": "SwrColumn_Base_Var02_Mat_SwrColumn"
      ,
      "transform":
      {
      }
      ,
      "render":
      {
        "instanciable": true
        ,
        "key": 26
        ,
        "mesh": "data/meshes/swrV14/swrV14_SwrColumn_Base_Var02_002.mesh"
        ,
        "color": "1.0 1.0 1.0 1.0"
        ,
        "materials":
        [
          "data/materials/swrV14/Mat_SwrColumn.material"
        ]
      }
    }
  }
]
