[
  {
    "entity":
    {
      "name": "SwrWallHole8x4_mat_Swr_BB_Wh_F_FP"
      ,
      "transform":
      {
      }
      ,
      "render":
      {
        "instanciable": true
        ,
        "key": 45
        ,
        "mesh": "data/meshes/swrV14/swrV14_SwrWallHole8x4.mesh"
        ,
        "color": "1.0 1.0 1.0 1.0"
        ,
        "materials":
        [
          "data/materials/swrV14/mat_Swr_BB_Wh_F_FP.material"
        ]
      }
    }
  }
]
