[
  {
    "entity":
    {
      "name": "SwrWallPipe_m_wallpipe_base"
      ,
      "transform":
      {
      }
      ,
      "render":
      {
        "instanciable": true
        ,
        "key": 46
        ,
        "mesh": "data/meshes/swrV14/swrV14_SwrWallPipe.mesh"
        ,
        "color": "1.0 1.0 1.0 1.0"
        ,
        "materials":
        [
          "data/materials/swrV14/m_wallpipe_base.material"
          ,
          "data/materials/swrV14/m_wallpipe_base.material"
        ]
      }
    }
  }
]
