[
  {
    "entity":
    {
      "name": "Cst_Wood_Pilar_2_mat_Cst_Baseboardwood"
      ,
      "transform":
      {
      }
      ,
      "render":
      {
        "instanciable": true
        ,
        "key": 12
        ,
        "mesh": "data/meshes/CSTut_Andamios/CSTut_Andamios_Cst_Wood_Pilar_213.mesh"
        ,
        "color": "1.0 1.0 1.0 1.0"
        ,
        "materials":
        [
          "data/materials/CSTut_Andamios/mat_Cst_Baseboardwood.material"
        ]
      }
    }
  }
]
