[
  {
    "entity":
    {
      "name": "CstFloor8x8__mat_Cst_Floor_Special"
      ,
      "transform":
      {
      }
      ,
      "render":
      {
        "instanciable": true
        ,
        "key": 6
        ,
        "mesh": "data/meshes/CSTut_Andamios/CSTut_Andamios_CstFloor8x8_189.mesh"
        ,
        "color": "1.0 1.0 1.0 1.0"
        ,
        "materials":
        [
          "data/materials/CSTut_Andamios/mat_Cst_Floor_Special.material"
        ]
      }
    }
  }
]
