{
  "shadows": true
  ,
  "textures":
  {
    "albedo": "data/textures/scene_render/wall_plaster_Base_Color.dds"
    ,
    "normal": "data/textures/scene_render/wall_plaster_Normal_DirectX.dds"
  }
}
