{
  "technique": "objs_culled_by_gpu.tech"
  ,
  "cast_shadows": true
  ,
  "textures":
  {
	"albedo": "data/textures/CSTut/Mat_CstFloorVar01_Base_Color.dds"
	,
	"normal": "data/textures/CSTut/Mat_CstFloorVar01_Normal_DirectX.dds"
  }
}
