{
  "technique": "objs_culled_by_gpu.tech"
  ,
  "cast_shadows": true
  ,
  "textures":
  {
    "albedo": "data/textures/CSTut/Cst_Brick_Base_Color.dds",
	"normal": "data/textures/CSTut/Cst_Brick_Normal_DirectX.dds"
  }
}
