[
  {
    "entity":
    {
      "name": "Swr_baseboard_5_mat_Swr_baseboard_5"
      ,
      "transform":
      {
      }
      ,
      "render":
      {
        "instanciable": true
        ,
        "key": 42
        ,
        "mesh": "data/meshes/swrV13/swrV13_Swr_baseboard_5_00.mesh"
        ,
        "color": "1.0 1.0 1.0 1.0"
        ,
        "materials":
        [
          "data/materials/swrV13/mat_Swr_baseboard_5.material"
        ]
      }
    }
  }
]
