[
  {
    "entity":
    {
      "name": "SwrCeil8x8_Mat_SwrCeil8x8"
      ,
      "transform":
      {
      }
      ,
      "render":
      {
        "instanciable": true
        ,
        "key": 16
        ,
        "mesh": "data/meshes/swrV13/swrV13_SwrCeil8x8_00.mesh"
        ,
        "color": "1.0 1.0 1.0 1.0"
        ,
        "materials":
        [
          "data/materials/swrV13/Mat_SwrCeil8x8.material"
          ,
          "data/materials/swrV13/Mat_SwrCeil8x8.material"
          ,
          "data/materials/swrV13/Mat_SwrCeil8x8.material"
          ,
          "data/materials/swrV13/Mat_SwrCeil8x8.material"
          ,
          "data/materials/swrV13/Mat_SwrCeil8x8.material"
          ,
          "data/materials/swrV13/Mat_SwrCeil8x8.material"
        ]
      }
    }
  }
]
