[
  {
    "entity":
    {
      "name": "SwrFloor4x4_Mat_SwrWall4x4"
      ,
      "transform":
      {
      }
      ,
      "render":
      {
        "instanciable": true
        ,
        "key": 2
        ,
        "mesh": "data/meshes/swrV13/swrV13_SwrFloor4x8_01.mesh"
        ,
        "color": "1.0 1.0 1.0 1.0"
        ,
        "materials":
        [
          "data/materials/swrV13/Mat_Floor_Var01.material"
        ]
      }
    }
  }
]
