[
  {
    "entity":
    {
      "name": "col_normal003_Mat_CST_ColumnWall_Top"
      ,
      "transform":
      {
      }
      ,
      "render":
      {
        "instanciable": true
        ,
        "key": 11
        ,
        "mesh": "data/meshes/CSTut/CSTut_col_normal012.mesh"
        ,
        "color": "1.0 1.0 1.0 1.0"
        ,
        "materials":
        [
          "data/materials/CSTut/Mat_CST_ColumnWall_Top.material"
        ]
      }
    }
  }
]
