[
  {
    "entity":
    {
      "name": "Cst_Column_Wall_Mat_Cst_Column_Wall_S"
      ,
      "transform":
      {
      }
      ,
      "render":
      {
        "instanciable": true
        ,
        "key": 65
        ,
        "mesh": "data/meshes/CSTut/CSTut_Cst_Column_Wall.mesh"
        ,
        "color": "1.0 1.0 1.0 1.0"
        ,
        "materials":
        [
          "data/materials/CSTut/Mat_Cst_Column_Wall_S.material"
        ]
      }
    }
  }
]
