[
  {
    "entity":
    {
      "name": "Cst_Chandelier002_Mat_Cst_Chandelier"
      ,
      "transform":
      {
      }
      ,
      "render":
      {
        "instanciable": true
        ,
        "key": 63
        ,
        "mesh": "data/meshes/CSTut/CSTut_Cst_Chandelier002.mesh"
        ,
        "color": "1.0 1.0 1.0 1.0"
        ,
        "materials":
        [
          "data/materials/CSTut/Mat_Cst_Chandelier.material"
        ]
      }
    }
  }
]
