[
  {
    "entity":
    {
      "name": "CstFloor12x8__Mat_Cst_Floor"
      ,
      "transform":
      {
      }
      ,
      "render":
      {
        "instanciable": true
        ,
        "key": 13
        ,
        "mesh": "data/meshes/CSTut/CSTut_CstFloor12x8_024.mesh"
        ,
        "color": "1.0 1.0 1.0 1.0"
        ,
        "materials":
        [
          "data/materials/CSTut/Mat_Cst_Floor.material"
        ]
      }
    }
  }
]
