[
  {
    "entity":
    {
      "name": "CstWall4x4__Mat_Cst_Wall_V01"
      ,
      "transform":
      {
      }
      ,
      "render":
      {
        "instanciable": true
        ,
        "key": 6
        ,
        "mesh": "data/meshes/CSTut/CSTut_CstWall4x4_002.mesh"
        ,
        "color": "1.0 1.0 1.0 1.0"
        ,
        "materials":
        [
          "data/materials/CSTut/Mat_Cst_Wall_V01.material"
        ]
      }
    }
  }
]
