[
  {
    "entity":
    {
      "name":
      {
        "entityName": "gema_cacho22"
        ,
        "tag": "NoInteractable"
      }
      ,
      "transform":
      {
        "pos": "0.0 0.0 0.0"
        ,
        "rotation": "0.0 0.0 0.0 -1.0"
      }
      ,
      "collider":
      {
        "shapes": [
          {
            "shape": "convex",
            "collision_mesh": "data/meshes/props/mineral_roto/mineral_roto_gema_cacho22.col_mesh",
            "group": "all",
            "mask": "all"
          },
          {
            "shape": "sphere",
            "radius": 1.0,
            "group": "magicOnly",
            "mask": "magicOnly",
            "trigger": true
          }
        ],
        "density": 1
        ,
        "mass": 1
        ,
        "linearDrag": 0.5
        ,
        "angularDrag": 0.25
        ,
        "dynamic": true
        ,
        "kinematic": false
      }
      ,
      "abs_aabb":
      {
      }
	  ,
      "local_aabb":
      {
        "half_size": "0.142057 0.428988 0.713823"
      }
      ,
      "render":
      {
        "mesh": "data/meshes/props/mineral_roto/mineral_roto_gema_cacho22.mesh"
        ,
        "color": "1.0 1.0 1.0 1.0"
        ,
        "materials":
        [
          "data/materials/props/mineral.material"
        ]
      }
    }
  }
]
