[
  {
    "entity": {
      "name": {
        "entityName": "swrbox1x1_low",
        "tag": "NoInteractable"
      },
      "transform": {
        "pos": "0.5 0.753559 0.246624",
        "rotation": "0.0 0.0 0.0 -1.0"
      },
      "collider": {
        "shapes": [
          {
            "shape": "convex",
            "collision_mesh": "data/meshes/props/broken_swrbox/SwrBox1x1broken_swrbox1x1_low.col_mesh",
            "group": "world",
            "mask": "world"
          }
        ],
        "density": 1.0,
        "mass": 1.0,
        "linearDrag": 0.5,
        "angularDrag": 0.25,
        "dynamic": true,
        "kinematic": false,
        "continuous_collision": true
      },
      "abs_aabb": {
      },
      "local_aabb": {
        "half_size": "0.535329 0.263376 0.275216"
      },
      "comp_audio": {
        "name": "box",
        "sound": "event:/Props/Table",
        "isContact": true
      },
      "render": {
        "mesh": "data/meshes/props/broken_swrbox/SwrBox1x1broken_swrbox1x1_low.mesh",
        "color": "1.0 1.0 1.0 1.0",
        "materials": [
          "data/materials/props/Mat_swrbox1x1.material",
          "data/materials/props/Mat_swrbox1x1.material",
          "data/materials/props/Mat_swrbox1x1.material"
        ]
      }
    }
  }
]
