[
  {
    "entity":
    {
      "name":
      {
        "entityName": "swrbox1x1_low"
        ,
        "tag": "Interactable"
      }
      ,
      "transform":
      {
        "pos": "0.5 0.753559 0.246624"
        ,
        "rotation": "0.0 0.0 0.0 -1.0"
      }
      ,
      "collider":
      {
        "shapes":
        [
          {
            "shape": "convex"
            ,
            "collision_mesh": "data/meshes/SwrBox1x1broken/SwrBox1x1broken_swrbox1x1_low.col_mesh"
            ,
            "group": "world"
            ,
            "mask": "world"
          }
        ]
        ,
        "density": 1.0
        ,
        "mass": 1.0
        ,
        "linearDrag": 0.5
        ,
        "angularDrag": 0.25
        ,
        "dynamic": true
        ,
        "kinematic": true
      }
      ,
      "abs_aabb":
      {
      }
      ,
      "local_aabb":
      {
        "half_size": "0.535329 0.263376 0.275216"
      }
      ,
      "render":
      {
        "mesh": "data/meshes/SwrBox1x1broken/SwrBox1x1broken_swrbox1x1_low.mesh"
        ,
        "color": "1.0 1.0 1.0 1.0"
        ,
        "materials":
        [
          "data/materials/SwrBox1x1broken/Mat_swrbox1x1.material"
          ,
          "data/materials/SwrBox1x1broken/Mat_swrbox1x1.material"
          ,
          "data/materials/SwrBox1x1broken/Mat_swrbox1x1.material"
        ]
      }
    }
  }
  ,
  {
    "entity":
    {
      "name":
      {
        "entityName": "tabla"
        ,
        "tag": "Interactable"
      }
      ,
      "transform":
      {
        "pos": "0.499469 0.495284 0.0302588"
        ,
        "rotation": "0.0 0.0 0.0 -1.0"
      }
      ,
      "collider":
      {
        "shapes":
        [
          {
            "shape": "convex"
            ,
            "collision_mesh": "data/meshes/SwrBox1x1broken/SwrBox1x1broken_tabla.col_mesh"
            ,
            "group": "world"
            ,
            "mask": "world"
          }
        ]
        ,
        "density": 1.0
        ,
        "mass": 1.0
        ,
        "linearDrag": 0.5
        ,
        "angularDrag": 0.25
        ,
        "dynamic": true
        ,
        "kinematic": true
      }
      ,
      "abs_aabb":
      {
      }
      ,
      "local_aabb":
      {
        "half_size": "0.405281 0.0215076 0.412267"
      }
      ,
      "render":
      {
        "mesh": "data/meshes/SwrBox1x1broken/SwrBox1x1broken_tabla.mesh"
        ,
        "color": "1.0 1.0 1.0 1.0"
        ,
        "materials":
        [
          "data/materials/SwrBox1x1broken/Mat_swrbox1x1.material"
        ]
      }
    }
  }
  ,
  {
    "entity":
    {
      "name":
      {
        "entityName": "swrbox1x1_low001"
        ,
        "tag": "Interactable"
      }
      ,
      "transform":
      {
        "pos": "0.597938 0.227091 0.768504"
        ,
        "rotation": "-1.0 0.0 0.0 -0.000142976"
      }
      ,
      "collider":
      {
        "shapes":
        [
          {
            "shape": "convex"
            ,
            "collision_mesh": "data/meshes/SwrBox1x1broken/SwrBox1x1broken_swrbox1x1_low001.col_mesh"
            ,
            "group": "world"
            ,
            "mask": "world"
          }
        ]
        ,
        "density": 1.0
        ,
        "mass": 1.0
        ,
        "linearDrag": 0.5
        ,
        "angularDrag": 0.25
        ,
        "dynamic": true
        ,
        "kinematic": true
      }
      ,
      "abs_aabb":
      {
      }
      ,
      "local_aabb":
      {
        "half_size": "0.436067 0.263465 0.283422"
      }
      ,
      "render":
      {
        "mesh": "data/meshes/SwrBox1x1broken/SwrBox1x1broken_swrbox1x1_low001.mesh"
        ,
        "color": "1.0 1.0 1.0 1.0"
        ,
        "materials":
        [
          "data/materials/SwrBox1x1broken/Mat_swrbox1x1.material"
          ,
          "data/materials/SwrBox1x1broken/Mat_swrbox1x1.material"
          ,
          "data/materials/SwrBox1x1broken/Mat_swrbox1x1.material"
        ]
      }
    }
  }
  ,
  {
    "entity":
    {
      "name":
      {
        "entityName": "box4"
        ,
        "tag": "Interactable"
      }
      ,
      "transform":
      {
        "pos": "0.0895619 0.225372 0.774317"
        ,
        "rotation": "-1.0 0.0 0.0 -0.000143007"
      }
      ,
      "collider":
      {
        "shapes":
        [
          {
            "shape": "convex"
            ,
            "collision_mesh": "data/meshes/SwrBox1x1broken/SwrBox1x1broken_box4.col_mesh"
            ,
            "group": "world"
            ,
            "mask": "world"
          }
        ]
        ,
        "density": 1.0
        ,
        "mass": 1.0
        ,
        "linearDrag": 0.5
        ,
        "angularDrag": 0.25
        ,
        "dynamic": true
        ,
        "kinematic": true
      }
      ,
      "abs_aabb":
      {
      }
      ,
      "local_aabb":
      {
        "half_size": "0.106314 0.268698 0.253182"
      }
      ,
      "render":
      {
        "mesh": "data/meshes/SwrBox1x1broken/SwrBox1x1broken_box4.mesh"
        ,
        "color": "1.0 1.0 1.0 1.0"
        ,
        "materials":
        [
          "data/materials/SwrBox1x1broken/Mat_swrbox1x1.material"
          ,
          "data/materials/SwrBox1x1broken/Mat_swrbox1x1.material"
          ,
          "data/materials/SwrBox1x1broken/Mat_swrbox1x1.material"
        ]
      }
    }
  }
]
