{
  "technique": "hands_z_skin.tech"
  ,
  "casts_shadows": false
  ,
  "priority": 1000,
  "textures":
  {
    "albedo": "data/textures/hands/hands_base.dds",
    "normal": "data/textures/null_normal.dds",
    "specular": "data/textures/black.dds"
  }
}
