{
"technique": "hands_skin.tech"
  ,
  "casts_shadows": false
  ,
  "priority": 1500,
  "textures":
  {
    "albedo": "data/textures/hands_gloves/metal_albedo.dds",
	"normal": "data/textures/hands_gloves/metal_normal.dds",
	"specular": "data/textures/white.dds"
  }
}
