{
  "name": "main_menu",
  "alias": "root",
  "children": [
    {
      "name": "buttons",
      "alias": "main_menu_buttons",
      "position": "0 0",
      "children": [
        {
          "name": "bt_start",
          "alias": "bt_start",
          "position": "790 500",
          "scale": "0.8 0.8",
          "type": "button",
          "size": "256 128",
          "states": [
            {
              "name": "enabled",
              "color": "255 255 255 0",
              "texture": "data/ui/textures/UI_IndieDev/MainMenuDDS/PlayButton_Box.dds"

            },
            {
              "name": "selected",
              "color": "255 255 255 0",
              "texture": "data/ui/textures/UI_IndieDev/MainMenuDDS/PlayButton_Text.dds"
            }
          ]
        },
        {
          "name": "bt_exit",
          "alias": "bt_exit",
          "position": "790 645",
          "scale": "0.8 0.8",
          "type": "button",
          "size": "256 128",
          "states": [
            {
              "name": "enabled",
              "color": "255 255 255 0",
              "texture": "data/ui/textures/UI_IndieDev/MainMenuDDS/QuitButton_Text.dds"

            },
            {
              "name": "selected",
              "color": "255 255 255 0",
              "texture": "data/ui/textures/UI_IndieDev/MainMenuDDS/QuitButton_Box.dds"
            }
          ]
        }
      ]
    },
    {
      "name": "title_game_logo_menu",
      "alias": "title_game_logo_menu",

      "type": "image",
      "texture": "data/ui/textures/LogoArkanumWhite.dds",
      "position": "300 10",
      "size": "1080 800",
      "scale": "1 1"
    },
    {
      "name": "main_menu_black_foreground",
      "alias": "main_menu_black_foreground",
      "type": "image",
      "texture": "data/ui/textures/Background/BlackBackground.dds",
      "size": "1920 1080",
      "color": "255 255 255 0"
    }
  ]
}
