{
  "name": "pre_intro",
  "alias": "root_pre_intro",
  "children": [
    {
      "name": "pre_intro_black_foreground",
      "alias": "pre_intro_black_foreground",
      "type": "image",
      "texture": "data/ui/textures/Background/BlackBackground.dds",
      "size": "1920 1080"
    },
    {
      "name": "preintro1",
      "alias": "preintro1",
      "type": "image",
      "position": "-100.0 0.0",
      "texture": "data/ui/textures/PreIntro/preintro1.dds",
      "size": "1920 1080",
      "color": "255 255 255 0",
      "maxUV": "1.0 1.0",
      "minUV": "0.0 0.0"
    },
    {
      "name": "preintro2",
      "alias": "preintro2",
      "type": "image",
      "texture": "data/ui/textures/PreIntro/preintro2.dds",
      "position": "-80.0 -30.0",
      "size": "1920 1080",
      "color": "255 255 255 0",
      "maxUV": "1.0 1.0",
      "minUV": "0.0 0.0"
    },
    {
      "name": "fmod",
      "alias": "fmod",
      "type": "image",
      "texture": "data/ui/textures/PreIntro/fmodSplash.dds",
      "size": "2000 679",
      "color": "255 255 255 0",
      "position": "600 688",
      "scale": "0.3 0.3",
      "maxUV": "1.0 1.0",
      "minUV": "0.0 0.0"
    },
    {
      "name": "lua",
      "alias": "lua",
      "type": "image",
      "texture": "data/ui/textures/PreIntro/LuaSplash.dds",
      "size": "600 600",
      "color": "255 255 255 0",
      "position": "762.5 88.6",
      "scale": "0.4 0.4",
      "maxUV": "1.0 1.0",
      "minUV": "0.0 0.0"
    },
    {
      "name": "physx",
      "alias": "physx",
      "type": "image",
      "texture": "data/ui/textures/PreIntro/physXSplash.dds",
      "size": "1920 804",
      "color": "255 255 255 0",
      "position": "555.9 389.6",
      "scale": "0.35 0.35",
      "maxUV": "1.0 1.0",
      "minUV": "0.0 0.0"
    }
  ]
}