{
  "name": "skip_cinematic",
  "alias": "skip_cinematic",
  "children": [
    {
      "name": "skip_cinematic_text",
      "alias": "skip_cinematic_text",
      "type": "text",
      "visible": true,
      "position": "1410 965",
      "text": "Hold any key to skip",
      "font_texture": "data/ui/textures/font.dds",
      "sub_info": "",
      "size": "1 1",
      "font_size": "16 32"
    },
    {
      "name": "skip_progress",
      "alias": "skip_progress",
      "type": "progress",
      "position": "1390 981",
      "texture": "data/ui/textures/white.dds",
      "size": "396 32",
      "scale": "0.9 0.1",
      "var": "skip_progress"
    }
  ]
}