{
  "technique": "objs_culled_by_gpu.tech"
  ,
  "cast_shadows": true
  ,
  "textures":
  {
    "albedo": "data/textures/swrV12/SwrCeilHole_Base_Color.dds"
	,
	"normal": "data/textures/swrV12/SwrCeilHole_Normal.dds"
  }
}
