[
  {
    "entity":
    {
      "name": "CstBrokenFloor4x4B_m_prueba"
      ,
      "transform":
      {
      }
      ,
      "render":
      {
        "instanciable": true
        ,
        "key": 23
        ,
        "mesh": "data/meshes/CSTest/CSTest_CstBrokenFloor4x4B.mesh"
        ,
        "color": "1.0 1.0 1.0 1.0"
        ,
        "materials":
        [
          "data/materials/CSTest/m_prueba.material"
          ,
          "data/materials/CSTest/m_prueba.material"
          ,
          "data/materials/CSTest/m_prueba.material"
          ,
          "data/materials/CSTest/m_prueba.material"
          ,
          "data/materials/CSTest/m_prueba.material"
        ]
      }
    }
  }
]
