[
  {
    "entity":
    {
      "name": "CstCeilHole_m_prueba"
      ,
      "transform":
      {
      }
      ,
      "render":
      {
        "instanciable": true
        ,
        "key": 7
        ,
        "mesh": "data/meshes/CSTest/CSTest_CstCeilHole.mesh"
        ,
        "color": "1.0 1.0 1.0 1.0"
        ,
        "materials":
        [
          "data/materials/CSTest/m_prueba.material"
        ]
      }
    }
  }
]
