[
  {
    "entity":
    {
      "name":
      {
        "entityName": "CstArchDoor"
        ,
        "tag": "Interactable"
      }
      ,
      "transform":
      {
        "pos": "-190.397 -4.77951e-06 -102.361"
        ,
        "rotation": "-0.707107 0.0 0.0 -0.707107"
      }
      ,
      "prefab": "data/scenes/CST_SalaSpiderman/CstArchDoor_m_suelo.json"
    }
  }
  ,
  {
    "entity":
    {
      "name":
      {
        "entityName": "CstBox1x1_"
        ,
        "tag": "Interactable"
      }
      ,
      "transform":
      {
        "pos": "-207.438 -4.64662e-06 -106.302"
        ,
        "rotation": "0.0 0.0 0.0 -1.0"
      }
      ,
      "prefab": "data/scenes/CST_SalaSpiderman/CstBox1x1__m_suelo.json"
    }
  }
  ,
  {
    "entity":
    {
      "name":
      {
        "entityName": "CstBox2x2_"
        ,
        "tag": "Interactable"
      }
      ,
      "transform":
      {
        "pos": "-207.438 -4.1958e-06 -96.3023"
        ,
        "rotation": "0.0 0.0 0.0 -1.0"
      }
      ,
      "prefab": "data/scenes/CST_SalaSpiderman/CstBox2x2__m_suelo.json"
    }
  }
  ,
  {
    "entity":
    {
      "name":
      {
        "entityName": "CstCeil4x4_"
        ,
        "tag": "Interactable"
      }
      ,
      "transform":
      {
        "pos": "-207.438 -4.51402e-06 -103.269"
        ,
        "rotation": "0.0 0.0 0.0 -1.0"
      }
      ,
      "prefab": "data/scenes/CST_SalaSpiderman/CstCeil4x4__m_suelo.json"
    }
  }
  ,
  {
    "entity":
    {
      "name":
      {
        "entityName": "CstCeil8x8_"
        ,
        "tag": "Interactable"
      }
      ,
      "transform":
      {
        "pos": "-198.0 -5.78312e-06 -132.302"
        ,
        "rotation": "0.0 0.0 0.0 -1.0"
      }
      ,
      "prefab": "data/scenes/CST_SalaSpiderman/CstCeil8x8__m_suelo.json"
    }
  }
  ,
  {
    "entity":
    {
      "name":
      {
        "entityName": "CstCeil12x8_"
        ,
        "tag": "Interactable"
      }
      ,
      "transform":
      {
        "pos": "-186.0 -5.87054e-06 -134.302"
        ,
        "rotation": "0.0 0.0 0.0 -1.0"
      }
      ,
      "prefab": "data/scenes/CST_SalaSpiderman/CstCeil12x8__m_suelo.json"
    }
  }
  ,
  {
    "entity":
    {
      "name":
      {
        "entityName": "CstCeilHole"
        ,
        "tag": "Interactable"
      }
      ,
      "transform":
      {
        "pos": "-206.0 -4.03466e-06 -92.3023"
        ,
        "rotation": "0.0 0.0 0.0 -1.0"
      }
      ,
      "prefab": "data/scenes/CST_SalaSpiderman/CstCeilHole_m_suelo.json"
    }
  }
  ,
  {
    "entity":
    {
      "name":
      {
        "entityName": "CstFloor4x4_"
        ,
        "tag": "Interactable"
      }
      ,
      "transform":
      {
        "pos": "-215.389 -4.19913e-06 -96.065"
        ,
        "rotation": "0.0 0.0 0.0 -1.0"
      }
      ,
      "prefab": "data/scenes/CST_SalaSpiderman/CstFloor4x4__m_suelo.json"
    }
  }
  ,
  {
    "entity":
    {
      "name":
      {
        "entityName": "CstFloor8x8_"
        ,
        "tag": "Interactable"
      }
      ,
      "transform":
      {
        "pos": "-190.0 -4.73404e-06 -108.302"
        ,
        "rotation": "0.0 0.0 0.0 -1.0"
      }
      ,
      "prefab": "data/scenes/CST_SalaSpiderman/CstFloor8x8__m_suelo.json"
    }
  }
  ,
  {
    "entity":
    {
      "name":
      {
        "entityName": "CstFloor12x8_"
        ,
        "tag": "Interactable"
      }
      ,
      "transform":
      {
        "pos": "-230.0 -4.29693e-06 -98.3023"
        ,
        "rotation": "0.0 0.0 0.0 -1.0"
      }
      ,
      "prefab": "data/scenes/CST_SalaSpiderman/CstFloor12x8__m_suelo.json"
    }
  }
  ,
  {
    "entity":
    {
      "name":
      {
        "entityName": "CstFloorHole"
        ,
        "tag": "Interactable"
      }
      ,
      "transform":
      {
        "pos": "-190.0 -4.03466e-06 -92.3023"
        ,
        "rotation": "0.0 0.0 0.0 -1.0"
      }
      ,
      "prefab": "data/scenes/CST_SalaSpiderman/CstFloorHole_m_suelo.json"
    }
  }
  ,
  {
    "entity":
    {
      "name":
      {
        "entityName": "CstHalfCeil"
        ,
        "tag": "Interactable"
      }
      ,
      "transform":
      {
        "pos": "-176.0 -5.08373e-06 -116.302"
        ,
        "rotation": "-0.707107 0.0 0.0 -0.707107"
      }
      ,
      "prefab": "data/scenes/CST_SalaSpiderman/CstHalfCeil_m_suelo.json"
    }
  }
  ,
  {
    "entity":
    {
      "name":
      {
        "entityName": "CstPlatBg"
        ,
        "tag": "Interactable"
      }
      ,
      "transform":
      {
        "pos": "-236.364 -5.1493e-06 -117.802"
        ,
        "rotation": "0.0 0.0 0.0 -1.0"
      }
      ,
      "prefab": "data/scenes/CST_SalaSpiderman/CstPlatBg_m_suelo.json"
    }
  }
  ,
  {
    "entity":
    {
      "name":
      {
        "entityName": "CstPlatSm"
        ,
        "tag": "Interactable"
      }
      ,
      "transform":
      {
        "pos": "-203.448 -5.16905e-06 -118.69"
        ,
        "rotation": "0.0 0.0 0.0 -1.0"
      }
      ,
      "prefab": "data/scenes/CST_SalaSpiderman/CstPlatSm_m_suelo.json"
    }
  }
  ,
  {
    "entity":
    {
      "name":
      {
        "entityName": "CstStair"
        ,
        "tag": "Interactable"
      }
      ,
      "transform":
      {
        "pos": "-214.0 -4.82147e-06 -110.302"
        ,
        "rotation": "0.0 0.0 0.0 -1.0"
      }
      ,
      "prefab": "data/scenes/CST_SalaSpiderman/CstStair_m_suelo.json"
    }
  }
  ,
  {
    "entity":
    {
      "name":
      {
        "entityName": "CstTunnCurv"
        ,
        "tag": "Interactable"
      }
      ,
      "transform":
      {
        "pos": "-180.0 -4.14434e-06 -98.3023"
        ,
        "rotation": "0.0 0.0 0.0 -1.0"
      }
      ,
      "prefab": "data/scenes/CST_SalaSpiderman/CstTunnCurv_m_suelo.json"
    }
  }
  ,
  {
    "entity":
    {
      "name":
      {
        "entityName": "CstTunnStr"
        ,
        "tag": "Interactable"
      }
      ,
      "transform":
      {
        "pos": "-112.0 -4.47276e-06 -98.3023"
        ,
        "rotation": "0.0 0.0 0.0 -1.0"
      }
      ,
      "prefab": "data/scenes/CST_SalaSpiderman/CstTunnStr_m_suelo.json"
    }
  }
  ,
  {
    "entity":
    {
      "name":
      {
        "entityName": "CstTunnWall"
        ,
        "tag": "Interactable"
      }
      ,
      "transform":
      {
        "pos": "-199.369 -4.65017e-06 -102.361"
        ,
        "rotation": "0.0 0.0 0.0 -1.0"
      }
      ,
      "prefab": "data/scenes/CST_SalaSpiderman/CstTunnWall_m_suelo.json"
    }
  }
  ,
  {
    "entity":
    {
      "name":
      {
        "entityName": "CstWall4x4_"
        ,
        "tag": "Interactable"
      }
      ,
      "transform":
      {
        "pos": "-207.438 -4.77752e-06 -108.97"
        ,
        "rotation": "0.0 -0.707107 0.0 -0.707107"
      }
      ,
      "prefab": "data/scenes/CST_SalaSpiderman/CstWall4x4__m_suelo.json"
    }
  }
  ,
  {
    "entity":
    {
      "name":
      {
        "entityName": "CstWall8x4_"
        ,
        "tag": "Interactable"
      }
      ,
      "transform":
      {
        "pos": "-210.0 -5.17183e-06 -118.302"
        ,
        "rotation": "0.0 -0.707107 0.0 -0.707107"
      }
      ,
      "prefab": "data/scenes/CST_SalaSpiderman/CstWall8x4__m_suelo.json"
    }
  }
  ,
  {
    "entity":
    {
      "name":
      {
        "entityName": "CstWall8x8_"
        ,
        "tag": "Interactable"
      }
      ,
      "transform":
      {
        "pos": "-220.0 -5.17116e-06 -118.302"
        ,
        "rotation": "0.0 -0.707107 0.0 -0.707107"
      }
      ,
      "prefab": "data/scenes/CST_SalaSpiderman/CstWall8x8__m_suelo.json"
    }
  }
  ,
  {
    "entity":
    {
      "name":
      {
        "entityName": "CstFloor12x8_001"
        ,
        "tag": "Interactable"
      }
      ,
      "transform":
      {
        "pos": "-2.0 2.62268e-07 6.0"
        ,
        "rotation": "0.0 0.0 0.0 -1.0"
      }
      ,
      "prefab": "data/scenes/CST_SalaSpiderman/CstFloor12x8__m_suelo.json"
      ,
      "collider":
      {
        "shapes":
        [
          {
            "shape": "trimesh"
            ,
            "collision_mesh": "data/meshes/CST_SalaSpiderman/CST_SalaSpiderman_CstFloor12x8_001.col_mesh"
            ,
            "group": "all"
            ,
            "mask": "all"
          }
        ]
        ,
        "density": 1
        ,
        "mass": 1
        ,
        "linearDrag": 0.5
        ,
        "angularDrag": 0.25
        ,
        "dynamic": false
        ,
        "kinematic": false
      }
    }
  }
  ,
  {
    "entity":
    {
      "name":
      {
        "entityName": "CstFloor12x8_002"
        ,
        "tag": "Interactable"
      }
      ,
      "transform":
      {
        "pos": "58.0 2.62268e-07 6.0"
        ,
        "rotation": "0.0 0.0 0.0 -1.0"
      }
      ,
      "prefab": "data/scenes/CST_SalaSpiderman/CstFloor12x8__m_suelo.json"
    }
  }
  ,
  {
    "entity":
    {
      "name":
      {
        "entityName": "CstFloor4x4_001"
        ,
        "tag": "Interactable"
      }
      ,
      "transform":
      {
        "pos": "14.0 12.0 4.0"
        ,
        "rotation": "0.0 0.0 0.0 -1.0"
      }
      ,
      "prefab": "data/scenes/CST_SalaSpiderman/CstFloor4x4__m_suelo.json"
    }
  }
  ,
  {
    "entity":
    {
      "name":
      {
        "entityName": "CstFloor4x4_002"
        ,
        "tag": "Interactable"
      }
      ,
      "transform":
      {
        "pos": "30.0 12.0 4.0"
        ,
        "rotation": "0.0 0.0 0.0 -1.0"
      }
      ,
      "prefab": "data/scenes/CST_SalaSpiderman/CstFloor4x4__m_suelo.json"
    }
  }
  ,
  {
    "entity":
    {
      "name":
      {
        "entityName": "CstFloor4x4_003"
        ,
        "tag": "Interactable"
      }
      ,
      "transform":
      {
        "pos": "46.0 12.0 4.0"
        ,
        "rotation": "0.0 0.0 0.0 -1.0"
      }
      ,
      "prefab": "data/scenes/CST_SalaSpiderman/CstFloor4x4__m_suelo.json"
    }
  }
  ,
  {
    "entity":
    {
      "name":
      {
        "entityName": "CstFloor4x4_004"
        ,
        "tag": "Interactable"
      }
      ,
      "transform":
      {
        "pos": "14.0 12.0 -5.24537e-07"
        ,
        "rotation": "0.0 0.0 0.0 -1.0"
      }
      ,
      "prefab": "data/scenes/CST_SalaSpiderman/CstFloor4x4__m_suelo.json"
    }
  }
  ,
  {
    "entity":
    {
      "name":
      {
        "entityName": "CstFloor4x4_005"
        ,
        "tag": "Interactable"
      }
      ,
      "transform":
      {
        "pos": "30.0 12.0 -5.24537e-07"
        ,
        "rotation": "0.0 0.0 0.0 -1.0"
      }
      ,
      "prefab": "data/scenes/CST_SalaSpiderman/CstFloor4x4__m_suelo.json"
    }
  }
  ,
  {
    "entity":
    {
      "name":
      {
        "entityName": "CstFloor4x4_006"
        ,
        "tag": "Interactable"
      }
      ,
      "transform":
      {
        "pos": "46.0 12.0 -5.24537e-07"
        ,
        "rotation": "0.0 0.0 0.0 -1.0"
      }
      ,
      "prefab": "data/scenes/CST_SalaSpiderman/CstFloor4x4__m_suelo.json"
    }
  }
  ,
  {
    "entity":
    {
      "name":
      {
        "entityName": "CstWall8x4_001"
        ,
        "tag": "Interactable"
      }
      ,
      "transform":
      {
        "pos": "14.0 12.0 4.0"
        ,
        "rotation": "0.0 -0.707107 0.0 -0.707107"
      }
      ,
      "prefab": "data/scenes/CST_SalaSpiderman/CstWall8x4__m_suelo.json"
    }
  }
  ,
  {
    "entity":
    {
      "name":
      {
        "entityName": "CstWall8x4_002"
        ,
        "tag": "Interactable"
      }
      ,
      "transform":
      {
        "pos": "14.0 12.0 -4.0"
        ,
        "rotation": "0.0 -0.707107 0.0 -0.707107"
      }
      ,
      "prefab": "data/scenes/CST_SalaSpiderman/CstWall8x4__m_suelo.json"
    }
  }
  ,
  {
    "entity":
    {
      "name":
      {
        "entityName": "CstWall8x4_003"
        ,
        "tag": "Interactable"
      }
      ,
      "transform":
      {
        "pos": "30.0 12.0 4.0"
        ,
        "rotation": "0.0 -0.707107 0.0 -0.707107"
      }
      ,
      "prefab": "data/scenes/CST_SalaSpiderman/CstWall8x4__m_suelo.json"
    }
  }
  ,
  {
    "entity":
    {
      "name":
      {
        "entityName": "CstWall8x4_004"
        ,
        "tag": "Interactable"
      }
      ,
      "transform":
      {
        "pos": "30.0 12.0 -4.0"
        ,
        "rotation": "0.0 -0.707107 0.0 -0.707107"
      }
      ,
      "prefab": "data/scenes/CST_SalaSpiderman/CstWall8x4__m_suelo.json"
    }
  }
  ,
  {
    "entity":
    {
      "name":
      {
        "entityName": "CstWall8x4_005"
        ,
        "tag": "Interactable"
      }
      ,
      "transform":
      {
        "pos": "46.0 12.0 4.0"
        ,
        "rotation": "0.0 -0.707107 0.0 -0.707107"
      }
      ,
      "prefab": "data/scenes/CST_SalaSpiderman/CstWall8x4__m_suelo.json"
    }
  }
  ,
  {
    "entity":
    {
      "name":
      {
        "entityName": "CstWall8x4_006"
        ,
        "tag": "Interactable"
      }
      ,
      "transform":
      {
        "pos": "46.0 12.0 -4.0"
        ,
        "rotation": "0.0 -0.707107 0.0 -0.707107"
      }
      ,
      "prefab": "data/scenes/CST_SalaSpiderman/CstWall8x4__m_suelo.json"
    }
  }
  ,
  {
    "entity":
    {
      "name":
      {
        "entityName": "CstFloor4x4_007"
        ,
        "tag": "Interactable"
      }
      ,
      "transform":
      {
        "pos": "18.0 12.0 4.0"
        ,
        "rotation": "0.0 0.0 0.0 -1.0"
      }
      ,
      "prefab": "data/scenes/CST_SalaSpiderman/CstFloor4x4__m_suelo.json"
    }
  }
  ,
  {
    "entity":
    {
      "name":
      {
        "entityName": "CstFloor4x4_008"
        ,
        "tag": "Interactable"
      }
      ,
      "transform":
      {
        "pos": "18.0 12.0 -5.24537e-07"
        ,
        "rotation": "0.0 0.0 0.0 -1.0"
      }
      ,
      "prefab": "data/scenes/CST_SalaSpiderman/CstFloor4x4__m_suelo.json"
    }
  }
  ,
  {
    "entity":
    {
      "name":
      {
        "entityName": "CstWall8x4_007"
        ,
        "tag": "Interactable"
      }
      ,
      "transform":
      {
        "pos": "18.0 12.0 4.0"
        ,
        "rotation": "0.0 -0.707107 0.0 -0.707107"
      }
      ,
      "prefab": "data/scenes/CST_SalaSpiderman/CstWall8x4__m_suelo.json"
    }
  }
  ,
  {
    "entity":
    {
      "name":
      {
        "entityName": "CstWall8x4_008"
        ,
        "tag": "Interactable"
      }
      ,
      "transform":
      {
        "pos": "18.0 12.0 -4.0"
        ,
        "rotation": "0.0 -0.707107 0.0 -0.707107"
      }
      ,
      "prefab": "data/scenes/CST_SalaSpiderman/CstWall8x4__m_suelo.json"
    }
  }
  ,
  {
    "entity":
    {
      "name":
      {
        "entityName": "CstFloor4x4_009"
        ,
        "tag": "Interactable"
      }
      ,
      "transform":
      {
        "pos": "22.0 12.0 4.0"
        ,
        "rotation": "0.0 0.0 0.0 -1.0"
      }
      ,
      "prefab": "data/scenes/CST_SalaSpiderman/CstFloor4x4__m_suelo.json"
    }
  }
  ,
  {
    "entity":
    {
      "name":
      {
        "entityName": "CstFloor4x4_010"
        ,
        "tag": "Interactable"
      }
      ,
      "transform":
      {
        "pos": "22.0 12.0 -5.24537e-07"
        ,
        "rotation": "0.0 0.0 0.0 -1.0"
      }
      ,
      "prefab": "data/scenes/CST_SalaSpiderman/CstFloor4x4__m_suelo.json"
    }
  }
  ,
  {
    "entity":
    {
      "name":
      {
        "entityName": "CstWall8x4_009"
        ,
        "tag": "Interactable"
      }
      ,
      "transform":
      {
        "pos": "22.0 12.0 4.0"
        ,
        "rotation": "0.0 -0.707107 0.0 -0.707107"
      }
      ,
      "prefab": "data/scenes/CST_SalaSpiderman/CstWall8x4__m_suelo.json"
    }
  }
  ,
  {
    "entity":
    {
      "name":
      {
        "entityName": "CstWall8x4_010"
        ,
        "tag": "Interactable"
      }
      ,
      "transform":
      {
        "pos": "22.0 12.0 -4.0"
        ,
        "rotation": "0.0 -0.707107 0.0 -0.707107"
      }
      ,
      "prefab": "data/scenes/CST_SalaSpiderman/CstWall8x4__m_suelo.json"
    }
  }
  ,
  {
    "entity":
    {
      "name":
      {
        "entityName": "CstFloor4x4_011"
        ,
        "tag": "Interactable"
      }
      ,
      "transform":
      {
        "pos": "34.0 12.0 4.0"
        ,
        "rotation": "0.0 0.0 0.0 -1.0"
      }
      ,
      "prefab": "data/scenes/CST_SalaSpiderman/CstFloor4x4__m_suelo.json"
    }
  }
  ,
  {
    "entity":
    {
      "name":
      {
        "entityName": "CstFloor4x4_012"
        ,
        "tag": "Interactable"
      }
      ,
      "transform":
      {
        "pos": "34.0 12.0 -5.24537e-07"
        ,
        "rotation": "0.0 0.0 0.0 -1.0"
      }
      ,
      "prefab": "data/scenes/CST_SalaSpiderman/CstFloor4x4__m_suelo.json"
    }
  }
  ,
  {
    "entity":
    {
      "name":
      {
        "entityName": "CstWall8x4_011"
        ,
        "tag": "Interactable"
      }
      ,
      "transform":
      {
        "pos": "34.0 12.0 4.0"
        ,
        "rotation": "0.0 -0.707107 0.0 -0.707107"
      }
      ,
      "prefab": "data/scenes/CST_SalaSpiderman/CstWall8x4__m_suelo.json"
    }
  }
  ,
  {
    "entity":
    {
      "name":
      {
        "entityName": "CstWall8x4_012"
        ,
        "tag": "Interactable"
      }
      ,
      "transform":
      {
        "pos": "34.0 12.0 -4.0"
        ,
        "rotation": "0.0 -0.707107 0.0 -0.707107"
      }
      ,
      "prefab": "data/scenes/CST_SalaSpiderman/CstWall8x4__m_suelo.json"
    }
  }
  ,
  {
    "entity":
    {
      "name":
      {
        "entityName": "CstFloor4x4_013"
        ,
        "tag": "Interactable"
      }
      ,
      "transform":
      {
        "pos": "38.0 12.0 4.0"
        ,
        "rotation": "0.0 0.0 0.0 -1.0"
      }
      ,
      "prefab": "data/scenes/CST_SalaSpiderman/CstFloor4x4__m_suelo.json"
    }
  }
  ,
  {
    "entity":
    {
      "name":
      {
        "entityName": "CstFloor4x4_014"
        ,
        "tag": "Interactable"
      }
      ,
      "transform":
      {
        "pos": "38.0 12.0 -5.24537e-07"
        ,
        "rotation": "0.0 0.0 0.0 -1.0"
      }
      ,
      "prefab": "data/scenes/CST_SalaSpiderman/CstFloor4x4__m_suelo.json"
    }
  }
  ,
  {
    "entity":
    {
      "name":
      {
        "entityName": "CstWall8x4_013"
        ,
        "tag": "Interactable"
      }
      ,
      "transform":
      {
        "pos": "38.0 12.0 4.0"
        ,
        "rotation": "0.0 -0.707107 0.0 -0.707107"
      }
      ,
      "prefab": "data/scenes/CST_SalaSpiderman/CstWall8x4__m_suelo.json"
    }
  }
  ,
  {
    "entity":
    {
      "name":
      {
        "entityName": "CstWall8x4_014"
        ,
        "tag": "Interactable"
      }
      ,
      "transform":
      {
        "pos": "38.0 12.0 -4.0"
        ,
        "rotation": "0.0 -0.707107 0.0 -0.707107"
      }
      ,
      "prefab": "data/scenes/CST_SalaSpiderman/CstWall8x4__m_suelo.json"
    }
  }
  ,
  {
    "entity":
    {
      "name":
      {
        "entityName": "CstWall8x8_001"
        ,
        "tag": "Interactable"
      }
      ,
      "transform":
      {
        "pos": "14.0 12.0 4.0"
        ,
        "rotation": "0.0 -1.0 0.0 0.0"
      }
      ,
      "prefab": "data/scenes/CST_SalaSpiderman/CstWall8x8__m_suelo.json"
    }
  }
  ,
  {
    "entity":
    {
      "name":
      {
        "entityName": "CstWall8x4_015"
        ,
        "tag": "Interactable"
      }
      ,
      "transform":
      {
        "pos": "14.0 20.0 4.0"
        ,
        "rotation": "0.0 -0.707107 0.0 -0.707107"
      }
      ,
      "prefab": "data/scenes/CST_SalaSpiderman/CstWall8x4__m_suelo.json"
    }
  }
  ,
  {
    "entity":
    {
      "name":
      {
        "entityName": "CstWall8x4_016"
        ,
        "tag": "Interactable"
      }
      ,
      "transform":
      {
        "pos": "14.0 20.0 -4.0"
        ,
        "rotation": "0.0 -0.707107 0.0 -0.707107"
      }
      ,
      "prefab": "data/scenes/CST_SalaSpiderman/CstWall8x4__m_suelo.json"
    }
  }
  ,
  {
    "entity":
    {
      "name":
      {
        "entityName": "CstWall8x4_017"
        ,
        "tag": "Interactable"
      }
      ,
      "transform":
      {
        "pos": "18.0 20.0 4.0"
        ,
        "rotation": "0.0 -0.707107 0.0 -0.707107"
      }
      ,
      "prefab": "data/scenes/CST_SalaSpiderman/CstWall8x4__m_suelo.json"
    }
  }
  ,
  {
    "entity":
    {
      "name":
      {
        "entityName": "CstWall8x4_018"
        ,
        "tag": "Interactable"
      }
      ,
      "transform":
      {
        "pos": "18.0 20.0 -4.0"
        ,
        "rotation": "0.0 -0.707107 0.0 -0.707107"
      }
      ,
      "prefab": "data/scenes/CST_SalaSpiderman/CstWall8x4__m_suelo.json"
    }
  }
  ,
  {
    "entity":
    {
      "name":
      {
        "entityName": "CstWall8x8_002"
        ,
        "tag": "Interactable"
      }
      ,
      "transform":
      {
        "pos": "14.0 20.0 4.0"
        ,
        "rotation": "0.0 -1.0 0.0 0.0"
      }
      ,
      "prefab": "data/scenes/CST_SalaSpiderman/CstWall8x8__m_suelo.json"
    }
  }
  ,
  {
    "entity":
    {
      "name":
      {
        "entityName": "CstFloor12x8_003"
        ,
        "tag": "Interactable"
      }
      ,
      "transform":
      {
        "pos": "22.0 20.0 -4.0"
        ,
        "rotation": "0.0 0.707107 0.0 -0.707107"
      }
      ,
      "prefab": "data/scenes/CST_SalaSpiderman/CstFloor12x8__m_suelo.json"
    }
  }
  ,
  {
    "entity":
    {
      "name":
      {
        "entityName": "CstFloor12x8_004"
        ,
        "tag": "Interactable"
      }
      ,
      "transform":
      {
        "pos": "34.0 20.0 -4.0"
        ,
        "rotation": "0.0 0.707107 0.0 -0.707107"
      }
      ,
      "prefab": "data/scenes/CST_SalaSpiderman/CstFloor12x8__m_suelo.json"
    }
  }
  ,
  {
    "entity":
    {
      "name":
      {
        "entityName": "CstFloor12x8_005"
        ,
        "tag": "Interactable"
      }
      ,
      "transform":
      {
        "pos": "46.0 20.0 -4.0"
        ,
        "rotation": "0.0 0.707107 0.0 -0.707107"
      }
      ,
      "prefab": "data/scenes/CST_SalaSpiderman/CstFloor12x8__m_suelo.json"
    }
  }
  ,
  {
    "entity":
    {
      "name":
      {
        "entityName": "CstWall8x8_003"
        ,
        "tag": "Interactable"
      }
      ,
      "transform":
      {
        "pos": "-2.0 -2.84124e-07 -6.5"
        ,
        "rotation": "0.0 -0.707107 0.0 -0.707107"
      }
      ,
      "prefab": "data/scenes/CST_SalaSpiderman/CstWall8x8__m_suelo.json"
    }
  }
  ,
  {
    "entity":
    {
      "name":
      {
        "entityName": "CstWall8x8_004"
        ,
        "tag": "Interactable"
      }
      ,
      "transform":
      {
        "pos": "6.0 -2.84124e-07 -6.5"
        ,
        "rotation": "0.0 -0.707107 0.0 -0.707107"
      }
      ,
      "prefab": "data/scenes/CST_SalaSpiderman/CstWall8x8__m_suelo.json"
    }
  }
  ,
  {
    "entity":
    {
      "name":
      {
        "entityName": "CstWall8x8_005"
        ,
        "tag": "Interactable"
      }
      ,
      "transform":
      {
        "pos": "14.0 -2.84124e-07 -6.5"
        ,
        "rotation": "0.0 -0.707107 0.0 -0.707107"
      }
      ,
      "prefab": "data/scenes/CST_SalaSpiderman/CstWall8x8__m_suelo.json"
    }
  }
  ,
  {
    "entity":
    {
      "name":
      {
        "entityName": "CstWall8x8_006"
        ,
        "tag": "Interactable"
      }
      ,
      "transform":
      {
        "pos": "22.0 -2.84124e-07 -6.5"
        ,
        "rotation": "0.0 -0.707107 0.0 -0.707107"
      }
      ,
      "prefab": "data/scenes/CST_SalaSpiderman/CstWall8x8__m_suelo.json"
    }
  }
  ,
  {
    "entity":
    {
      "name":
      {
        "entityName": "CstWall8x8_007"
        ,
        "tag": "Interactable"
      }
      ,
      "transform":
      {
        "pos": "30.0 -2.84124e-07 -6.5"
        ,
        "rotation": "0.0 -0.707107 0.0 -0.707107"
      }
      ,
      "prefab": "data/scenes/CST_SalaSpiderman/CstWall8x8__m_suelo.json"
    }
  }
  ,
  {
    "entity":
    {
      "name":
      {
        "entityName": "CstWall8x8_008"
        ,
        "tag": "Interactable"
      }
      ,
      "transform":
      {
        "pos": "38.0 -2.84124e-07 -6.5"
        ,
        "rotation": "0.0 -0.707107 0.0 -0.707107"
      }
      ,
      "prefab": "data/scenes/CST_SalaSpiderman/CstWall8x8__m_suelo.json"
    }
  }
  ,
  {
    "entity":
    {
      "name":
      {
        "entityName": "CstWall8x8_009"
        ,
        "tag": "Interactable"
      }
      ,
      "transform":
      {
        "pos": "46.0 -2.84124e-07 -6.5"
        ,
        "rotation": "0.0 -0.707107 0.0 -0.707107"
      }
      ,
      "prefab": "data/scenes/CST_SalaSpiderman/CstWall8x8__m_suelo.json"
    }
  }
  ,
  {
    "entity":
    {
      "name":
      {
        "entityName": "CstWall8x8_010"
        ,
        "tag": "Interactable"
      }
      ,
      "transform":
      {
        "pos": "54.0 -2.84124e-07 -6.5"
        ,
        "rotation": "0.0 -0.707107 0.0 -0.707107"
      }
      ,
      "prefab": "data/scenes/CST_SalaSpiderman/CstWall8x8__m_suelo.json"
    }
  }
  ,
  {
    "entity":
    {
      "name":
      {
        "entityName": "CstWall8x8_011"
        ,
        "tag": "Interactable"
      }
      ,
      "transform":
      {
        "pos": "62.0 -2.84124e-07 -6.5"
        ,
        "rotation": "0.0 -0.707107 0.0 -0.707107"
      }
      ,
      "prefab": "data/scenes/CST_SalaSpiderman/CstWall8x8__m_suelo.json"
    }
  }
  ,
  {
    "entity":
    {
      "name":
      {
        "entityName": "CstWall8x8_012"
        ,
        "tag": "Interactable"
      }
      ,
      "transform":
      {
        "pos": "-2.0 8.0 -6.5"
        ,
        "rotation": "0.0 -0.707107 0.0 -0.707107"
      }
      ,
      "prefab": "data/scenes/CST_SalaSpiderman/CstWall8x8__m_suelo.json"
    }
  }
  ,
  {
    "entity":
    {
      "name":
      {
        "entityName": "CstWall8x8_013"
        ,
        "tag": "Interactable"
      }
      ,
      "transform":
      {
        "pos": "6.0 8.0 -6.5"
        ,
        "rotation": "0.0 -0.707107 0.0 -0.707107"
      }
      ,
      "prefab": "data/scenes/CST_SalaSpiderman/CstWall8x8__m_suelo.json"
    }
  }
  ,
  {
    "entity":
    {
      "name":
      {
        "entityName": "CstWall8x8_014"
        ,
        "tag": "Interactable"
      }
      ,
      "transform":
      {
        "pos": "14.0 8.0 -6.5"
        ,
        "rotation": "0.0 -0.707107 0.0 -0.707107"
      }
      ,
      "prefab": "data/scenes/CST_SalaSpiderman/CstWall8x8__m_suelo.json"
    }
  }
  ,
  {
    "entity":
    {
      "name":
      {
        "entityName": "CstWall8x8_015"
        ,
        "tag": "Interactable"
      }
      ,
      "transform":
      {
        "pos": "22.0 8.0 -6.5"
        ,
        "rotation": "0.0 -0.707107 0.0 -0.707107"
      }
      ,
      "prefab": "data/scenes/CST_SalaSpiderman/CstWall8x8__m_suelo.json"
    }
  }
  ,
  {
    "entity":
    {
      "name":
      {
        "entityName": "CstWall8x8_016"
        ,
        "tag": "Interactable"
      }
      ,
      "transform":
      {
        "pos": "30.0 8.0 -6.5"
        ,
        "rotation": "0.0 -0.707107 0.0 -0.707107"
      }
      ,
      "prefab": "data/scenes/CST_SalaSpiderman/CstWall8x8__m_suelo.json"
    }
  }
  ,
  {
    "entity":
    {
      "name":
      {
        "entityName": "CstWall8x8_017"
        ,
        "tag": "Interactable"
      }
      ,
      "transform":
      {
        "pos": "38.0 8.0 -6.5"
        ,
        "rotation": "0.0 -0.707107 0.0 -0.707107"
      }
      ,
      "prefab": "data/scenes/CST_SalaSpiderman/CstWall8x8__m_suelo.json"
    }
  }
  ,
  {
    "entity":
    {
      "name":
      {
        "entityName": "CstWall8x8_018"
        ,
        "tag": "Interactable"
      }
      ,
      "transform":
      {
        "pos": "46.0 8.0 -6.5"
        ,
        "rotation": "0.0 -0.707107 0.0 -0.707107"
      }
      ,
      "prefab": "data/scenes/CST_SalaSpiderman/CstWall8x8__m_suelo.json"
    }
  }
  ,
  {
    "entity":
    {
      "name":
      {
        "entityName": "CstWall8x8_019"
        ,
        "tag": "Interactable"
      }
      ,
      "transform":
      {
        "pos": "54.0 8.0 -6.5"
        ,
        "rotation": "0.0 -0.707107 0.0 -0.707107"
      }
      ,
      "prefab": "data/scenes/CST_SalaSpiderman/CstWall8x8__m_suelo.json"
    }
  }
  ,
  {
    "entity":
    {
      "name":
      {
        "entityName": "CstWall8x8_020"
        ,
        "tag": "Interactable"
      }
      ,
      "transform":
      {
        "pos": "62.0 8.0 -6.5"
        ,
        "rotation": "0.0 -0.707107 0.0 -0.707107"
      }
      ,
      "prefab": "data/scenes/CST_SalaSpiderman/CstWall8x8__m_suelo.json"
    }
  }
  ,
  {
    "entity":
    {
      "name":
      {
        "entityName": "CstWall8x8_021"
        ,
        "tag": "Interactable"
      }
      ,
      "transform":
      {
        "pos": "-2.0 16.0 -6.5"
        ,
        "rotation": "0.0 -0.707107 0.0 -0.707107"
      }
      ,
      "prefab": "data/scenes/CST_SalaSpiderman/CstWall8x8__m_suelo.json"
    }
  }
  ,
  {
    "entity":
    {
      "name":
      {
        "entityName": "CstWall8x8_022"
        ,
        "tag": "Interactable"
      }
      ,
      "transform":
      {
        "pos": "6.0 16.0 -6.5"
        ,
        "rotation": "0.0 -0.707107 0.0 -0.707107"
      }
      ,
      "prefab": "data/scenes/CST_SalaSpiderman/CstWall8x8__m_suelo.json"
    }
  }
  ,
  {
    "entity":
    {
      "name":
      {
        "entityName": "CstWall8x8_023"
        ,
        "tag": "Interactable"
      }
      ,
      "transform":
      {
        "pos": "14.0 16.0 -6.5"
        ,
        "rotation": "0.0 -0.707107 0.0 -0.707107"
      }
      ,
      "prefab": "data/scenes/CST_SalaSpiderman/CstWall8x8__m_suelo.json"
    }
  }
  ,
  {
    "entity":
    {
      "name":
      {
        "entityName": "CstWall8x8_024"
        ,
        "tag": "Interactable"
      }
      ,
      "transform":
      {
        "pos": "22.0 16.0 -6.5"
        ,
        "rotation": "0.0 -0.707107 0.0 -0.707107"
      }
      ,
      "prefab": "data/scenes/CST_SalaSpiderman/CstWall8x8__m_suelo.json"
    }
  }
  ,
  {
    "entity":
    {
      "name":
      {
        "entityName": "CstWall8x8_025"
        ,
        "tag": "Interactable"
      }
      ,
      "transform":
      {
        "pos": "30.0 16.0 -6.5"
        ,
        "rotation": "0.0 -0.707107 0.0 -0.707107"
      }
      ,
      "prefab": "data/scenes/CST_SalaSpiderman/CstWall8x8__m_suelo.json"
    }
  }
  ,
  {
    "entity":
    {
      "name":
      {
        "entityName": "CstWall8x8_026"
        ,
        "tag": "Interactable"
      }
      ,
      "transform":
      {
        "pos": "38.0 16.0 -6.5"
        ,
        "rotation": "0.0 -0.707107 0.0 -0.707107"
      }
      ,
      "prefab": "data/scenes/CST_SalaSpiderman/CstWall8x8__m_suelo.json"
    }
  }
  ,
  {
    "entity":
    {
      "name":
      {
        "entityName": "CstWall8x8_027"
        ,
        "tag": "Interactable"
      }
      ,
      "transform":
      {
        "pos": "46.0 16.0 -6.5"
        ,
        "rotation": "0.0 -0.707107 0.0 -0.707107"
      }
      ,
      "prefab": "data/scenes/CST_SalaSpiderman/CstWall8x8__m_suelo.json"
    }
  }
  ,
  {
    "entity":
    {
      "name":
      {
        "entityName": "CstWall8x8_028"
        ,
        "tag": "Interactable"
      }
      ,
      "transform":
      {
        "pos": "54.0 16.0 -6.5"
        ,
        "rotation": "0.0 -0.707107 0.0 -0.707107"
      }
      ,
      "prefab": "data/scenes/CST_SalaSpiderman/CstWall8x8__m_suelo.json"
    }
  }
  ,
  {
    "entity":
    {
      "name":
      {
        "entityName": "CstWall8x8_029"
        ,
        "tag": "Interactable"
      }
      ,
      "transform":
      {
        "pos": "62.0 16.0 -6.5"
        ,
        "rotation": "0.0 -0.707107 0.0 -0.707107"
      }
      ,
      "prefab": "data/scenes/CST_SalaSpiderman/CstWall8x8__m_suelo.json"
    }
  }
  ,
  {
    "entity":
    {
      "name":
      {
        "entityName": "CstWall8x8_030"
        ,
        "tag": "Interactable"
      }
      ,
      "transform":
      {
        "pos": "-2.0 24.0 -6.5"
        ,
        "rotation": "0.0 -0.707107 0.0 -0.707107"
      }
      ,
      "prefab": "data/scenes/CST_SalaSpiderman/CstWall8x8__m_suelo.json"
    }
  }
  ,
  {
    "entity":
    {
      "name":
      {
        "entityName": "CstWall8x8_031"
        ,
        "tag": "Interactable"
      }
      ,
      "transform":
      {
        "pos": "6.0 24.0 -6.5"
        ,
        "rotation": "0.0 -0.707107 0.0 -0.707107"
      }
      ,
      "prefab": "data/scenes/CST_SalaSpiderman/CstWall8x8__m_suelo.json"
    }
  }
  ,
  {
    "entity":
    {
      "name":
      {
        "entityName": "CstWall8x8_032"
        ,
        "tag": "Interactable"
      }
      ,
      "transform":
      {
        "pos": "14.0 24.0 -6.5"
        ,
        "rotation": "0.0 -0.707107 0.0 -0.707107"
      }
      ,
      "prefab": "data/scenes/CST_SalaSpiderman/CstWall8x8__m_suelo.json"
    }
  }
  ,
  {
    "entity":
    {
      "name":
      {
        "entityName": "CstWall8x8_033"
        ,
        "tag": "Interactable"
      }
      ,
      "transform":
      {
        "pos": "22.0 24.0 -6.5"
        ,
        "rotation": "0.0 -0.707107 0.0 -0.707107"
      }
      ,
      "prefab": "data/scenes/CST_SalaSpiderman/CstWall8x8__m_suelo.json"
    }
  }
  ,
  {
    "entity":
    {
      "name":
      {
        "entityName": "CstWall8x8_034"
        ,
        "tag": "Interactable"
      }
      ,
      "transform":
      {
        "pos": "30.0 24.0 -6.5"
        ,
        "rotation": "0.0 -0.707107 0.0 -0.707107"
      }
      ,
      "prefab": "data/scenes/CST_SalaSpiderman/CstWall8x8__m_suelo.json"
    }
  }
  ,
  {
    "entity":
    {
      "name":
      {
        "entityName": "CstWall8x8_035"
        ,
        "tag": "Interactable"
      }
      ,
      "transform":
      {
        "pos": "38.0 24.0 -6.5"
        ,
        "rotation": "0.0 -0.707107 0.0 -0.707107"
      }
      ,
      "prefab": "data/scenes/CST_SalaSpiderman/CstWall8x8__m_suelo.json"
    }
  }
  ,
  {
    "entity":
    {
      "name":
      {
        "entityName": "CstWall8x8_036"
        ,
        "tag": "Interactable"
      }
      ,
      "transform":
      {
        "pos": "46.0 24.0 -6.5"
        ,
        "rotation": "0.0 -0.707107 0.0 -0.707107"
      }
      ,
      "prefab": "data/scenes/CST_SalaSpiderman/CstWall8x8__m_suelo.json"
    }
  }
  ,
  {
    "entity":
    {
      "name":
      {
        "entityName": "CstWall8x8_037"
        ,
        "tag": "Interactable"
      }
      ,
      "transform":
      {
        "pos": "54.0 24.0 -6.5"
        ,
        "rotation": "0.0 -0.707107 0.0 -0.707107"
      }
      ,
      "prefab": "data/scenes/CST_SalaSpiderman/CstWall8x8__m_suelo.json"
    }
  }
  ,
  {
    "entity":
    {
      "name":
      {
        "entityName": "CstWall8x8_038"
        ,
        "tag": "Interactable"
      }
      ,
      "transform":
      {
        "pos": "62.0 24.0 -6.5"
        ,
        "rotation": "0.0 -0.707107 0.0 -0.707107"
      }
      ,
      "prefab": "data/scenes/CST_SalaSpiderman/CstWall8x8__m_suelo.json"
    }
  }
  ,
  {
    "entity":
    {
      "name":
      {
        "entityName": "CstWall8x8_039"
        ,
        "tag": "Interactable"
      }
      ,
      "transform":
      {
        "pos": "70.0 2.84125e-07 6.50001"
        ,
        "rotation": "0.0 0.707107 0.0 -0.707107"
      }
      ,
      "prefab": "data/scenes/CST_SalaSpiderman/CstWall8x8__m_suelo.json"
    }
  }
  ,
  {
    "entity":
    {
      "name":
      {
        "entityName": "CstWall8x8_040"
        ,
        "tag": "Interactable"
      }
      ,
      "transform":
      {
        "pos": "62.0 2.84124e-07 6.50001"
        ,
        "rotation": "0.0 0.707107 0.0 -0.707107"
      }
      ,
      "prefab": "data/scenes/CST_SalaSpiderman/CstWall8x8__m_suelo.json"
    }
  }
  ,
  {
    "entity":
    {
      "name":
      {
        "entityName": "CstWall8x8_041"
        ,
        "tag": "Interactable"
      }
      ,
      "transform":
      {
        "pos": "54.0 2.84124e-07 6.50001"
        ,
        "rotation": "0.0 0.707107 0.0 -0.707107"
      }
      ,
      "prefab": "data/scenes/CST_SalaSpiderman/CstWall8x8__m_suelo.json"
    }
  }
  ,
  {
    "entity":
    {
      "name":
      {
        "entityName": "CstWall8x8_042"
        ,
        "tag": "Interactable"
      }
      ,
      "transform":
      {
        "pos": "46.0 2.84124e-07 6.50001"
        ,
        "rotation": "0.0 0.707107 0.0 -0.707107"
      }
      ,
      "prefab": "data/scenes/CST_SalaSpiderman/CstWall8x8__m_suelo.json"
    }
  }
  ,
  {
    "entity":
    {
      "name":
      {
        "entityName": "CstWall8x8_043"
        ,
        "tag": "Interactable"
      }
      ,
      "transform":
      {
        "pos": "38.0 2.84124e-07 6.50001"
        ,
        "rotation": "0.0 0.707107 0.0 -0.707107"
      }
      ,
      "prefab": "data/scenes/CST_SalaSpiderman/CstWall8x8__m_suelo.json"
    }
  }
  ,
  {
    "entity":
    {
      "name":
      {
        "entityName": "CstWall8x8_044"
        ,
        "tag": "Interactable"
      }
      ,
      "transform":
      {
        "pos": "30.0 2.84124e-07 6.50001"
        ,
        "rotation": "0.0 0.707107 0.0 -0.707107"
      }
      ,
      "prefab": "data/scenes/CST_SalaSpiderman/CstWall8x8__m_suelo.json"
    }
  }
  ,
  {
    "entity":
    {
      "name":
      {
        "entityName": "CstWall8x8_045"
        ,
        "tag": "Interactable"
      }
      ,
      "transform":
      {
        "pos": "22.0 2.84124e-07 6.5"
        ,
        "rotation": "0.0 0.707107 0.0 -0.707107"
      }
      ,
      "prefab": "data/scenes/CST_SalaSpiderman/CstWall8x8__m_suelo.json"
    }
  }
  ,
  {
    "entity":
    {
      "name":
      {
        "entityName": "CstWall8x8_046"
        ,
        "tag": "Interactable"
      }
      ,
      "transform":
      {
        "pos": "14.0 2.84124e-07 6.5"
        ,
        "rotation": "0.0 0.707107 0.0 -0.707107"
      }
      ,
      "prefab": "data/scenes/CST_SalaSpiderman/CstWall8x8__m_suelo.json"
    }
  }
  ,
  {
    "entity":
    {
      "name":
      {
        "entityName": "CstWall8x8_047"
        ,
        "tag": "Interactable"
      }
      ,
      "transform":
      {
        "pos": "6.0 2.84124e-07 6.5"
        ,
        "rotation": "0.0 0.707107 0.0 -0.707107"
      }
      ,
      "prefab": "data/scenes/CST_SalaSpiderman/CstWall8x8__m_suelo.json"
    }
  }
  ,
  {
    "entity":
    {
      "name":
      {
        "entityName": "CstWall8x8_048"
        ,
        "tag": "Interactable"
      }
      ,
      "transform":
      {
        "pos": "70.0 8.0 6.50001"
        ,
        "rotation": "0.0 0.707107 0.0 -0.707107"
      }
      ,
      "prefab": "data/scenes/CST_SalaSpiderman/CstWall8x8__m_suelo.json"
    }
  }
  ,
  {
    "entity":
    {
      "name":
      {
        "entityName": "CstWall8x8_049"
        ,
        "tag": "Interactable"
      }
      ,
      "transform":
      {
        "pos": "62.0 8.0 6.50001"
        ,
        "rotation": "0.0 0.707107 0.0 -0.707107"
      }
      ,
      "prefab": "data/scenes/CST_SalaSpiderman/CstWall8x8__m_suelo.json"
    }
  }
  ,
  {
    "entity":
    {
      "name":
      {
        "entityName": "CstWall8x8_050"
        ,
        "tag": "Interactable"
      }
      ,
      "transform":
      {
        "pos": "54.0 8.0 6.50001"
        ,
        "rotation": "0.0 0.707107 0.0 -0.707107"
      }
      ,
      "prefab": "data/scenes/CST_SalaSpiderman/CstWall8x8__m_suelo.json"
    }
  }
  ,
  {
    "entity":
    {
      "name":
      {
        "entityName": "CstWall8x8_051"
        ,
        "tag": "Interactable"
      }
      ,
      "transform":
      {
        "pos": "46.0 8.0 6.50001"
        ,
        "rotation": "0.0 0.707107 0.0 -0.707107"
      }
      ,
      "prefab": "data/scenes/CST_SalaSpiderman/CstWall8x8__m_suelo.json"
    }
  }
  ,
  {
    "entity":
    {
      "name":
      {
        "entityName": "CstWall8x8_052"
        ,
        "tag": "Interactable"
      }
      ,
      "transform":
      {
        "pos": "38.0 8.0 6.50001"
        ,
        "rotation": "0.0 0.707107 0.0 -0.707107"
      }
      ,
      "prefab": "data/scenes/CST_SalaSpiderman/CstWall8x8__m_suelo.json"
    }
  }
  ,
  {
    "entity":
    {
      "name":
      {
        "entityName": "CstWall8x8_053"
        ,
        "tag": "Interactable"
      }
      ,
      "transform":
      {
        "pos": "30.0 8.0 6.5"
        ,
        "rotation": "0.0 0.707107 0.0 -0.707107"
      }
      ,
      "prefab": "data/scenes/CST_SalaSpiderman/CstWall8x8__m_suelo.json"
    }
  }
  ,
  {
    "entity":
    {
      "name":
      {
        "entityName": "CstWall8x8_054"
        ,
        "tag": "Interactable"
      }
      ,
      "transform":
      {
        "pos": "22.0 8.0 6.5"
        ,
        "rotation": "0.0 0.707107 0.0 -0.707107"
      }
      ,
      "prefab": "data/scenes/CST_SalaSpiderman/CstWall8x8__m_suelo.json"
    }
  }
  ,
  {
    "entity":
    {
      "name":
      {
        "entityName": "CstWall8x8_055"
        ,
        "tag": "Interactable"
      }
      ,
      "transform":
      {
        "pos": "14.0 8.0 6.5"
        ,
        "rotation": "0.0 0.707107 0.0 -0.707107"
      }
      ,
      "prefab": "data/scenes/CST_SalaSpiderman/CstWall8x8__m_suelo.json"
    }
  }
  ,
  {
    "entity":
    {
      "name":
      {
        "entityName": "CstWall8x8_056"
        ,
        "tag": "Interactable"
      }
      ,
      "transform":
      {
        "pos": "6.0 8.0 6.5"
        ,
        "rotation": "0.0 0.707107 0.0 -0.707107"
      }
      ,
      "prefab": "data/scenes/CST_SalaSpiderman/CstWall8x8__m_suelo.json"
    }
  }
  ,
  {
    "entity":
    {
      "name":
      {
        "entityName": "CstWall8x8_057"
        ,
        "tag": "Interactable"
      }
      ,
      "transform":
      {
        "pos": "70.0 16.0 6.50001"
        ,
        "rotation": "0.0 0.707107 0.0 -0.707107"
      }
      ,
      "prefab": "data/scenes/CST_SalaSpiderman/CstWall8x8__m_suelo.json"
    }
  }
  ,
  {
    "entity":
    {
      "name":
      {
        "entityName": "CstWall8x8_058"
        ,
        "tag": "Interactable"
      }
      ,
      "transform":
      {
        "pos": "62.0 16.0 6.50001"
        ,
        "rotation": "0.0 0.707107 0.0 -0.707107"
      }
      ,
      "prefab": "data/scenes/CST_SalaSpiderman/CstWall8x8__m_suelo.json"
    }
  }
  ,
  {
    "entity":
    {
      "name":
      {
        "entityName": "CstWall8x8_059"
        ,
        "tag": "Interactable"
      }
      ,
      "transform":
      {
        "pos": "54.0 16.0 6.50001"
        ,
        "rotation": "0.0 0.707107 0.0 -0.707107"
      }
      ,
      "prefab": "data/scenes/CST_SalaSpiderman/CstWall8x8__m_suelo.json"
    }
  }
  ,
  {
    "entity":
    {
      "name":
      {
        "entityName": "CstWall8x8_060"
        ,
        "tag": "Interactable"
      }
      ,
      "transform":
      {
        "pos": "46.0 16.0 6.50001"
        ,
        "rotation": "0.0 0.707107 0.0 -0.707107"
      }
      ,
      "prefab": "data/scenes/CST_SalaSpiderman/CstWall8x8__m_suelo.json"
    }
  }
  ,
  {
    "entity":
    {
      "name":
      {
        "entityName": "CstWall8x8_061"
        ,
        "tag": "Interactable"
      }
      ,
      "transform":
      {
        "pos": "38.0 16.0 6.50001"
        ,
        "rotation": "0.0 0.707107 0.0 -0.707107"
      }
      ,
      "prefab": "data/scenes/CST_SalaSpiderman/CstWall8x8__m_suelo.json"
    }
  }
  ,
  {
    "entity":
    {
      "name":
      {
        "entityName": "CstWall8x8_062"
        ,
        "tag": "Interactable"
      }
      ,
      "transform":
      {
        "pos": "30.0 16.0 6.5"
        ,
        "rotation": "0.0 0.707107 0.0 -0.707107"
      }
      ,
      "prefab": "data/scenes/CST_SalaSpiderman/CstWall8x8__m_suelo.json"
    }
  }
  ,
  {
    "entity":
    {
      "name":
      {
        "entityName": "CstWall8x8_063"
        ,
        "tag": "Interactable"
      }
      ,
      "transform":
      {
        "pos": "22.0 16.0 6.5"
        ,
        "rotation": "0.0 0.707107 0.0 -0.707107"
      }
      ,
      "prefab": "data/scenes/CST_SalaSpiderman/CstWall8x8__m_suelo.json"
    }
  }
  ,
  {
    "entity":
    {
      "name":
      {
        "entityName": "CstWall8x8_064"
        ,
        "tag": "Interactable"
      }
      ,
      "transform":
      {
        "pos": "14.0 16.0 6.5"
        ,
        "rotation": "0.0 0.707107 0.0 -0.707107"
      }
      ,
      "prefab": "data/scenes/CST_SalaSpiderman/CstWall8x8__m_suelo.json"
    }
  }
  ,
  {
    "entity":
    {
      "name":
      {
        "entityName": "CstWall8x8_065"
        ,
        "tag": "Interactable"
      }
      ,
      "transform":
      {
        "pos": "6.0 16.0 6.5"
        ,
        "rotation": "0.0 0.707107 0.0 -0.707107"
      }
      ,
      "prefab": "data/scenes/CST_SalaSpiderman/CstWall8x8__m_suelo.json"
    }
  }
  ,
  {
    "entity":
    {
      "name":
      {
        "entityName": "CstWall8x8_066"
        ,
        "tag": "Interactable"
      }
      ,
      "transform":
      {
        "pos": "70.0 24.0 6.50001"
        ,
        "rotation": "0.0 0.707107 0.0 -0.707107"
      }
      ,
      "prefab": "data/scenes/CST_SalaSpiderman/CstWall8x8__m_suelo.json"
    }
  }
  ,
  {
    "entity":
    {
      "name":
      {
        "entityName": "CstWall8x8_067"
        ,
        "tag": "Interactable"
      }
      ,
      "transform":
      {
        "pos": "62.0 24.0 6.50001"
        ,
        "rotation": "0.0 0.707107 0.0 -0.707107"
      }
      ,
      "prefab": "data/scenes/CST_SalaSpiderman/CstWall8x8__m_suelo.json"
    }
  }
  ,
  {
    "entity":
    {
      "name":
      {
        "entityName": "CstWall8x8_068"
        ,
        "tag": "Interactable"
      }
      ,
      "transform":
      {
        "pos": "54.0 24.0 6.50001"
        ,
        "rotation": "0.0 0.707107 0.0 -0.707107"
      }
      ,
      "prefab": "data/scenes/CST_SalaSpiderman/CstWall8x8__m_suelo.json"
    }
  }
  ,
  {
    "entity":
    {
      "name":
      {
        "entityName": "CstWall8x8_069"
        ,
        "tag": "Interactable"
      }
      ,
      "transform":
      {
        "pos": "46.0 24.0 6.50001"
        ,
        "rotation": "0.0 0.707107 0.0 -0.707107"
      }
      ,
      "prefab": "data/scenes/CST_SalaSpiderman/CstWall8x8__m_suelo.json"
    }
  }
  ,
  {
    "entity":
    {
      "name":
      {
        "entityName": "CstWall8x8_070"
        ,
        "tag": "Interactable"
      }
      ,
      "transform":
      {
        "pos": "38.0 24.0 6.5"
        ,
        "rotation": "0.0 0.707107 0.0 -0.707107"
      }
      ,
      "prefab": "data/scenes/CST_SalaSpiderman/CstWall8x8__m_suelo.json"
    }
  }
  ,
  {
    "entity":
    {
      "name":
      {
        "entityName": "CstWall8x8_071"
        ,
        "tag": "Interactable"
      }
      ,
      "transform":
      {
        "pos": "30.0 24.0 6.5"
        ,
        "rotation": "0.0 0.707107 0.0 -0.707107"
      }
      ,
      "prefab": "data/scenes/CST_SalaSpiderman/CstWall8x8__m_suelo.json"
    }
  }
  ,
  {
    "entity":
    {
      "name":
      {
        "entityName": "CstWall8x8_072"
        ,
        "tag": "Interactable"
      }
      ,
      "transform":
      {
        "pos": "22.0 24.0 6.5"
        ,
        "rotation": "0.0 0.707107 0.0 -0.707107"
      }
      ,
      "prefab": "data/scenes/CST_SalaSpiderman/CstWall8x8__m_suelo.json"
    }
  }
  ,
  {
    "entity":
    {
      "name":
      {
        "entityName": "CstWall8x8_073"
        ,
        "tag": "Interactable"
      }
      ,
      "transform":
      {
        "pos": "14.0 24.0 6.5"
        ,
        "rotation": "0.0 0.707107 0.0 -0.707107"
      }
      ,
      "prefab": "data/scenes/CST_SalaSpiderman/CstWall8x8__m_suelo.json"
    }
  }
  ,
  {
    "entity":
    {
      "name":
      {
        "entityName": "CstWall8x8_074"
        ,
        "tag": "Interactable"
      }
      ,
      "transform":
      {
        "pos": "6.0 24.0 6.5"
        ,
        "rotation": "0.0 0.707107 0.0 -0.707107"
      }
      ,
      "prefab": "data/scenes/CST_SalaSpiderman/CstWall8x8__m_suelo.json"
    }
  }
  ,
  {
    "entity":
    {
      "name":
      {
        "entityName": "CstWall8x4_019"
        ,
        "tag": "Interactable"
      }
      ,
      "transform":
      {
        "pos": "22.0 20.0 4.0"
        ,
        "rotation": "0.0 -0.707107 0.0 -0.707107"
      }
      ,
      "prefab": "data/scenes/CST_SalaSpiderman/CstWall8x4__m_suelo.json"
    }
  }
  ,
  {
    "entity":
    {
      "name":
      {
        "entityName": "CstWall8x4_020"
        ,
        "tag": "Interactable"
      }
      ,
      "transform":
      {
        "pos": "22.0 20.0 -4.0"
        ,
        "rotation": "0.0 -0.707107 0.0 -0.707107"
      }
      ,
      "prefab": "data/scenes/CST_SalaSpiderman/CstWall8x4__m_suelo.json"
    }
  }
  ,
  {
    "entity":
    {
      "name":
      {
        "entityName": "CstWall8x4_021"
        ,
        "tag": "Interactable"
      }
      ,
      "transform":
      {
        "pos": "26.0 20.0 4.0"
        ,
        "rotation": "0.0 -0.707107 0.0 -0.707107"
      }
      ,
      "prefab": "data/scenes/CST_SalaSpiderman/CstWall8x4__m_suelo.json"
    }
  }
  ,
  {
    "entity":
    {
      "name":
      {
        "entityName": "CstWall8x4_022"
        ,
        "tag": "Interactable"
      }
      ,
      "transform":
      {
        "pos": "26.0 20.0 -4.0"
        ,
        "rotation": "0.0 -0.707107 0.0 -0.707107"
      }
      ,
      "prefab": "data/scenes/CST_SalaSpiderman/CstWall8x4__m_suelo.json"
    }
  }
  ,
  {
    "entity":
    {
      "name":
      {
        "entityName": "CstWall8x4_023"
        ,
        "tag": "Interactable"
      }
      ,
      "transform":
      {
        "pos": "30.0 20.0 4.0"
        ,
        "rotation": "0.0 -0.707107 0.0 -0.707107"
      }
      ,
      "prefab": "data/scenes/CST_SalaSpiderman/CstWall8x4__m_suelo.json"
    }
  }
  ,
  {
    "entity":
    {
      "name":
      {
        "entityName": "CstWall8x4_024"
        ,
        "tag": "Interactable"
      }
      ,
      "transform":
      {
        "pos": "30.0 20.0 -4.0"
        ,
        "rotation": "0.0 -0.707107 0.0 -0.707107"
      }
      ,
      "prefab": "data/scenes/CST_SalaSpiderman/CstWall8x4__m_suelo.json"
    }
  }
  ,
  {
    "entity":
    {
      "name":
      {
        "entityName": "CstWall8x4_025"
        ,
        "tag": "Interactable"
      }
      ,
      "transform":
      {
        "pos": "34.0 20.0 4.0"
        ,
        "rotation": "0.0 -0.707107 0.0 -0.707107"
      }
      ,
      "prefab": "data/scenes/CST_SalaSpiderman/CstWall8x4__m_suelo.json"
    }
  }
  ,
  {
    "entity":
    {
      "name":
      {
        "entityName": "CstWall8x4_026"
        ,
        "tag": "Interactable"
      }
      ,
      "transform":
      {
        "pos": "34.0 20.0 -4.0"
        ,
        "rotation": "0.0 -0.707107 0.0 -0.707107"
      }
      ,
      "prefab": "data/scenes/CST_SalaSpiderman/CstWall8x4__m_suelo.json"
    }
  }
  ,
  {
    "entity":
    {
      "name":
      {
        "entityName": "CstWall8x8_075"
        ,
        "tag": "Interactable"
      }
      ,
      "transform":
      {
        "pos": "38.0 20.0 4.0"
        ,
        "rotation": "0.0 -1.0 0.0 0.0"
      }
      ,
      "prefab": "data/scenes/CST_SalaSpiderman/CstWall8x8__m_suelo.json"
    }
  }
  ,
  {
    "entity":
    {
      "name":
      {
        "entityName": "CstCeil12x8_001"
        ,
        "tag": "Interactable"
      }
      ,
      "transform":
      {
        "pos": "6.0 28.0 -6.0"
        ,
        "rotation": "0.0 0.707107 0.0 -0.707107"
      }
      ,
      "prefab": "data/scenes/CST_SalaSpiderman/CstCeil12x8__m_suelo.json"
    }
  }
  ,
  {
    "entity":
    {
      "name":
      {
        "entityName": "CstCeil12x8_002"
        ,
        "tag": "Interactable"
      }
      ,
      "transform":
      {
        "pos": "14.0 28.0 -6.0"
        ,
        "rotation": "0.0 0.707107 0.0 -0.707107"
      }
      ,
      "prefab": "data/scenes/CST_SalaSpiderman/CstCeil12x8__m_suelo.json"
    }
  }
  ,
  {
    "entity":
    {
      "name":
      {
        "entityName": "CstCeil12x8_003"
        ,
        "tag": "Interactable"
      }
      ,
      "transform":
      {
        "pos": "22.0 28.0 -6.0"
        ,
        "rotation": "0.0 0.707107 0.0 -0.707107"
      }
      ,
      "prefab": "data/scenes/CST_SalaSpiderman/CstCeil12x8__m_suelo.json"
    }
  }
  ,
  {
    "entity":
    {
      "name":
      {
        "entityName": "CstCeil12x8_004"
        ,
        "tag": "Interactable"
      }
      ,
      "transform":
      {
        "pos": "30.0 28.0 -6.0"
        ,
        "rotation": "0.0 0.707107 0.0 -0.707107"
      }
      ,
      "prefab": "data/scenes/CST_SalaSpiderman/CstCeil12x8__m_suelo.json"
    }
  }
  ,
  {
    "entity":
    {
      "name":
      {
        "entityName": "CstCeil12x8_005"
        ,
        "tag": "Interactable"
      }
      ,
      "transform":
      {
        "pos": "38.0 28.0 -6.0"
        ,
        "rotation": "0.0 0.707107 0.0 -0.707107"
      }
      ,
      "prefab": "data/scenes/CST_SalaSpiderman/CstCeil12x8__m_suelo.json"
    }
  }
  ,
  {
    "entity":
    {
      "name":
      {
        "entityName": "CstCeil12x8_006"
        ,
        "tag": "Interactable"
      }
      ,
      "transform":
      {
        "pos": "46.0 28.0 -6.0"
        ,
        "rotation": "0.0 0.707107 0.0 -0.707107"
      }
      ,
      "prefab": "data/scenes/CST_SalaSpiderman/CstCeil12x8__m_suelo.json"
    }
  }
  ,
  {
    "entity":
    {
      "name":
      {
        "entityName": "CstCeil12x8_007"
        ,
        "tag": "Interactable"
      }
      ,
      "transform":
      {
        "pos": "54.0 28.0 -6.0"
        ,
        "rotation": "0.0 0.707107 0.0 -0.707107"
      }
      ,
      "prefab": "data/scenes/CST_SalaSpiderman/CstCeil12x8__m_suelo.json"
    }
  }
  ,
  {
    "entity":
    {
      "name":
      {
        "entityName": "CstCeil12x8_008"
        ,
        "tag": "Interactable"
      }
      ,
      "transform":
      {
        "pos": "62.0 28.0 -6.0"
        ,
        "rotation": "0.0 0.707107 0.0 -0.707107"
      }
      ,
      "prefab": "data/scenes/CST_SalaSpiderman/CstCeil12x8__m_suelo.json"
    }
  }
  ,
  {
    "entity":
    {
      "name":
      {
        "entityName": "CstCeil12x8_009"
        ,
        "tag": "Interactable"
      }
      ,
      "transform":
      {
        "pos": "70.0 28.0 -6.0"
        ,
        "rotation": "0.0 0.707107 0.0 -0.707107"
      }
      ,
      "prefab": "data/scenes/CST_SalaSpiderman/CstCeil12x8__m_suelo.json"
    }
  }
  ,
  {
    "entity":
    {
      "name":
      {
        "entityName": "CstFloor4x4_015"
        ,
        "tag": "Interactable"
      }
      ,
      "transform":
      {
        "pos": "26.0 12.0 4.0"
        ,
        "rotation": "0.0 0.0 0.0 -1.0"
      }
      ,
      "prefab": "data/scenes/CST_SalaSpiderman/CstFloor4x4__m_suelo.json"
    }
  }
  ,
  {
    "entity":
    {
      "name":
      {
        "entityName": "CstFloor4x4_016"
        ,
        "tag": "Interactable"
      }
      ,
      "transform":
      {
        "pos": "26.0 12.0 -5.24537e-07"
        ,
        "rotation": "0.0 0.0 0.0 -1.0"
      }
      ,
      "prefab": "data/scenes/CST_SalaSpiderman/CstFloor4x4__m_suelo.json"
    }
  }
  ,
  {
    "entity":
    {
      "name":
      {
        "entityName": "CstFloor12x8_006"
        ,
        "tag": "Interactable"
      }
      ,
      "transform":
      {
        "pos": "66.0 2.62268e-07 6.0"
        ,
        "rotation": "0.0 0.0 0.0 -1.0"
      }
      ,
      "prefab": "data/scenes/CST_SalaSpiderman/CstFloor12x8__m_suelo.json"
    }
  }
  ,
  {
    "entity":
    {
      "name":
      {
        "entityName": "CstFloor12x8_007"
        ,
        "tag": "Interactable"
      }
      ,
      "transform":
      {
        "pos": "74.0 2.62268e-07 6.0"
        ,
        "rotation": "0.0 0.0 0.0 -1.0"
      }
      ,
      "prefab": "data/scenes/CST_SalaSpiderman/CstFloor12x8__m_suelo.json"
    }
  }
  ,
  {
    "entity":
    {
      "name":
      {
        "entityName": "CstWall8x4_027"
        ,
        "tag": "Interactable"
      }
      ,
      "transform":
      {
        "pos": "70.0 -2.84124e-07 -6.5"
        ,
        "rotation": "0.0 -0.707107 0.0 -0.707107"
      }
      ,
      "prefab": "data/scenes/CST_SalaSpiderman/CstWall8x4__m_suelo.json"
    }
  }
  ,
  {
    "entity":
    {
      "name":
      {
        "entityName": "CstFloor12x8_008"
        ,
        "tag": "Interactable"
      }
      ,
      "transform":
      {
        "pos": "74.0 7.86805e-07 18.0"
        ,
        "rotation": "0.0 0.0 0.0 -1.0"
      }
      ,
      "prefab": "data/scenes/CST_SalaSpiderman/CstFloor12x8__m_suelo.json"
    }
  }
  ,
  {
    "entity":
    {
      "name":
      {
        "entityName": "CstFloor12x8_009"
        ,
        "tag": "Interactable"
      }
      ,
      "transform":
      {
        "pos": "74.0 -2.62269e-07 -6.00001"
        ,
        "rotation": "0.0 0.0 0.0 -1.0"
      }
      ,
      "prefab": "data/scenes/CST_SalaSpiderman/CstFloor12x8__m_suelo.json"
    }
  }
  ,
  {
    "entity":
    {
      "name":
      {
        "entityName": "CstFloor12x8_010"
        ,
        "tag": "Interactable"
      }
      ,
      "transform":
      {
        "pos": "82.0 2.62268e-07 6.0"
        ,
        "rotation": "0.0 0.0 0.0 -1.0"
      }
      ,
      "prefab": "data/scenes/CST_SalaSpiderman/CstFloor12x8__m_suelo.json"
    }
  }
  ,
  {
    "entity":
    {
      "name":
      {
        "entityName": "CstFloor12x8_011"
        ,
        "tag": "Interactable"
      }
      ,
      "transform":
      {
        "pos": "82.0 7.86805e-07 18.0"
        ,
        "rotation": "0.0 0.0 0.0 -1.0"
      }
      ,
      "prefab": "data/scenes/CST_SalaSpiderman/CstFloor12x8__m_suelo.json"
    }
  }
  ,
  {
    "entity":
    {
      "name":
      {
        "entityName": "CstFloor12x8_012"
        ,
        "tag": "Interactable"
      }
      ,
      "transform":
      {
        "pos": "82.0 -2.62269e-07 -6.00001"
        ,
        "rotation": "0.0 0.0 0.0 -1.0"
      }
      ,
      "prefab": "data/scenes/CST_SalaSpiderman/CstFloor12x8__m_suelo.json"
    }
  }
  ,
  {
    "entity":
    {
      "name":
      {
        "entityName": "CstFloor12x8_013"
        ,
        "tag": "Interactable"
      }
      ,
      "transform":
      {
        "pos": "90.0 2.62268e-07 6.0"
        ,
        "rotation": "0.0 0.0 0.0 -1.0"
      }
      ,
      "prefab": "data/scenes/CST_SalaSpiderman/CstFloor12x8__m_suelo.json"
    }
  }
  ,
  {
    "entity":
    {
      "name":
      {
        "entityName": "CstFloor12x8_014"
        ,
        "tag": "Interactable"
      }
      ,
      "transform":
      {
        "pos": "90.0 7.86805e-07 18.0"
        ,
        "rotation": "0.0 0.0 0.0 -1.0"
      }
      ,
      "prefab": "data/scenes/CST_SalaSpiderman/CstFloor12x8__m_suelo.json"
    }
  }
  ,
  {
    "entity":
    {
      "name":
      {
        "entityName": "CstFloor12x8_015"
        ,
        "tag": "Interactable"
      }
      ,
      "transform":
      {
        "pos": "90.0 -2.62269e-07 -6.00001"
        ,
        "rotation": "0.0 0.0 0.0 -1.0"
      }
      ,
      "prefab": "data/scenes/CST_SalaSpiderman/CstFloor12x8__m_suelo.json"
    }
  }
  ,
  {
    "entity":
    {
      "name":
      {
        "entityName": "CstWall8x4_028"
        ,
        "tag": "Interactable"
      }
      ,
      "transform":
      {
        "pos": "70.0 8.0 -6.5"
        ,
        "rotation": "0.0 -0.707107 0.0 -0.707107"
      }
      ,
      "prefab": "data/scenes/CST_SalaSpiderman/CstWall8x4__m_suelo.json"
    }
  }
  ,
  {
    "entity":
    {
      "name":
      {
        "entityName": "CstWall8x4_029"
        ,
        "tag": "Interactable"
      }
      ,
      "transform":
      {
        "pos": "70.0 16.0 -6.5"
        ,
        "rotation": "0.0 -0.707107 0.0 -0.707107"
      }
      ,
      "prefab": "data/scenes/CST_SalaSpiderman/CstWall8x4__m_suelo.json"
    }
  }
  ,
  {
    "entity":
    {
      "name":
      {
        "entityName": "CstWall8x4_030"
        ,
        "tag": "Interactable"
      }
      ,
      "transform":
      {
        "pos": "70.0 24.0 -6.5"
        ,
        "rotation": "0.0 -0.707107 0.0 -0.707107"
      }
      ,
      "prefab": "data/scenes/CST_SalaSpiderman/CstWall8x4__m_suelo.json"
    }
  }
  ,
  {
    "entity":
    {
      "name":
      {
        "entityName": "CstWall8x4_031"
        ,
        "tag": "Interactable"
      }
      ,
      "transform":
      {
        "pos": "70.0 2.62269e-07 6.00001"
        ,
        "rotation": "0.0 -0.707107 0.0 -0.707107"
      }
      ,
      "prefab": "data/scenes/CST_SalaSpiderman/CstWall8x4__m_suelo.json"
    }
  }
  ,
  {
    "entity":
    {
      "name":
      {
        "entityName": "CstWall8x4_032"
        ,
        "tag": "Interactable"
      }
      ,
      "transform":
      {
        "pos": "70.0 8.0 6.00001"
        ,
        "rotation": "0.0 -0.707107 0.0 -0.707107"
      }
      ,
      "prefab": "data/scenes/CST_SalaSpiderman/CstWall8x4__m_suelo.json"
    }
  }
  ,
  {
    "entity":
    {
      "name":
      {
        "entityName": "CstWall8x4_033"
        ,
        "tag": "Interactable"
      }
      ,
      "transform":
      {
        "pos": "70.0 16.0 6.00001"
        ,
        "rotation": "0.0 -0.707107 0.0 -0.707107"
      }
      ,
      "prefab": "data/scenes/CST_SalaSpiderman/CstWall8x4__m_suelo.json"
    }
  }
  ,
  {
    "entity":
    {
      "name":
      {
        "entityName": "CstWall8x4_034"
        ,
        "tag": "Interactable"
      }
      ,
      "transform":
      {
        "pos": "70.0 24.0 6.00001"
        ,
        "rotation": "0.0 -0.707107 0.0 -0.707107"
      }
      ,
      "prefab": "data/scenes/CST_SalaSpiderman/CstWall8x4__m_suelo.json"
    }
  }
  ,
  {
    "entity":
    {
      "name":
      {
        "entityName": "CstWall8x8_076"
        ,
        "tag": "Interactable"
      }
      ,
      "transform":
      {
        "pos": "90.0 2.84125e-07 6.50001"
        ,
        "rotation": "0.0 0.707107 0.0 -0.707107"
      }
      ,
      "prefab": "data/scenes/CST_SalaSpiderman/CstWall8x8__m_suelo.json"
    }
  }
  ,
  {
    "entity":
    {
      "name":
      {
        "entityName": "CstWall8x8_077"
        ,
        "tag": "Interactable"
      }
      ,
      "transform":
      {
        "pos": "90.0 -2.62268e-07 -6.0"
        ,
        "rotation": "0.0 0.707107 0.0 -0.707107"
      }
      ,
      "prefab": "data/scenes/CST_SalaSpiderman/CstWall8x8__m_suelo.json"
    }
  }
  ,
  {
    "entity":
    {
      "name":
      {
        "entityName": "CstWall8x4_035"
        ,
        "tag": "Interactable"
      }
      ,
      "transform":
      {
        "pos": "89.5 2.62268e-07 6.0"
        ,
        "rotation": "0.0 -1.0 0.0 0.0"
      }
      ,
      "prefab": "data/scenes/CST_SalaSpiderman/CstWall8x4__m_suelo.json"
    }
  }
  ,
  {
    "entity":
    {
      "name":
      {
        "entityName": "CstWall8x4_036"
        ,
        "tag": "Interactable"
      }
      ,
      "transform":
      {
        "pos": "89.5 0.0 2.0"
        ,
        "rotation": "0.0 -1.0 0.0 0.0"
      }
      ,
      "prefab": "data/scenes/CST_SalaSpiderman/CstWall8x4__m_suelo.json"
    }
  }
  ,
  {
    "entity":
    {
      "name":
      {
        "entityName": "CstWall8x4_037"
        ,
        "tag": "Interactable"
      }
      ,
      "transform":
      {
        "pos": "89.5 0.0 -2.0"
        ,
        "rotation": "0.0 -1.0 0.0 0.0"
      }
      ,
      "prefab": "data/scenes/CST_SalaSpiderman/CstWall8x4__m_suelo.json"
    }
  }
  ,
  {
    "entity":
    {
      "name":
      {
        "entityName": "CstWall8x4_038"
        ,
        "tag": "Interactable"
      }
      ,
      "transform":
      {
        "pos": "82.0 2.62268e-07 6.0"
        ,
        "rotation": "0.0 -1.0 0.0 0.0"
      }
      ,
      "prefab": "data/scenes/CST_SalaSpiderman/CstWall8x4__m_suelo.json"
    }
  }
  ,
  {
    "entity":
    {
      "name":
      {
        "entityName": "CstWall8x4_039"
        ,
        "tag": "Interactable"
      }
      ,
      "transform":
      {
        "pos": "82.0 0.0 -2.0"
        ,
        "rotation": "0.0 -1.0 0.0 0.0"
      }
      ,
      "prefab": "data/scenes/CST_SalaSpiderman/CstWall8x4__m_suelo.json"
    }
  }
  ,
  {
    "entity":
    {
      "name":
      {
        "entityName": "CstArchDoor001"
        ,
        "tag": "Interactable"
      }
      ,
      "transform":
      {
        "pos": "82.0 8.0 -6.5"
        ,
        "rotation": "-0.707107 0.0 0.0 -0.707107"
      }
      ,
      "prefab": "data/scenes/CST_SalaSpiderman/CstArchDoor_m_suelo.json"
    }
  }
  ,
  {
    "entity":
    {
      "name":
      {
        "entityName": "CstWall8x8_078"
        ,
        "tag": "Interactable"
      }
      ,
      "transform":
      {
        "pos": "90.0 16.0 -6.0"
        ,
        "rotation": "0.0 0.707107 0.0 -0.707107"
      }
      ,
      "prefab": "data/scenes/CST_SalaSpiderman/CstWall8x8__m_suelo.json"
    }
  }
  ,
  {
    "entity":
    {
      "name":
      {
        "entityName": "CstWall8x8_079"
        ,
        "tag": "Interactable"
      }
      ,
      "transform":
      {
        "pos": "90.0 24.0 -6.0"
        ,
        "rotation": "0.0 0.707107 0.0 -0.707107"
      }
      ,
      "prefab": "data/scenes/CST_SalaSpiderman/CstWall8x8__m_suelo.json"
    }
  }
  ,
  {
    "entity":
    {
      "name":
      {
        "entityName": "CstWall8x8_080"
        ,
        "tag": "Interactable"
      }
      ,
      "transform":
      {
        "pos": "90.0 32.0 -6.0"
        ,
        "rotation": "0.0 0.707107 0.0 -0.707107"
      }
      ,
      "prefab": "data/scenes/CST_SalaSpiderman/CstWall8x8__m_suelo.json"
    }
  }
  ,
  {
    "entity":
    {
      "name":
      {
        "entityName": "CstWall8x8_081"
        ,
        "tag": "Interactable"
      }
      ,
      "transform":
      {
        "pos": "90.0 40.0 -6.0"
        ,
        "rotation": "0.0 0.707107 0.0 -0.707107"
      }
      ,
      "prefab": "data/scenes/CST_SalaSpiderman/CstWall8x8__m_suelo.json"
    }
  }
  ,
  {
    "entity":
    {
      "name":
      {
        "entityName": "CstWall8x8_083"
        ,
        "tag": "Interactable"
      }
      ,
      "transform":
      {
        "pos": "90.0 8.0 6.50001"
        ,
        "rotation": "0.0 0.707107 0.0 -0.707107"
      }
      ,
      "prefab": "data/scenes/CST_SalaSpiderman/CstWall8x8__m_suelo.json"
    }
  }
  ,
  {
    "entity":
    {
      "name":
      {
        "entityName": "CstWall8x8_084"
        ,
        "tag": "Interactable"
      }
      ,
      "transform":
      {
        "pos": "90.0 16.0 6.50001"
        ,
        "rotation": "0.0 0.707107 0.0 -0.707107"
      }
      ,
      "prefab": "data/scenes/CST_SalaSpiderman/CstWall8x8__m_suelo.json"
    }
  }
  ,
  {
    "entity":
    {
      "name":
      {
        "entityName": "CstWall8x8_086"
        ,
        "tag": "Interactable"
      }
      ,
      "transform":
      {
        "pos": "90.0 32.0 6.50001"
        ,
        "rotation": "0.0 0.707107 0.0 -0.707107"
      }
      ,
      "prefab": "data/scenes/CST_SalaSpiderman/CstWall8x8__m_suelo.json"
    }
  }
  ,
  {
    "entity":
    {
      "name":
      {
        "entityName": "CstWall8x8_087"
        ,
        "tag": "Interactable"
      }
      ,
      "transform":
      {
        "pos": "90.0 40.0 6.50001"
        ,
        "rotation": "0.0 0.707107 0.0 -0.707107"
      }
      ,
      "prefab": "data/scenes/CST_SalaSpiderman/CstWall8x8__m_suelo.json"
    }
  }
  ,
  {
    "entity":
    {
      "name":
      {
        "entityName": "CstWall8x4_040"
        ,
        "tag": "Interactable"
      }
      ,
      "transform":
      {
        "pos": "82.0 8.0 6.0"
        ,
        "rotation": "0.0 -1.0 0.0 0.0"
      }
      ,
      "prefab": "data/scenes/CST_SalaSpiderman/CstWall8x4__m_suelo.json"
    }
  }
  ,
  {
    "entity":
    {
      "name":
      {
        "entityName": "CstWall8x4_041"
        ,
        "tag": "Interactable"
      }
      ,
      "transform":
      {
        "pos": "82.0 8.0 -2.0"
        ,
        "rotation": "0.0 -1.0 0.0 0.0"
      }
      ,
      "prefab": "data/scenes/CST_SalaSpiderman/CstWall8x4__m_suelo.json"
    }
  }
  ,
  {
    "entity":
    {
      "name":
      {
        "entityName": "CstWall8x4_042"
        ,
        "tag": "Interactable"
      }
      ,
      "transform":
      {
        "pos": "82.0 8.0 2.0"
        ,
        "rotation": "0.0 -1.0 0.0 0.0"
      }
      ,
      "prefab": "data/scenes/CST_SalaSpiderman/CstWall8x4__m_suelo.json"
    }
  }
  ,
  {
    "entity":
    {
      "name":
      {
        "entityName": "CstWall8x4_043"
        ,
        "tag": "Interactable"
      }
      ,
      "transform":
      {
        "pos": "89.5 8.0 6.0"
        ,
        "rotation": "0.0 -1.0 0.0 0.0"
      }
      ,
      "prefab": "data/scenes/CST_SalaSpiderman/CstWall8x4__m_suelo.json"
    }
  }
  ,
  {
    "entity":
    {
      "name":
      {
        "entityName": "CstWall8x4_044"
        ,
        "tag": "Interactable"
      }
      ,
      "transform":
      {
        "pos": "89.5 8.0 2.0"
        ,
        "rotation": "0.0 -1.0 0.0 0.0"
      }
      ,
      "prefab": "data/scenes/CST_SalaSpiderman/CstWall8x4__m_suelo.json"
    }
  }
  ,
  {
    "entity":
    {
      "name":
      {
        "entityName": "CstWall8x4_045"
        ,
        "tag": "Interactable"
      }
      ,
      "transform":
      {
        "pos": "89.5 8.0 -2.0"
        ,
        "rotation": "0.0 -1.0 0.0 0.0"
      }
      ,
      "prefab": "data/scenes/CST_SalaSpiderman/CstWall8x4__m_suelo.json"
    }
  }
  ,
  {
    "entity":
    {
      "name":
      {
        "entityName": "CstWall8x4_046"
        ,
        "tag": "Interactable"
      }
      ,
      "transform":
      {
        "pos": "82.0 16.0 6.0"
        ,
        "rotation": "0.0 -1.0 0.0 0.0"
      }
      ,
      "prefab": "data/scenes/CST_SalaSpiderman/CstWall8x4__m_suelo.json"
    }
  }
  ,
  {
    "entity":
    {
      "name":
      {
        "entityName": "CstWall8x4_047"
        ,
        "tag": "Interactable"
      }
      ,
      "transform":
      {
        "pos": "82.0 16.0 -2.0"
        ,
        "rotation": "0.0 -1.0 0.0 0.0"
      }
      ,
      "prefab": "data/scenes/CST_SalaSpiderman/CstWall8x4__m_suelo.json"
    }
  }
  ,
  {
    "entity":
    {
      "name":
      {
        "entityName": "CstWall8x4_048"
        ,
        "tag": "Interactable"
      }
      ,
      "transform":
      {
        "pos": "82.0 16.0 2.0"
        ,
        "rotation": "0.0 -1.0 0.0 0.0"
      }
      ,
      "prefab": "data/scenes/CST_SalaSpiderman/CstWall8x4__m_suelo.json"
    }
  }
  ,
  {
    "entity":
    {
      "name":
      {
        "entityName": "CstWall8x4_049"
        ,
        "tag": "Interactable"
      }
      ,
      "transform":
      {
        "pos": "89.5 16.0 6.0"
        ,
        "rotation": "0.0 -1.0 0.0 0.0"
      }
      ,
      "prefab": "data/scenes/CST_SalaSpiderman/CstWall8x4__m_suelo.json"
    }
  }
  ,
  {
    "entity":
    {
      "name":
      {
        "entityName": "CstWall8x4_050"
        ,
        "tag": "Interactable"
      }
      ,
      "transform":
      {
        "pos": "89.5 16.0 2.0"
        ,
        "rotation": "0.0 -1.0 0.0 0.0"
      }
      ,
      "prefab": "data/scenes/CST_SalaSpiderman/CstWall8x4__m_suelo.json"
    }
  }
  ,
  {
    "entity":
    {
      "name":
      {
        "entityName": "CstWall8x4_051"
        ,
        "tag": "Interactable"
      }
      ,
      "transform":
      {
        "pos": "89.5 16.0 -2.0"
        ,
        "rotation": "0.0 -1.0 0.0 0.0"
      }
      ,
      "prefab": "data/scenes/CST_SalaSpiderman/CstWall8x4__m_suelo.json"
    }
  }
  ,
  {
    "entity":
    {
      "name":
      {
        "entityName": "CstWall8x4_052"
        ,
        "tag": "Interactable"
      }
      ,
      "transform":
      {
        "pos": "82.0 24.0 6.0"
        ,
        "rotation": "0.0 -1.0 0.0 0.0"
      }
      ,
      "prefab": "data/scenes/CST_SalaSpiderman/CstWall8x4__m_suelo.json"
    }
  }
  ,
  {
    "entity":
    {
      "name":
      {
        "entityName": "CstWall8x4_053"
        ,
        "tag": "Interactable"
      }
      ,
      "transform":
      {
        "pos": "82.0 24.0 -2.0"
        ,
        "rotation": "0.0 -1.0 0.0 0.0"
      }
      ,
      "prefab": "data/scenes/CST_SalaSpiderman/CstWall8x4__m_suelo.json"
    }
  }
  ,
  {
    "entity":
    {
      "name":
      {
        "entityName": "CstWall8x4_054"
        ,
        "tag": "Interactable"
      }
      ,
      "transform":
      {
        "pos": "82.0 24.0 2.0"
        ,
        "rotation": "0.0 -1.0 0.0 0.0"
      }
      ,
      "prefab": "data/scenes/CST_SalaSpiderman/CstWall8x4__m_suelo.json"
    }
  }
  ,
  {
    "entity":
    {
      "name":
      {
        "entityName": "CstWall8x4_055"
        ,
        "tag": "Interactable"
      }
      ,
      "transform":
      {
        "pos": "89.5 24.0 6.0"
        ,
        "rotation": "0.0 -1.0 0.0 0.0"
      }
      ,
      "prefab": "data/scenes/CST_SalaSpiderman/CstWall8x4__m_suelo.json"
    }
  }
  ,
  {
    "entity":
    {
      "name":
      {
        "entityName": "CstWall8x4_056"
        ,
        "tag": "Interactable"
      }
      ,
      "transform":
      {
        "pos": "89.5 24.0 2.0"
        ,
        "rotation": "0.0 -1.0 0.0 0.0"
      }
      ,
      "prefab": "data/scenes/CST_SalaSpiderman/CstWall8x4__m_suelo.json"
    }
  }
  ,
  {
    "entity":
    {
      "name":
      {
        "entityName": "CstWall8x4_057"
        ,
        "tag": "Interactable"
      }
      ,
      "transform":
      {
        "pos": "89.5 24.0 -2.0"
        ,
        "rotation": "0.0 -1.0 0.0 0.0"
      }
      ,
      "prefab": "data/scenes/CST_SalaSpiderman/CstWall8x4__m_suelo.json"
    }
  }
  ,
  {
    "entity":
    {
      "name":
      {
        "entityName": "CstWall8x4_058"
        ,
        "tag": "Interactable"
      }
      ,
      "transform":
      {
        "pos": "82.0 32.0 6.0"
        ,
        "rotation": "0.0 -1.0 0.0 0.0"
      }
      ,
      "prefab": "data/scenes/CST_SalaSpiderman/CstWall8x4__m_suelo.json"
    }
  }
  ,
  {
    "entity":
    {
      "name":
      {
        "entityName": "CstWall8x4_059"
        ,
        "tag": "Interactable"
      }
      ,
      "transform":
      {
        "pos": "82.0 32.0 -2.0"
        ,
        "rotation": "0.0 -1.0 0.0 0.0"
      }
      ,
      "prefab": "data/scenes/CST_SalaSpiderman/CstWall8x4__m_suelo.json"
    }
  }
  ,
  {
    "entity":
    {
      "name":
      {
        "entityName": "CstWall8x4_060"
        ,
        "tag": "Interactable"
      }
      ,
      "transform":
      {
        "pos": "82.0 32.0 2.0"
        ,
        "rotation": "0.0 -1.0 0.0 0.0"
      }
      ,
      "prefab": "data/scenes/CST_SalaSpiderman/CstWall8x4__m_suelo.json"
    }
  }
  ,
  {
    "entity":
    {
      "name":
      {
        "entityName": "CstWall8x4_061"
        ,
        "tag": "Interactable"
      }
      ,
      "transform":
      {
        "pos": "89.5 32.0 6.0"
        ,
        "rotation": "0.0 -1.0 0.0 0.0"
      }
      ,
      "prefab": "data/scenes/CST_SalaSpiderman/CstWall8x4__m_suelo.json"
    }
  }
  ,
  {
    "entity":
    {
      "name":
      {
        "entityName": "CstWall8x4_062"
        ,
        "tag": "Interactable"
      }
      ,
      "transform":
      {
        "pos": "89.5 32.0 2.0"
        ,
        "rotation": "0.0 -1.0 0.0 0.0"
      }
      ,
      "prefab": "data/scenes/CST_SalaSpiderman/CstWall8x4__m_suelo.json"
    }
  }
  ,
  {
    "entity":
    {
      "name":
      {
        "entityName": "CstWall8x4_063"
        ,
        "tag": "Interactable"
      }
      ,
      "transform":
      {
        "pos": "89.5 32.0 -2.0"
        ,
        "rotation": "0.0 -1.0 0.0 0.0"
      }
      ,
      "prefab": "data/scenes/CST_SalaSpiderman/CstWall8x4__m_suelo.json"
    }
  }
  ,
  {
    "entity":
    {
      "name":
      {
        "entityName": "CstWall8x4_064"
        ,
        "tag": "Interactable"
      }
      ,
      "transform":
      {
        "pos": "82.0 40.0 6.0"
        ,
        "rotation": "0.0 -1.0 0.0 0.0"
      }
      ,
      "prefab": "data/scenes/CST_SalaSpiderman/CstWall8x4__m_suelo.json"
    }
  }
  ,
  {
    "entity":
    {
      "name":
      {
        "entityName": "CstWall8x4_065"
        ,
        "tag": "Interactable"
      }
      ,
      "transform":
      {
        "pos": "82.0 40.0 -2.0"
        ,
        "rotation": "0.0 -1.0 0.0 0.0"
      }
      ,
      "prefab": "data/scenes/CST_SalaSpiderman/CstWall8x4__m_suelo.json"
    }
  }
  ,
  {
    "entity":
    {
      "name":
      {
        "entityName": "CstWall8x4_066"
        ,
        "tag": "Interactable"
      }
      ,
      "transform":
      {
        "pos": "82.0 40.0 2.0"
        ,
        "rotation": "0.0 -1.0 0.0 0.0"
      }
      ,
      "prefab": "data/scenes/CST_SalaSpiderman/CstWall8x4__m_suelo.json"
    }
  }
  ,
  {
    "entity":
    {
      "name":
      {
        "entityName": "CstWall8x4_069"
        ,
        "tag": "Interactable"
      }
      ,
      "transform":
      {
        "pos": "89.5 40.0 -2.0"
        ,
        "rotation": "0.0 -1.0 0.0 0.0"
      }
      ,
      "prefab": "data/scenes/CST_SalaSpiderman/CstWall8x4__m_suelo.json"
    }
  }
  ,
  {
    "entity":
    {
      "name":
      {
        "entityName": "CstArchDoor002"
        ,
        "tag": "Interactable"
      }
      ,
      "transform":
      {
        "pos": "82.0 24.0 6.0"
        ,
        "rotation": "-0.707107 0.0 0.0 -0.707107"
      }
      ,
      "prefab": "data/scenes/CST_SalaSpiderman/CstArchDoor_m_suelo.json"
    }
  }
  ,
  {
    "entity":
    {
      "name":
      {
        "entityName": "CstArchDoor003"
        ,
        "tag": "Interactable"
      }
      ,
      "transform":
      {
        "pos": "89.5 40.0 6.00001"
        ,
        "rotation": "0.5 0.5 -0.5 0.5"
      }
      ,
      "prefab": "data/scenes/CST_SalaSpiderman/CstArchDoor_m_suelo.json"
    }
  }
  ,
  {
    "entity":
    {
      "name":
      {
        "entityName": "CstCeil12x8_010"
        ,
        "tag": "Interactable"
      }
      ,
      "transform":
      {
        "pos": "90.0 48.0 -6.0"
        ,
        "rotation": "0.0 0.707107 0.0 -0.707107"
      }
      ,
      "prefab": "data/scenes/CST_SalaSpiderman/CstCeil12x8__m_suelo.json"
    }
  }
  ,
  {
    "entity":
    {
      "name":
      {
        "entityName": "CstFloor12x8_016"
        ,
        "tag": "Interactable"
      }
      ,
      "transform":
      {
        "pos": "82.0 23.5 18.5"
        ,
        "rotation": "0.0 0.0 0.0 -1.0"
      }
      ,
      "prefab": "data/scenes/CST_SalaSpiderman/CstFloor12x8__m_suelo.json"
    }
  }
  ,
  {
    "entity":
    {
      "name":
      {
        "entityName": "CstFloor12x8_017"
        ,
        "tag": "Interactable"
      }
      ,
      "transform":
      {
        "pos": "82.0 7.5 -6.5"
        ,
        "rotation": "0.0 0.0 0.0 -1.0"
      }
      ,
      "prefab": "data/scenes/CST_SalaSpiderman/CstFloor12x8__m_suelo.json"
    }
  }
  ,
  {
    "entity":
    {
      "name":
      {
        "entityName": "CstFloor12x8_018"
        ,
        "tag": "Interactable"
      }
      ,
      "transform":
      {
        "pos": "90.0 39.5 6.0"
        ,
        "rotation": "0.0 0.0 0.0 -1.0"
      }
      ,
      "prefab": "data/scenes/CST_SalaSpiderman/CstFloor12x8__m_suelo.json"
    }
  }
  ,
  {
    "entity":
    {
      "name":
      {
        "entityName": "CstWall8x4_070"
        ,
        "tag": "Interactable"
      }
      ,
      "transform":
      {
        "pos": "89.5 8.0 -6.5"
        ,
        "rotation": "0.0 -1.0 0.0 0.0"
      }
      ,
      "prefab": "data/scenes/CST_SalaSpiderman/CstWall8x4__m_suelo.json"
    }
  }
  ,
  {
    "entity":
    {
      "name":
      {
        "entityName": "CstWall8x4_071"
        ,
        "tag": "Interactable"
      }
      ,
      "transform":
      {
        "pos": "89.5 8.0 -10.5"
        ,
        "rotation": "0.0 -1.0 0.0 0.0"
      }
      ,
      "prefab": "data/scenes/CST_SalaSpiderman/CstWall8x4__m_suelo.json"
    }
  }
  ,
  {
    "entity":
    {
      "name":
      {
        "entityName": "CstWall8x4_072"
        ,
        "tag": "Interactable"
      }
      ,
      "transform":
      {
        "pos": "89.5 8.0 -14.5"
        ,
        "rotation": "0.0 -1.0 0.0 0.0"
      }
      ,
      "prefab": "data/scenes/CST_SalaSpiderman/CstWall8x4__m_suelo.json"
    }
  }
  ,
  {
    "entity":
    {
      "name":
      {
        "entityName": "CstWall8x4_073"
        ,
        "tag": "Interactable"
      }
      ,
      "transform":
      {
        "pos": "82.0 8.0 -6.5"
        ,
        "rotation": "0.0 -1.0 0.0 0.0"
      }
      ,
      "prefab": "data/scenes/CST_SalaSpiderman/CstWall8x4__m_suelo.json"
    }
  }
  ,
  {
    "entity":
    {
      "name":
      {
        "entityName": "CstWall8x4_074"
        ,
        "tag": "Interactable"
      }
      ,
      "transform":
      {
        "pos": "82.0 8.0 -10.5"
        ,
        "rotation": "0.0 -1.0 0.0 0.0"
      }
      ,
      "prefab": "data/scenes/CST_SalaSpiderman/CstWall8x4__m_suelo.json"
    }
  }
  ,
  {
    "entity":
    {
      "name":
      {
        "entityName": "CstWall8x4_075"
        ,
        "tag": "Interactable"
      }
      ,
      "transform":
      {
        "pos": "82.0 8.0 -14.5"
        ,
        "rotation": "0.0 -1.0 0.0 0.0"
      }
      ,
      "prefab": "data/scenes/CST_SalaSpiderman/CstWall8x4__m_suelo.json"
    }
  }
  ,
  {
    "entity":
    {
      "name":
      {
        "entityName": "CstWall8x8_088"
        ,
        "tag": "Interactable"
      }
      ,
      "transform":
      {
        "pos": "90.0 8.0 -18.5"
        ,
        "rotation": "0.0 0.707107 0.0 -0.707107"
      }
      ,
      "prefab": "data/scenes/CST_SalaSpiderman/CstWall8x8__m_suelo.json"
    }
  }
  ,
  {
    "entity":
    {
      "name":
      {
        "entityName": "CstFloor12x8_019"
        ,
        "tag": "Interactable"
      }
      ,
      "transform":
      {
        "pos": "82.0 16.0 -6.5"
        ,
        "rotation": "0.0 0.0 0.0 -1.0"
      }
      ,
      "prefab": "data/scenes/CST_SalaSpiderman/CstFloor12x8__m_suelo.json"
    }
  }
  ,
  {
    "entity":
    {
      "name":
      {
        "entityName": "CstFloor12x8_020"
        ,
        "tag": "Interactable"
      }
      ,
      "transform":
      {
        "pos": "90.0 32.0 6.50001"
        ,
        "rotation": "0.0 -1.0 0.0 0.0"
      }
      ,
      "prefab": "data/scenes/CST_SalaSpiderman/CstFloor12x8__m_suelo.json"
    }
  }
  ,
  {
    "entity":
    {
      "name":
      {
        "entityName": "CstWall8x4_076"
        ,
        "tag": "Interactable"
      }
      ,
      "transform":
      {
        "pos": "82.5 24.0 6.50001"
        ,
        "rotation": "0.0 1.50996e-07 0.0 -1.0"
      }
      ,
      "prefab": "data/scenes/CST_SalaSpiderman/CstWall8x4__m_suelo.json"
    }
  }
  ,
  {
    "entity":
    {
      "name":
      {
        "entityName": "CstWall8x4_077"
        ,
        "tag": "Interactable"
      }
      ,
      "transform":
      {
        "pos": "82.5 24.0 10.5"
        ,
        "rotation": "0.0 1.50996e-07 0.0 -1.0"
      }
      ,
      "prefab": "data/scenes/CST_SalaSpiderman/CstWall8x4__m_suelo.json"
    }
  }
  ,
  {
    "entity":
    {
      "name":
      {
        "entityName": "CstWall8x4_078"
        ,
        "tag": "Interactable"
      }
      ,
      "transform":
      {
        "pos": "82.5 24.0 14.5"
        ,
        "rotation": "0.0 1.50996e-07 0.0 -1.0"
      }
      ,
      "prefab": "data/scenes/CST_SalaSpiderman/CstWall8x4__m_suelo.json"
    }
  }
  ,
  {
    "entity":
    {
      "name":
      {
        "entityName": "CstWall8x4_079"
        ,
        "tag": "Interactable"
      }
      ,
      "transform":
      {
        "pos": "90.0 24.0 6.50001"
        ,
        "rotation": "0.0 1.50996e-07 0.0 -1.0"
      }
      ,
      "prefab": "data/scenes/CST_SalaSpiderman/CstWall8x4__m_suelo.json"
    }
  }
  ,
  {
    "entity":
    {
      "name":
      {
        "entityName": "CstWall8x4_080"
        ,
        "tag": "Interactable"
      }
      ,
      "transform":
      {
        "pos": "90.0 24.0 10.5"
        ,
        "rotation": "0.0 1.50996e-07 0.0 -1.0"
      }
      ,
      "prefab": "data/scenes/CST_SalaSpiderman/CstWall8x4__m_suelo.json"
    }
  }
  ,
  {
    "entity":
    {
      "name":
      {
        "entityName": "CstWall8x4_081"
        ,
        "tag": "Interactable"
      }
      ,
      "transform":
      {
        "pos": "90.0 24.0 14.5"
        ,
        "rotation": "0.0 1.50996e-07 0.0 -1.0"
      }
      ,
      "prefab": "data/scenes/CST_SalaSpiderman/CstWall8x4__m_suelo.json"
    }
  }
  ,
  {
    "entity":
    {
      "name":
      {
        "entityName": "CstWall8x8_089"
        ,
        "tag": "Interactable"
      }
      ,
      "transform":
      {
        "pos": "82.0 24.0 18.5"
        ,
        "rotation": "0.0 -0.707107 0.0 -0.707107"
      }
      ,
      "prefab": "data/scenes/CST_SalaSpiderman/CstWall8x8__m_suelo.json"
    }
  }
  ,
  {
    "entity":
    {
      "name":
      {
        "entityName": "CstWall8x8_090"
        ,
        "tag": "Interactable"
      }
      ,
      "transform":
      {
        "pos": "98.0 40.0 -6.0"
        ,
        "rotation": "0.0 0.707107 0.0 -0.707107"
      }
      ,
      "prefab": "data/scenes/CST_SalaSpiderman/CstWall8x8__m_suelo.json"
    }
  }
  ,
  {
    "entity":
    {
      "name":
      {
        "entityName": "CstWall8x8_091"
        ,
        "tag": "Interactable"
      }
      ,
      "transform":
      {
        "pos": "98.0 40.0 6.50001"
        ,
        "rotation": "0.0 0.707107 0.0 -0.707107"
      }
      ,
      "prefab": "data/scenes/CST_SalaSpiderman/CstWall8x8__m_suelo.json"
    }
  }
  ,
  {
    "entity":
    {
      "name":
      {
        "entityName": "CstCeil12x8_011"
        ,
        "tag": "Interactable"
      }
      ,
      "transform":
      {
        "pos": "98.0 48.0 -6.0"
        ,
        "rotation": "0.0 0.707107 0.0 -0.707107"
      }
      ,
      "prefab": "data/scenes/CST_SalaSpiderman/CstCeil12x8__m_suelo.json"
    }
  }
]
