[
  {
    "entity":
    {
      "name": "CstFloorHole_m_suelo"
      ,
      "transform":
      {
      }
      ,
      "render":
      {
        "instanciable": true
        ,
        "key": 11
        ,
        "mesh": "data/meshes/CST_SalaSpiderman/CST_SalaSpiderman_CstFloorHole.mesh"
        ,
        "color": "1.0 1.0 1.0 1.0"
        ,
        "materials":
        [
          "data/materials/CST_SalaSpiderman/m_suelo.material"
        ]
      }
    }
  }
]
