[
  {
    "entity":
    {
      "name": "Cst_Window_Big_Mat_CstWindow"
      ,
      "transform":
      {
      }
      ,
      "render":
      {
        "instanciable": true
        ,
        "key": 12
        ,
        "mesh": "data/meshes/scene_pilot/scene_pilot_Cst_Window_Big.mesh"
        ,
        "color": "1.0 1.0 1.0 1.0"
        ,
        "materials":
        [
          "data/materials/scene_pilot/Mat_CstWindow.material"
        ]
      }
    }
  }
]
