{
  "technique": "unlit_scroll.tech",
  "casts_shadows": false,
  "priority": 900,
  "textures": {
    "albedo": "data/textures/fire.dds",
    "normal": "data/textures/null_normal.dds",
    "specular": "data/textures/black.dds",
    "emissive": "data/textures/white.dds"
  }
}