{
  "technique": "magic_outlines_skinned.tech",
  "casts_shadows": false,
  "priority": 800,
  "textures": {
    "albedo": "data/textures/mage_milestone3/Mat_Mage_Base_Color.dds",
    "normal": "data/textures/mage_milestone3/Mat_Mage_Normal_DirectX.dds",
    "specular": "data/textures/mage_milestone3/Mat_Mage_Metallic.dds",
    "emissive": "data/textures/mage_milestone3/Mat_Mage_Emissive.dds"
  }
}
