{
  "technique": "magic_cristal_skin.tech",
  "casts_shadows" : false,
  "priority": 1500,
  "textures": {
    "albedo": "data/textures/noise/uniformclouds-1.dds",
    "emissive": "data/textures/noise/Displacements.dds"
  }
}