{
  "start": "gs_pre_intro",
  "gamestates": {
    "gs_pre_intro": [ "pre_intro" ],
    "gs_pre_intro_charge": [ "boot", "gameplay", "pre_intro" ],
    "gs_title_game": [ "boot", "gameplay", "title_game" ],
    "gs_main_menu": [ "boot", "gameplay", "main_menu" ],
    "gs_intro": [ "boot", "gameplay", "intro" ],
    "gs_gameplay": [ "boot", "gameplay", "ui_in_game" ],
    "gs_pause": [ "boot", "gameplay", "ui_in_game", "pause_menu" ],
    "gs_credits": [ "boot", "gameplay", "credits" ],
    "gs_splash": [ "splash" ],
    "gs_gametesting": [ "boot", "sample_objs", "physics", "test_cameras", "test_instancing" ],
    "gs_reset": [ "reset" ],
    "gs_cameras": [ "boot", "test_cameras" ]
  }
}