[
  {
    "entity":
    {
      "name": "Swr_Fence_01_Swr_Fence_01"
      ,
      "transform":
      {
      }
      ,
      "render":
      {
        "instanciable": true
        ,
        "key": 34
        ,
        "mesh": "data/meshes/swrV13/swrV13_Swr_Fence_003.mesh"
        ,
        "color": "1.0 1.0 1.0 1.0"
        ,
        "materials":
        [
          "data/materials/swrV13/Swr_Fence_01.material"
          ,
          "data/materials/swrV13/Swr_Fence_01.material"
          ,
          "data/materials/swrV13/Swr_Fence_01.material"
          ,
          "data/materials/swrV13/Swr_Fence_01.material"
          ,
          "data/materials/swrV13/Swr_Fence_01.material"
          ,
          "data/materials/swrV13/Swr_Fence_01.material"
        ]
      }
    }
  }
]
