[
  {
    "entity":
    {
      "name": "SwrColumn_Base_Var01_mat_SwrColumn_Base_Var01"
      ,
      "transform":
      {
      }
      ,
      "render":
      {
        "instanciable": true
        ,
        "key": 24
        ,
        "mesh": "data/meshes/swrV13/swrV13_SwrColumn_Base_Var01_001.mesh"
        ,
        "color": "1.0 1.0 1.0 1.0"
        ,
        "materials":
        [
          "data/materials/swrV13/mat_SwrColumn_Base_Var01.material"
        ]
      }
    }
  }
]
