[
  {
    "entity":
    {
      "name": "SwrColumn_Base_Var02_mat_SwrColumn_Base_Var02"
      ,
      "transform":
      {
      }
      ,
      "render":
      {
        "instanciable": true
        ,
        "key": 27
        ,
        "mesh": "data/meshes/swrV13/swrV13_SwrColumn_Base_Var02_002.mesh"
        ,
        "color": "1.0 1.0 1.0 1.0"
        ,
        "materials":
        [
          "data/materials/swrV13/mat_SwrColumn_Base_Var02.material"
        ]
      }
    }
  }
]
