[
  {
    "entity":
    {
      "name": "SwrCeilHole_mat_SwrCeilHole"
      ,
      "transform":
      {
      }
      ,
      "render":
      {
        "instanciable": true
        ,
        "key": 23
        ,
        "mesh": "data/meshes/swrV13/swrV13_SwrCeilHole001.mesh"
        ,
        "color": "1.0 1.0 1.0 1.0"
        ,
        "materials":
        [
          "data/materials/swrV13/mat_SwrCeilHole.material"
          ,
          "data/materials/swrV13/mat_SwrCeilHole.material"
        ]
      }
    }
  }
]
