[
  {
    "entity":
    {
      "name": "SwrFloor8x8_Mat_SwrWall8x8"
      ,
      "transform":
      {
      }
      ,
      "render":
      {
        "instanciable": true
        ,
        "key": 6
        ,
        "mesh": "data/meshes/swrV13/swrV13_SwrFloor8x8_01.mesh"
        ,
        "color": "1.0 1.0 1.0 1.0"
        ,
        "materials":
        [
          "data/materials/swrV13/Mat_Floor_Var01.material"
        ]
      }
    }
  }
]
