[
  {
    "entity":
    {
      "name": "SwrTunnCurv_Mat_SwrTunnCurv"
      ,
      "transform":
      {
      }
      ,
      "render":
      {
        "instanciable": true
        ,
        "key": 11
        ,
        "mesh": "data/meshes/swrV13/swrV13_SwrTunnCurv002.mesh"
        ,
        "color": "1.0 1.0 1.0 1.0"
        ,
        "materials":
        [
          "data/materials/swrV13/Mat_SwrTunnCurv.material"
          ,
          "data/materials/swrV13/Mat_SwrTunnCurv.material"
          ,
          "data/materials/swrV13/Mat_SwrTunnCurv.material"
          ,
          "data/materials/swrV13/Mat_SwrTunnCurv.material"
        ]
      }
    }
  }
]
