[
  {
    "entity":
    {
      "name": "CstWall8x8__m_prueba"
      ,
      "transform":
      {
      }
      ,
      "render":
      {
        "instanciable": true
        ,
        "key": 3
        ,
        "mesh": "data/meshes/CstWhiteboxfinal02/CstWhiteboxfinal02_CstWall8x8_.mesh"
        ,
        "color": "1.0 1.0 1.0 1.0"
        ,
        "materials":
        [
          "data/materials/CstWhiteboxfinal02/m_prueba.material"
          ,
          "data/materials/CstWhiteboxfinal02/m_prueba.material"
          ,
          "data/materials/CstWhiteboxfinal02/m_prueba.material"
          ,
          "data/materials/CstWhiteboxfinal02/m_prueba.material"
          ,
          "data/materials/CstWhiteboxfinal02/m_prueba.material"
          ,
          "data/materials/CstWhiteboxfinal02/m_prueba.material"
        ]
      }
    }
  }
]
