[
  {
    "entity": {
      "name": "EditorParticles",
      "transform": {
        "pos": "0.0 0.0 0.0",
        "rotation": "0.0 0.0 0.0 -1.0"
      },
      "editor_particles": {}
    }
  }
  ,
  {
    "entity": {
      "name": "Floor",
      "transform": {
        "pos": "0.0 -1.8 0.0",
        "rotation": "0.0 0.0 0.0 -1.0"
      },
      "prefab": "data/prefabs/infinite_plane.json"
    }
  },
  {
    "entity":
    {
      "name":
      {
        "entityName": "Wall1"
        ,
        "tag": "Interactable"
      }
      ,
      "transform":
      {
        "pos": "-20 -5 25"
        ,
        "rotation": "0 0.7071068 0 0.7071068"
        ,
        "scale": 5
      }
      ,
      "prefab": "data/scenes/swrV13/SwrWall8x8_Mat_SwrWall8x8.json"
      ,
      "abs_aabb":
      {
      }
    }
  },
  {
    "entity":
    {
      "name":
      {
        "entityName": "Wall2"
        ,
        "tag": "Interactable"
      }
      ,
      "transform":
      {
        "pos": "-20 -5 25"
        ,
        "rotation": "0 1 0 0"
        ,
        "scale": 5
      }
      ,
      "prefab": "data/scenes/swrV13/SwrWall8x8_Mat_SwrWall8x8.json"
      ,
      "abs_aabb":
      {
      }
    }
  }
]

