[
  {
    "entity":
    {
      "name":
      {
        "entityName": "window_wall"
        ,
        "tag": "Interactable"
      }
      ,
      "transform":
      {
        "pos": "-8.37988 6.0 0.104606"
        ,
        "rotation": "0.0 0.0 0.0 -1.0"
      }
      ,
      "collider":
      {
        "shapes":
        [
          {
            "shape": "box"
            ,
            "half_size": "2.0 2.0 0.108821"
            ,
            "offset":
            {
              "pos": "0.0 2.0 0.0"
            }
            ,
            "group": "all"
            ,
            "mask": "all"
          }
        ]
        ,
        "density": 1
        ,
        "mass": 1
        ,
        "linearDrag": 0.5
        ,
        "angularDrag": 0.25
        ,
        "dynamic": false
        ,
        "kinematic": false
      }
      ,
      "abs_aabb":
      {
      }
      ,
      "render":
      {
        "mesh": "data/meshes/scene_render/scene_render_window_wall.mesh"
        ,
        "color": "1.0 1.0 1.0 1.0"
        ,
        "materials":
        [
          "data/materials/scene_render/WindowWall.material"
          ,
          "data/materials/scene_render/WindowWall.material"
        ]
      }
    }
  }
  ,
   {
    "entity":
    {
      "name":
      {
        "entityName": "terra_low"
        ,
        "tag": "Interactable"
      }
      ,
      "transform":
      {
        "pos": "-12.3799 0.0458816 5.95806"
        ,
        "rotation": "0.0 0.0 0.0 -1.0"
      }
      ,
      "collider":
      {
        "shapes":
        [
          {
            "shape": "box"
            ,
            "half_size": "2.0 0.059259 2.0"
            ,
            "offset":
            {
              "pos": "0.0 0.059259 0.0"
            }
            ,
            "group": "all"
            ,
            "mask": "all"
          }
        ]
        ,
        "density": 1
        ,
        "mass": 1
        ,
        "linearDrag": 0.5
        ,
        "angularDrag": 0.25
        ,
        "dynamic": false
        ,
        "kinematic": false
      }
      ,
      "abs_aabb":
      {
      }
      ,
      "render":
      {
        "mesh": "data/meshes/scene_render/scene_render_terra_low.mesh"
        ,
        "color": "1.0 1.0 1.0 1.0"
        ,
        "materials":
        [
          "data/materials/scene_render/Suelo_1.material"
        ]
      }
    }
  }
  ,
  {
    "entity":
    {
      "name":
      {
        "entityName": "terra2_low001"
        ,
        "tag": "Interactable"
      }
      ,
      "transform":
      {
        "pos": "-12.3799 0.0525701 1.95806"
        ,
        "rotation": "0.0 0.0 0.0 -1.0"
      }
      ,
      "collider":
      {
        "shapes":
        [
          {
            "shape": "box"
            ,
            "half_size": "2.0 0.0525702 2.0"
            ,
            "offset":
            {
              "pos": "0.0 0.0525702 0.0"
            }
            ,
            "group": "all"
            ,
            "mask": "all"
          }
        ]
        ,
        "density": 1
        ,
        "mass": 1
        ,
        "linearDrag": 0.5
        ,
        "angularDrag": 0.25
        ,
        "dynamic": false
        ,
        "kinematic": false
      }
      ,
      "abs_aabb":
      {
      }
      ,
      "render":
      {
        "mesh": "data/meshes/scene_render/scene_render_terra2_low001.mesh"
        ,
        "color": "1.0 1.0 1.0 1.0"
        ,
        "materials":
        [
          "data/materials/scene_render/Suelo_2.material"
          ,
          "data/materials/scene_render/Suelo_2.material"
          ,
          "data/materials/scene_render/Suelo_2.material"
          ,
          "data/materials/scene_render/Suelo_2.material"
          ,
          "data/materials/scene_render/Suelo_2.material"
          ,
          "data/materials/scene_render/Suelo_2.material"
        ]
      }
    }
  }
  ,
  {
    "entity":
    {
      "name":
      {
        "entityName": "terra2_low002"
        ,
        "tag": "Interactable"
      }
      ,
      "transform":
      {
        "pos": "-12.3799 0.0525702 9.95806"
        ,
        "rotation": "0.0 0.0 0.0 -1.0"
      }
      ,
      "collider":
      {
        "shapes":
        [
          {
            "shape": "box"
            ,
            "half_size": "2.0 0.0525702 2.0"
            ,
            "offset":
            {
              "pos": "0.0 0.0525702 0.0"
            }
            ,
            "group": "all"
            ,
            "mask": "all"
          }
        ]
        ,
        "density": 1
        ,
        "mass": 1
        ,
        "linearDrag": 0.5
        ,
        "angularDrag": 0.25
        ,
        "dynamic": false
        ,
        "kinematic": false
      }
      ,
      "abs_aabb":
      {
      }
      ,
      "render":
      {
        "mesh": "data/meshes/scene_render/scene_render_terra2_low002.mesh"
        ,
        "color": "1.0 1.0 1.0 1.0"
        ,
        "materials":
        [
          "data/materials/scene_render/Suelo_2.material"
          ,
          "data/materials/scene_render/Suelo_2.material"
          ,
          "data/materials/scene_render/Suelo_2.material"
          ,
          "data/materials/scene_render/Suelo_2.material"
          ,
          "data/materials/scene_render/Suelo_2.material"
          ,
          "data/materials/scene_render/Suelo_2.material"
        ]
      }
    }
  }
  ,
  {
    "entity":
    {
      "name":
      {
        "entityName": "terra_low001"
        ,
        "tag": "Interactable"
      }
      ,
      "transform":
      {
        "pos": "-8.37988 0.0458811 9.95806"
        ,
        "rotation": "0.0 0.0 0.0 -1.0"
      }
      ,
      "collider":
      {
        "shapes":
        [
          {
            "shape": "box"
            ,
            "half_size": "2.0 0.059259 2.0"
            ,
            "offset":
            {
              "pos": "0.0 0.059259 0.0"
            }
            ,
            "group": "all"
            ,
            "mask": "all"
          }
        ]
        ,
        "density": 1
        ,
        "mass": 1
        ,
        "linearDrag": 0.5
        ,
        "angularDrag": 0.25
        ,
        "dynamic": false
        ,
        "kinematic": false
      }
      ,
      "abs_aabb":
      {
      }
      ,
      "render":
      {
        "mesh": "data/meshes/scene_render/scene_render_terra_low001.mesh"
        ,
        "color": "1.0 1.0 1.0 1.0"
        ,
        "materials":
        [
          "data/materials/scene_render/Suelo_1.material"
        ]
      }
    }
  }
  ,
  {
    "entity":
    {
      "name":
      {
        "entityName": "terra_low002"
        ,
        "tag": "Interactable"
      }
      ,
      "transform":
      {
        "pos": "-8.37988 0.0458805 1.95806"
        ,
        "rotation": "0.0 0.0 0.0 -1.0"
      }
      ,
      "collider":
      {
        "shapes":
        [
          {
            "shape": "box"
            ,
            "half_size": "2.0 0.059259 2.0"
            ,
            "offset":
            {
              "pos": "0.0 0.059259 0.0"
            }
            ,
            "group": "all"
            ,
            "mask": "all"
          }
        ]
        ,
        "density": 1
        ,
        "mass": 1
        ,
        "linearDrag": 0.5
        ,
        "angularDrag": 0.25
        ,
        "dynamic": false
        ,
        "kinematic": false
      }
      ,
      "abs_aabb":
      {
      }
      ,
      "render":
      {
        "mesh": "data/meshes/scene_render/scene_render_terra_low002.mesh"
        ,
        "color": "1.0 1.0 1.0 1.0"
        ,
        "materials":
        [
          "data/materials/scene_render/Suelo_1.material"
        ]
      }
    }
  }
  ,
  {
    "entity":
    {
      "name":
      {
        "entityName": "terra2_low003"
        ,
        "tag": "Interactable"
      }
      ,
      "transform":
      {
        "pos": "-8.37988 0.0525702 5.95806"
        ,
        "rotation": "0.0 0.0 0.0 -1.0"
      }
      ,
      "collider":
      {
        "shapes":
        [
          {
            "shape": "box"
            ,
            "half_size": "2.0 0.0525702 2.0"
            ,
            "offset":
            {
              "pos": "0.0 0.0525702 0.0"
            }
            ,
            "group": "all"
            ,
            "mask": "all"
          }
        ]
        ,
        "density": 1
        ,
        "mass": 1
        ,
        "linearDrag": 0.5
        ,
        "angularDrag": 0.25
        ,
        "dynamic": false
        ,
        "kinematic": false
      }
      ,
      "abs_aabb":
      {
      }
      ,
      "render":
      {
        "mesh": "data/meshes/scene_render/scene_render_terra2_low003.mesh"
        ,
        "color": "1.0 1.0 1.0 1.0"
        ,
        "materials":
        [
          "data/materials/scene_render/Suelo_2.material"
          ,
          "data/materials/scene_render/Suelo_2.material"
          ,
          "data/materials/scene_render/Suelo_2.material"
          ,
          "data/materials/scene_render/Suelo_2.material"
          ,
          "data/materials/scene_render/Suelo_2.material"
          ,
          "data/materials/scene_render/Suelo_2.material"
        ]
      }
    }
  }
  ,
  {
    "entity":
    {
      "name":
      {
        "entityName": "terra2_low004"
        ,
        "tag": "Interactable"
      }
      ,
      "transform":
      {
        "pos": "-4.37988 0.0525701 1.95806"
        ,
        "rotation": "0.0 0.0 0.0 -1.0"
      }
      ,
      "collider":
      {
        "shapes":
        [
          {
            "shape": "box"
            ,
            "half_size": "2.0 0.0525702 2.0"
            ,
            "offset":
            {
              "pos": "0.0 0.0525702 0.0"
            }
            ,
            "group": "all"
            ,
            "mask": "all"
          }
        ]
        ,
        "density": 1
        ,
        "mass": 1
        ,
        "linearDrag": 0.5
        ,
        "angularDrag": 0.25
        ,
        "dynamic": false
        ,
        "kinematic": false
      }
      ,
      "abs_aabb":
      {
      }
      ,
      "render":
      {
        "mesh": "data/meshes/scene_render/scene_render_terra2_low004.mesh"
        ,
        "color": "1.0 1.0 1.0 1.0"
        ,
        "materials":
        [
          "data/materials/scene_render/Suelo_2.material"
          ,
          "data/materials/scene_render/Suelo_2.material"
          ,
          "data/materials/scene_render/Suelo_2.material"
          ,
          "data/materials/scene_render/Suelo_2.material"
          ,
          "data/materials/scene_render/Suelo_2.material"
          ,
          "data/materials/scene_render/Suelo_2.material"
        ]
      }
    }
  }
  ,
  {
    "entity":
    {
      "name":
      {
        "entityName": "nav_terra2_low005"
        ,
        "tag": "Interactable"
      }
      ,
      "transform":
      {
        "pos": "-4.37988 0.0525716 9.95806"
        ,
        "rotation": "0.0 0.0 0.0 -1.0"
      }
      ,
      "collider":
      {
        "shapes":
        [
          {
            "shape": "box"
            ,
            "half_size": "2.0 0.0525702 2.0"
            ,
            "offset":
            {
              "pos": "0.0 0.0525702 0.0"
            }
            ,
            "group": "all"
            ,
            "mask": "all"
          }
        ]
        ,
        "density": 1
        ,
        "mass": 1
        ,
        "linearDrag": 0.5
        ,
        "angularDrag": 0.25
        ,
        "dynamic": false
        ,
        "kinematic": false
      }
      ,
      "abs_aabb":
      {
      }
      ,
      "render":
      {
        "mesh": "data/meshes/scene_render/scene_render_nav_terra2_low005.mesh"
        ,
        "color": "1.0 1.0 1.0 1.0"
        ,
        "materials":
        [
          "data/materials/scene_render/Suelo_2.material"
          ,
          "data/materials/scene_render/Suelo_2.material"
          ,
          "data/materials/scene_render/Suelo_2.material"
          ,
          "data/materials/scene_render/Suelo_2.material"
          ,
          "data/materials/scene_render/Suelo_2.material"
          ,
          "data/materials/scene_render/Suelo_2.material"
        ]
      }
    }
  }
  ,
  {
    "entity":
    {
      "name":
      {
        "entityName": "terra_low003"
        ,
        "tag": "Interactable"
      }
      ,
      "transform":
      {
        "pos": "-4.37988 0.0458824 5.95806"
        ,
        "rotation": "0.0 0.0 0.0 -1.0"
      }
      ,
      "collider":
      {
        "shapes":
        [
          {
            "shape": "box"
            ,
            "half_size": "2.0 0.059259 2.0"
            ,
            "offset":
            {
              "pos": "0.0 0.059259 0.0"
            }
            ,
            "group": "all"
            ,
            "mask": "all"
          }
        ]
        ,
        "density": 1
        ,
        "mass": 1
        ,
        "linearDrag": 0.5
        ,
        "angularDrag": 0.25
        ,
        "dynamic": false
        ,
        "kinematic": false
      }
      ,
      "abs_aabb":
      {
      }
      ,
      "render":
      {
        "mesh": "data/meshes/scene_render/scene_render_terra_low003.mesh"
        ,
        "color": "1.0 1.0 1.0 1.0"
        ,
        "materials":
        [
          "data/materials/scene_render/Suelo_1.material"
        ]
      }
    }
  }
  ,
  {
    "entity":
    {
      "name":
      {
        "entityName": "high_wall"
        ,
        "tag": "Interactable"
      }
      ,
      "transform":
      {
        "pos": "-12.3799 6.0 0.0578238"
        ,
        "rotation": "0.0 0.0 0.0 -1.0"
      }
      ,
      "collider":
      {
        "shapes":
        [
          {
            "shape": "box"
            ,
            "half_size": "2.0 2.0 0.0443976"
            ,
            "offset":
            {
              "pos": "0.0 2.0 0.0"
            }
            ,
            "group": "all"
            ,
            "mask": "all"
          }
        ]
        ,
        "density": 1
        ,
        "mass": 1
        ,
        "linearDrag": 0.5
        ,
        "angularDrag": 0.25
        ,
        "dynamic": false
        ,
        "kinematic": false
      }
      ,
      "abs_aabb":
      {
      }
      ,
      "render":
      {
        "mesh": "data/meshes/scene_render/scene_render_high_wall.mesh"
        ,
        "color": "1.0 1.0 1.0 1.0"
        ,
        "materials":
        [
          "data/materials/scene_render/PlasterWall.material"
          ,
          "data/materials/scene_render/PlasterWall.material"
        ]
      }
    }
  }
  ,
  {
    "entity":
    {
      "name":
      {
        "entityName": "high_wall014"
        ,
        "tag": "Interactable"
      }
      ,
      "transform":
      {
        "pos": "-12.3799 10.0 0.0578244"
        ,
        "rotation": "0.0 0.0 0.0 -1.0"
      }
      ,
      "collider":
      {
        "shapes":
        [
          {
            "shape": "box"
            ,
            "half_size": "2.0 2.0 0.0443976"
            ,
            "offset":
            {
              "pos": "0.0 2.0 0.0"
            }
            ,
            "group": "all"
            ,
            "mask": "all"
          }
        ]
        ,
        "density": 1
        ,
        "mass": 1
        ,
        "linearDrag": 0.5
        ,
        "angularDrag": 0.25
        ,
        "dynamic": false
        ,
        "kinematic": false
      }
      ,
      "abs_aabb":
      {
      }
      ,
      "render":
      {
        "mesh": "data/meshes/scene_render/scene_render_high_wall014.mesh"
        ,
        "color": "1.0 1.0 1.0 1.0"
        ,
        "materials":
        [
          "data/materials/scene_render/PlasterWall.material"
          ,
          "data/materials/scene_render/PlasterWall.material"
        ]
      }
    }
  }
  ,
  {
    "entity":
    {
      "name":
      {
        "entityName": "high_wall015"
        ,
        "tag": "Interactable"
      }
      ,
      "transform":
      {
        "pos": "-4.43525 6.0 0.0578238"
        ,
        "rotation": "0.0 0.0 0.0 -1.0"
      }
      ,
      "collider":
      {
        "shapes":
        [
          {
            "shape": "box"
            ,
            "half_size": "2.0 2.0 0.0443976"
            ,
            "offset":
            {
              "pos": "0.0 2.0 0.0"
            }
            ,
            "group": "all"
            ,
            "mask": "all"
          }
        ]
        ,
        "density": 1
        ,
        "mass": 1
        ,
        "linearDrag": 0.5
        ,
        "angularDrag": 0.25
        ,
        "dynamic": false
        ,
        "kinematic": false
      }
      ,
      "abs_aabb":
      {
      }
      ,
      "render":
      {
        "mesh": "data/meshes/scene_render/scene_render_high_wall015.mesh"
        ,
        "color": "1.0 1.0 1.0 1.0"
        ,
        "materials":
        [
          "data/materials/scene_render/PlasterWall.material"
          ,
          "data/materials/scene_render/PlasterWall.material"
        ]
      }
    }
  }
  ,
  {
    "entity":
    {
      "name":
      {
        "entityName": "high_wall016"
        ,
        "tag": "Interactable"
      }
      ,
      "transform":
      {
        "pos": "-4.43525 10.0 0.0578244"
        ,
        "rotation": "0.0 0.0 0.0 -1.0"
      }
      ,
      "collider":
      {
        "shapes":
        [
          {
            "shape": "box"
            ,
            "half_size": "2.0 2.0 0.0443976"
            ,
            "offset":
            {
              "pos": "0.0 2.0 0.0"
            }
            ,
            "group": "all"
            ,
            "mask": "all"
          }
        ]
        ,
        "density": 1
        ,
        "mass": 1
        ,
        "linearDrag": 0.5
        ,
        "angularDrag": 0.25
        ,
        "dynamic": false
        ,
        "kinematic": false
      }
      ,
      "abs_aabb":
      {
      }
      ,
      "render":
      {
        "mesh": "data/meshes/scene_render/scene_render_high_wall016.mesh"
        ,
        "color": "1.0 1.0 1.0 1.0"
        ,
        "materials":
        [
          "data/materials/scene_render/PlasterWall.material"
          ,
          "data/materials/scene_render/PlasterWall.material"
        ]
      }
    }
  }
  ,
  {
    "entity":
    {
      "name":
      {
        "entityName": "high_wall017"
        ,
        "tag": "Interactable"
      }
      ,
      "transform":
      {
        "pos": "-8.37988 10.0 0.0578244"
        ,
        "rotation": "0.0 0.0 0.0 -1.0"
      }
      ,
      "collider":
      {
        "shapes":
        [
          {
            "shape": "box"
            ,
            "half_size": "2.0 2.0 0.0443976"
            ,
            "offset":
            {
              "pos": "0.0 2.0 0.0"
            }
            ,
            "group": "all"
            ,
            "mask": "all"
          }
        ]
        ,
        "density": 1
        ,
        "mass": 1
        ,
        "linearDrag": 0.5
        ,
        "angularDrag": 0.25
        ,
        "dynamic": false
        ,
        "kinematic": false
      }
      ,
      "abs_aabb":
      {
      }
      ,
      "render":
      {
        "mesh": "data/meshes/scene_render/scene_render_high_wall017.mesh"
        ,
        "color": "1.0 1.0 1.0 1.0"
        ,
        "materials":
        [
          "data/materials/scene_render/PlasterWall.material"
          ,
          "data/materials/scene_render/PlasterWall.material"
        ]
      }
    }
  }
  ,
  {
    "entity":
    {
      "name":
      {
        "entityName": "high_wall018"
        ,
        "tag": "Interactable"
      }
      ,
      "transform":
      {
        "pos": "-12.3799 2.0 0.0578248"
        ,
        "rotation": "0.0 0.0 0.0 -1.0"
      }
      ,
      "collider":
      {
        "shapes":
        [
          {
            "shape": "box"
            ,
            "half_size": "2.0 2.0 0.0443976"
            ,
            "offset":
            {
              "pos": "0.0 2.0 0.0"
            }
            ,
            "group": "all"
            ,
            "mask": "all"
          }
        ]
        ,
        "density": 1
        ,
        "mass": 1
        ,
        "linearDrag": 0.5
        ,
        "angularDrag": 0.25
        ,
        "dynamic": false
        ,
        "kinematic": false
      }
      ,
      "abs_aabb":
      {
      }
      ,
      "render":
      {
        "mesh": "data/meshes/scene_render/scene_render_high_wall018.mesh"
        ,
        "color": "1.0 1.0 1.0 1.0"
        ,
        "materials":
        [
          "data/materials/scene_render/BrickWall.material"
          ,
          "data/materials/scene_render/BrickWall.material"
        ]
      }
    }
  }
  ,
  {
    "entity":
    {
      "name":
      {
        "entityName": "high_wall020"
        ,
        "tag": "Interactable"
      }
      ,
      "transform":
      {
        "pos": "-8.37988 2.0 0.0578248"
        ,
        "rotation": "0.0 0.0 0.0 -1.0"
      }
      ,
      "collider":
      {
        "shapes":
        [
          {
            "shape": "box"
            ,
            "half_size": "2.0 2.0 0.0443976"
            ,
            "offset":
            {
              "pos": "0.0 2.0 0.0"
            }
            ,
            "group": "all"
            ,
            "mask": "all"
          }
        ]
        ,
        "density": 1
        ,
        "mass": 1
        ,
        "linearDrag": 0.5
        ,
        "angularDrag": 0.25
        ,
        "dynamic": false
        ,
        "kinematic": false
      }
      ,
      "abs_aabb":
      {
      }
      ,
      "render":
      {
        "mesh": "data/meshes/scene_render/scene_render_high_wall020.mesh"
        ,
        "color": "1.0 1.0 1.0 1.0"
        ,
        "materials":
        [
          "data/materials/scene_render/BrickWall.material"
          ,
          "data/materials/scene_render/BrickWall.material"
        ]
      }
    }
  }
  ,
  {
    "entity":
    {
      "name":
      {
        "entityName": "zocalocentro_1"
        ,
        "tag": "Interactable"
      }
      ,
      "transform":
      {
        "pos": "-12.3684 4.16532 0.0490219"
        ,
        "rotation": "0.0 0.0 0.0 -1.0"
      }
      ,
      "collider":
      {
        "shapes":
        [
          {
            "shape": "box"
            ,
            "half_size": "2.03663 0.165318 0.166698"
            ,
            "offset":
            {
              "pos": "0.0 0.165318 0.0"
            }
            ,
            "group": "all"
            ,
            "mask": "all"
          }
        ]
        ,
        "density": 1
        ,
        "mass": 1
        ,
        "linearDrag": 0.5
        ,
        "angularDrag": 0.25
        ,
        "dynamic": false
        ,
        "kinematic": false
      }
      ,
      "abs_aabb":
      {
      }
      ,
      "render":
      {
        "mesh": "data/meshes/scene_render/scene_render_zocalocentro_1.mesh"
        ,
        "color": "1.0 1.0 1.0 1.0"
        ,
        "materials":
        [
          "data/materials/scene_render/Zocalo_centro.material"
          ,
          "data/materials/scene_render/Zocalo_centro.material"
          ,
          "data/materials/scene_render/Zocalo_centro.material"
          ,
          "data/materials/scene_render/Zocalo_centro.material"
          ,
          "data/materials/scene_render/Zocalo_centro.material"
          ,
          "data/materials/scene_render/Zocalo_centro.material"
        ]
      }
    }
  }
  ,
  {
    "entity":
    {
      "name":
      {
        "entityName": "zocaloinferior_1"
        ,
        "tag": "Interactable"
      }
      ,
      "transform":
      {
        "pos": "-12.3799 0.250733 0.272356"
        ,
        "rotation": "0.0 0.0 0.0 -1.0"
      }
      ,
      "collider":
      {
        "shapes":
        [
          {
            "shape": "box"
            ,
            "half_size": "2.0 0.250732 0.170135"
            ,
            "offset":
            {
              "pos": "0.0 0.250732 0.0"
            }
            ,
            "group": "all"
            ,
            "mask": "all"
          }
        ]
        ,
        "density": 1
        ,
        "mass": 1
        ,
        "linearDrag": 0.5
        ,
        "angularDrag": 0.25
        ,
        "dynamic": false
        ,
        "kinematic": false
      }
      ,
      "abs_aabb":
      {
      }
      ,
      "render":
      {
        "mesh": "data/meshes/scene_render/scene_render_zocaloinferior_1.mesh"
        ,
        "color": "1.0 1.0 1.0 1.0"
        ,
        "materials":
        [
          "data/materials/scene_render/Zocalo_Inferior.material"
          ,
          "data/materials/scene_render/Zocalo_Inferior.material"
          ,
          "data/materials/scene_render/Zocalo_Inferior.material"
          ,
          "data/materials/scene_render/Zocalo_Inferior.material"
          ,
          "data/materials/scene_render/Zocalo_Inferior.material"
          ,
          "data/materials/scene_render/Zocalo_Inferior.material"
        ]
      }
    }
  }
  ,
  {
    "entity":
    {
      "name":
      {
        "entityName": "mid_wall005"
        ,
        "tag": "Interactable"
      }
      ,
      "transform":
      {
        "pos": "-12.3799 11.4345 0.162981"
        ,
        "rotation": "0.0 0.0 0.0 -1.0"
      }
      ,
      "collider":
      {
        "shapes":
        [
          {
            "shape": "box"
            ,
            "half_size": "2.0 0.565468 0.149554"
            ,
            "offset":
            {
              "pos": "0.0 0.565468 0.0"
            }
            ,
            "group": "all"
            ,
            "mask": "all"
          }
        ]
        ,
        "density": 1
        ,
        "mass": 1
        ,
        "linearDrag": 0.5
        ,
        "angularDrag": 0.25
        ,
        "dynamic": false
        ,
        "kinematic": false
      }
      ,
      "abs_aabb":
      {
      }
      ,
      "render":
      {
        "mesh": "data/meshes/scene_render/scene_render_mid_wall005.mesh"
        ,
        "color": "1.0 1.0 1.0 1.0"
        ,
        "materials":
        [
          "data/materials/scene_render/Zocalo_SuperiorLado.material"
          ,
          "data/materials/scene_render/Zocalo_SuperiorLado.material"
          ,
          "data/materials/scene_render/Zocalo_SuperiorLado.material"
          ,
          "data/materials/scene_render/Zocalo_SuperiorLado.material"
        ]
      }
    }
  }
  ,
  {
    "entity":
    {
      "name":
      {
        "entityName": "mid_wall006"
        ,
        "tag": "Interactable"
      }
      ,
      "transform":
      {
        "pos": "-8.37988 11.4346 0.162981"
        ,
        "rotation": "0.0 0.0 0.0 -1.0"
      }
      ,
      "collider":
      {
        "shapes":
        [
          {
            "shape": "box"
            ,
            "half_size": "2.0 0.565444 0.149554"
            ,
            "offset":
            {
              "pos": "0.0 0.565444 0.0"
            }
            ,
            "group": "all"
            ,
            "mask": "all"
          }
        ]
        ,
        "density": 1
        ,
        "mass": 1
        ,
        "linearDrag": 0.5
        ,
        "angularDrag": 0.25
        ,
        "dynamic": false
        ,
        "kinematic": false
      }
      ,
      "abs_aabb":
      {
      }
      ,
      "render":
      {
        "mesh": "data/meshes/scene_render/scene_render_mid_wall006.mesh"
        ,
        "color": "1.0 1.0 1.0 1.0"
        ,
        "materials":
        [
          "data/materials/scene_render/Zcoalo_SuperiorCentro.material"
          ,
          "data/materials/scene_render/Zcoalo_SuperiorCentro.material"
          ,
          "data/materials/scene_render/Zcoalo_SuperiorCentro.material"
          ,
          "data/materials/scene_render/Zcoalo_SuperiorCentro.material"
        ]
      }
    }
  }
  ,
  {
    "entity":
    {
      "name":
      {
        "entityName": "zocalocentro_2"
        ,
        "tag": "Interactable"
      }
      ,
      "transform":
      {
        "pos": "-4.4467 4.16532 0.0490219"
        ,
        "rotation": "0.0 0.0 0.0 -1.0"
      }
      ,
      "collider":
      {
        "shapes":
        [
          {
            "shape": "box"
            ,
            "half_size": "2.03663 0.165318 0.166698"
            ,
            "offset":
            {
              "pos": "0.0 0.165318 0.0"
            }
            ,
            "group": "all"
            ,
            "mask": "all"
          }
        ]
        ,
        "density": 1
        ,
        "mass": 1
        ,
        "linearDrag": 0.5
        ,
        "angularDrag": 0.25
        ,
        "dynamic": false
        ,
        "kinematic": false
      }
      ,
      "abs_aabb":
      {
      }
      ,
      "render":
      {
        "mesh": "data/meshes/scene_render/scene_render_zocalocentro_2.mesh"
        ,
        "color": "1.0 1.0 1.0 1.0"
        ,
        "materials":
        [
          "data/materials/scene_render/Zocalo_centro.material"
          ,
          "data/materials/scene_render/Zocalo_centro.material"
          ,
          "data/materials/scene_render/Zocalo_centro.material"
          ,
          "data/materials/scene_render/Zocalo_centro.material"
          ,
          "data/materials/scene_render/Zocalo_centro.material"
          ,
          "data/materials/scene_render/Zocalo_centro.material"
        ]
      }
    }
  }
  ,
  {
    "entity":
    {
      "name":
      {
        "entityName": "window_decoration"
        ,
        "tag": "Interactable"
      }
      ,
      "transform":
      {
        "pos": "-8.37989 6.0014 0.0522934"
        ,
        "rotation": "0.0 0.0 0.0 -1.0"
      }
      ,
      "collider":
      {
        "shapes":
        [
          {
            "shape": "box"
            ,
            "half_size": "1.33427 2.00035 0.365666"
            ,
            "offset":
            {
              "pos": "0.0 2.00035 0.0"
            }
            ,
            "group": "all"
            ,
            "mask": "all"
          }
        ]
        ,
        "density": 1
        ,
        "mass": 1
        ,
        "linearDrag": 0.5
        ,
        "angularDrag": 0.25
        ,
        "dynamic": false
        ,
        "kinematic": false
      }
      ,
      "abs_aabb":
      {
      }
      ,
      "render":
      {
        "mesh": "data/meshes/scene_render/scene_render_window_decoration.mesh"
        ,
        "color": "1.0 1.0 1.0 1.0"
        ,
        "materials":
        [
          "data/materials/scene_render/window.material"
          ,
          "data/materials/scene_render/window.material"
        ]
      }
    }
  }
  ,
  {
    "entity":
    {
      "name":
      {
        "entityName": "mid_wall007"
        ,
        "tag": "Interactable"
      }
      ,
      "transform":
      {
        "pos": "-4.43525 11.4345 0.162981"
        ,
        "rotation": "0.0 0.0 0.0 -1.0"
      }
      ,
      "collider":
      {
        "shapes":
        [
          {
            "shape": "box"
            ,
            "half_size": "2.0 0.565468 0.149554"
            ,
            "offset":
            {
              "pos": "0.0 0.565468 0.0"
            }
            ,
            "group": "all"
            ,
            "mask": "all"
          }
        ]
        ,
        "density": 1
        ,
        "mass": 1
        ,
        "linearDrag": 0.5
        ,
        "angularDrag": 0.25
        ,
        "dynamic": false
        ,
        "kinematic": false
      }
      ,
      "abs_aabb":
      {
      }
      ,
      "render":
      {
        "mesh": "data/meshes/scene_render/scene_render_mid_wall007.mesh"
        ,
        "color": "1.0 1.0 1.0 1.0"
        ,
        "materials":
        [
          "data/materials/scene_render/Zocalo_SuperiorLado.material"
          ,
          "data/materials/scene_render/Zocalo_SuperiorLado.material"
          ,
          "data/materials/scene_render/Zocalo_SuperiorLado.material"
          ,
          "data/materials/scene_render/Zocalo_SuperiorLado.material"
        ]
      }
    }
  }
  ,
  {
    "entity":
    {
      "name":
      {
        "entityName": "zocaloinferior_2"
        ,
        "tag": "Interactable"
      }
      ,
      "transform":
      {
        "pos": "-8.37988 0.250733 0.272356"
        ,
        "rotation": "0.0 0.0 0.0 -1.0"
      }
      ,
      "collider":
      {
        "shapes":
        [
          {
            "shape": "box"
            ,
            "half_size": "2.0 0.250732 0.170135"
            ,
            "offset":
            {
              "pos": "0.0 0.250732 0.0"
            }
            ,
            "group": "all"
            ,
            "mask": "all"
          }
        ]
        ,
        "density": 1
        ,
        "mass": 1
        ,
        "linearDrag": 0.5
        ,
        "angularDrag": 0.25
        ,
        "dynamic": false
        ,
        "kinematic": false
      }
      ,
      "abs_aabb":
      {
      }
      ,
      "render":
      {
        "mesh": "data/meshes/scene_render/scene_render_zocaloinferior_2.mesh"
        ,
        "color": "1.0 1.0 1.0 1.0"
        ,
        "materials":
        [
          "data/materials/scene_render/Zocalo_Inferior.material"
          ,
          "data/materials/scene_render/Zocalo_Inferior.material"
          ,
          "data/materials/scene_render/Zocalo_Inferior.material"
          ,
          "data/materials/scene_render/Zocalo_Inferior.material"
          ,
          "data/materials/scene_render/Zocalo_Inferior.material"
          ,
          "data/materials/scene_render/Zocalo_Inferior.material"
        ]
      }
    }
  }
  ,
  {
    "entity":
    {
      "name":
      {
        "entityName": "zocaloinferior_3"
        ,
        "tag": "Interactable"
      }
      ,
      "transform":
      {
        "pos": "-4.37988 0.250733 0.272356"
        ,
        "rotation": "0.0 0.0 0.0 -1.0"
      }
      ,
      "collider":
      {
        "shapes":
        [
          {
            "shape": "box"
            ,
            "half_size": "2.0 0.250732 0.170135"
            ,
            "offset":
            {
              "pos": "0.0 0.250732 0.0"
            }
            ,
            "group": "all"
            ,
            "mask": "all"
          }
        ]
        ,
        "density": 1
        ,
        "mass": 1
        ,
        "linearDrag": 0.5
        ,
        "angularDrag": 0.25
        ,
        "dynamic": false
        ,
        "kinematic": false
      }
      ,
      "abs_aabb":
      {
      }
      ,
      "render":
      {
        "mesh": "data/meshes/scene_render/scene_render_zocaloinferior_3.mesh"
        ,
        "color": "1.0 1.0 1.0 1.0"
        ,
        "materials":
        [
          "data/materials/scene_render/Zocalo_Inferior.material"
          ,
          "data/materials/scene_render/Zocalo_Inferior.material"
          ,
          "data/materials/scene_render/Zocalo_Inferior.material"
          ,
          "data/materials/scene_render/Zocalo_Inferior.material"
          ,
          "data/materials/scene_render/Zocalo_Inferior.material"
          ,
          "data/materials/scene_render/Zocalo_Inferior.material"
        ]
      }
    }
  }
  ,
  {
    "entity":
    {
      "name":
      {
        "entityName": "zocalocentro_4"
        ,
        "tag": "Interactable"
      }
      ,
      "transform":
      {
        "pos": "-14.3443 4.16532 9.94661"
        ,
        "rotation": "0.0 0.0 0.0 -1.0"
      }
      ,
      "collider":
      {
        "shapes":
        [
          {
            "shape": "box"
            ,
            "half_size": "0.166699 0.165318 2.03663"
            ,
            "offset":
            {
              "pos": "0.0 0.165318 0.0"
            }
            ,
            "group": "all"
            ,
            "mask": "all"
          }
        ]
        ,
        "density": 1
        ,
        "mass": 1
        ,
        "linearDrag": 0.5
        ,
        "angularDrag": 0.25
        ,
        "dynamic": false
        ,
        "kinematic": false
      }
      ,
      "abs_aabb":
      {
      }
      ,
      "render":
      {
        "mesh": "data/meshes/scene_render/scene_render_zocalocentro_4.mesh"
        ,
        "color": "1.0 1.0 1.0 1.0"
        ,
        "materials":
        [
          "data/materials/scene_render/Zocalo_centro.material"
          ,
          "data/materials/scene_render/Zocalo_centro.material"
          ,
          "data/materials/scene_render/Zocalo_centro.material"
          ,
          "data/materials/scene_render/Zocalo_centro.material"
          ,
          "data/materials/scene_render/Zocalo_centro.material"
          ,
          "data/materials/scene_render/Zocalo_centro.material"
        ]
      }
    }
  }
  ,
  {
    "entity":
    {
      "name":
      {
        "entityName": "zocalocentro_3"
        ,
        "tag": "Interactable"
      }
      ,
      "transform":
      {
        "pos": "-14.3443 4.16532 2.02488"
        ,
        "rotation": "0.0 0.0 0.0 -1.0"
      }
      ,
      "collider":
      {
        "shapes":
        [
          {
            "shape": "box"
            ,
            "half_size": "0.166699 0.165318 2.03663"
            ,
            "offset":
            {
              "pos": "0.0 0.165318 0.0"
            }
            ,
            "group": "all"
            ,
            "mask": "all"
          }
        ]
        ,
        "density": 1
        ,
        "mass": 1
        ,
        "linearDrag": 0.5
        ,
        "angularDrag": 0.25
        ,
        "dynamic": false
        ,
        "kinematic": false
      }
      ,
      "abs_aabb":
      {
      }
      ,
      "render":
      {
        "mesh": "data/meshes/scene_render/scene_render_zocalocentro_3.mesh"
        ,
        "color": "1.0 1.0 1.0 1.0"
        ,
        "materials":
        [
          "data/materials/scene_render/Zocalo_centro.material"
          ,
          "data/materials/scene_render/Zocalo_centro.material"
          ,
          "data/materials/scene_render/Zocalo_centro.material"
          ,
          "data/materials/scene_render/Zocalo_centro.material"
          ,
          "data/materials/scene_render/Zocalo_centro.material"
          ,
          "data/materials/scene_render/Zocalo_centro.material"
        ]
      }
    }
  }
  ,
  {
    "entity":
    {
      "name":
      {
        "entityName": "zocaloinferior_4"
        ,
        "tag": "Interactable"
      }
      ,
      "transform":
      {
        "pos": "-14.121 0.250733 9.95806"
        ,
        "rotation": "0.0 0.0 0.0 -1.0"
      }
      ,
      "collider":
      {
        "shapes":
        [
          {
            "shape": "box"
            ,
            "half_size": "0.170135 0.250733 2.0"
            ,
            "offset":
            {
              "pos": "0.0 0.250733 0.0"
            }
            ,
            "group": "all"
            ,
            "mask": "all"
          }
        ]
        ,
        "density": 1
        ,
        "mass": 1
        ,
        "linearDrag": 0.5
        ,
        "angularDrag": 0.25
        ,
        "dynamic": false
        ,
        "kinematic": false
      }
      ,
      "abs_aabb":
      {
      }
      ,
      "render":
      {
        "mesh": "data/meshes/scene_render/scene_render_zocaloinferior_4.mesh"
        ,
        "color": "1.0 1.0 1.0 1.0"
        ,
        "materials":
        [
          "data/materials/scene_render/Zocalo_Inferior.material"
          ,
          "data/materials/scene_render/Zocalo_Inferior.material"
          ,
          "data/materials/scene_render/Zocalo_Inferior.material"
          ,
          "data/materials/scene_render/Zocalo_Inferior.material"
          ,
          "data/materials/scene_render/Zocalo_Inferior.material"
          ,
          "data/materials/scene_render/Zocalo_Inferior.material"
        ]
      }
    }
  }
  ,
  {
    "entity":
    {
      "name":
      {
        "entityName": "zocaloinferior_5"
        ,
        "tag": "Interactable"
      }
      ,
      "transform":
      {
        "pos": "-14.121 0.250733 1.95806"
        ,
        "rotation": "0.0 0.0 0.0 -1.0"
      }
      ,
      "collider":
      {
        "shapes":
        [
          {
            "shape": "box"
            ,
            "half_size": "0.170135 0.250733 2.0"
            ,
            "offset":
            {
              "pos": "0.0 0.250733 0.0"
            }
            ,
            "group": "all"
            ,
            "mask": "all"
          }
        ]
        ,
        "density": 1
        ,
        "mass": 1
        ,
        "linearDrag": 0.5
        ,
        "angularDrag": 0.25
        ,
        "dynamic": false
        ,
        "kinematic": false
      }
      ,
      "abs_aabb":
      {
      }
      ,
      "render":
      {
        "mesh": "data/meshes/scene_render/scene_render_zocaloinferior_5.mesh"
        ,
        "color": "1.0 1.0 1.0 1.0"
        ,
        "materials":
        [
          "data/materials/scene_render/Zocalo_Inferior.material"
          ,
          "data/materials/scene_render/Zocalo_Inferior.material"
          ,
          "data/materials/scene_render/Zocalo_Inferior.material"
          ,
          "data/materials/scene_render/Zocalo_Inferior.material"
          ,
          "data/materials/scene_render/Zocalo_Inferior.material"
          ,
          "data/materials/scene_render/Zocalo_Inferior.material"
        ]
      }
    }
  }
  ,
  {
    "entity":
    {
      "name":
      {
        "entityName": "high_wall021"
        ,
        "tag": "Interactable"
      }
      ,
      "transform":
      {
        "pos": "-14.3355 6.0 9.95806"
        ,
        "rotation": "0.0 0.0 0.0 -1.0"
      }
      ,
      "collider":
      {
        "shapes":
        [
          {
            "shape": "box"
            ,
            "half_size": "0.0443983 2.0 2.0"
            ,
            "offset":
            {
              "pos": "0.0 2.0 0.0"
            }
            ,
            "group": "all"
            ,
            "mask": "all"
          }
        ]
        ,
        "density": 1
        ,
        "mass": 1
        ,
        "linearDrag": 0.5
        ,
        "angularDrag": 0.25
        ,
        "dynamic": false
        ,
        "kinematic": false
      }
      ,
      "abs_aabb":
      {
      }
      ,
      "render":
      {
        "mesh": "data/meshes/scene_render/scene_render_high_wall021.mesh"
        ,
        "color": "1.0 1.0 1.0 1.0"
        ,
        "materials":
        [
          "data/materials/scene_render/PlasterWall.material"
          ,
          "data/materials/scene_render/PlasterWall.material"
        ]
      }
    }
  }
  ,
  {
    "entity":
    {
      "name":
      {
        "entityName": "high_wall022"
        ,
        "tag": "Interactable"
      }
      ,
      "transform":
      {
        "pos": "-14.3355 10.0 9.95806"
        ,
        "rotation": "0.0 0.0 0.0 -1.0"
      }
      ,
      "collider":
      {
        "shapes":
        [
          {
            "shape": "box"
            ,
            "half_size": "0.0443983 2.0 2.0"
            ,
            "offset":
            {
              "pos": "0.0 2.0 0.0"
            }
            ,
            "group": "all"
            ,
            "mask": "all"
          }
        ]
        ,
        "density": 1
        ,
        "mass": 1
        ,
        "linearDrag": 0.5
        ,
        "angularDrag": 0.25
        ,
        "dynamic": false
        ,
        "kinematic": false
      }
      ,
      "abs_aabb":
      {
      }
      ,
      "render":
      {
        "mesh": "data/meshes/scene_render/scene_render_high_wall022.mesh"
        ,
        "color": "1.0 1.0 1.0 1.0"
        ,
        "materials":
        [
          "data/materials/scene_render/PlasterWall.material"
          ,
          "data/materials/scene_render/PlasterWall.material"
        ]
      }
    }
  }
  ,
  {
    "entity":
    {
      "name":
      {
        "entityName": "high_wall023"
        ,
        "tag": "Interactable"
      }
      ,
      "transform":
      {
        "pos": "-14.3355 6.0 2.01343"
        ,
        "rotation": "0.0 0.0 0.0 -1.0"
      }
      ,
      "collider":
      {
        "shapes":
        [
          {
            "shape": "box"
            ,
            "half_size": "0.0443983 2.0 2.0"
            ,
            "offset":
            {
              "pos": "0.0 2.0 0.0"
            }
            ,
            "group": "all"
            ,
            "mask": "all"
          }
        ]
        ,
        "density": 1
        ,
        "mass": 1
        ,
        "linearDrag": 0.5
        ,
        "angularDrag": 0.25
        ,
        "dynamic": false
        ,
        "kinematic": false
      }
      ,
      "abs_aabb":
      {
      }
      ,
      "render":
      {
        "mesh": "data/meshes/scene_render/scene_render_high_wall023.mesh"
        ,
        "color": "1.0 1.0 1.0 1.0"
        ,
        "materials":
        [
          "data/materials/scene_render/PlasterWall.material"
          ,
          "data/materials/scene_render/PlasterWall.material"
        ]
      }
    }
  }
  ,
  {
    "entity":
    {
      "name":
      {
        "entityName": "high_wall024"
        ,
        "tag": "Interactable"
      }
      ,
      "transform":
      {
        "pos": "-14.3355 10.0 2.01343"
        ,
        "rotation": "0.0 0.0 0.0 -1.0"
      }
      ,
      "collider":
      {
        "shapes":
        [
          {
            "shape": "box"
            ,
            "half_size": "0.0443983 2.0 2.0"
            ,
            "offset":
            {
              "pos": "0.0 2.0 0.0"
            }
            ,
            "group": "all"
            ,
            "mask": "all"
          }
        ]
        ,
        "density": 1
        ,
        "mass": 1
        ,
        "linearDrag": 0.5
        ,
        "angularDrag": 0.25
        ,
        "dynamic": false
        ,
        "kinematic": false
      }
      ,
      "abs_aabb":
      {
      }
      ,
      "render":
      {
        "mesh": "data/meshes/scene_render/scene_render_high_wall024.mesh"
        ,
        "color": "1.0 1.0 1.0 1.0"
        ,
        "materials":
        [
          "data/materials/scene_render/PlasterWall.material"
          ,
          "data/materials/scene_render/PlasterWall.material"
        ]
      }
    }
  }
  ,
  {
    "entity":
    {
      "name":
      {
        "entityName": "high_wall026"
        ,
        "tag": "Interactable"
      }
      ,
      "transform":
      {
        "pos": "-14.3355 2.0 9.95806"
        ,
        "rotation": "0.0 0.0 0.0 -1.0"
      }
      ,
      "collider":
      {
        "shapes":
        [
          {
            "shape": "box"
            ,
            "half_size": "0.0443983 2.0 2.0"
            ,
            "offset":
            {
              "pos": "0.0 2.0 0.0"
            }
            ,
            "group": "all"
            ,
            "mask": "all"
          }
        ]
        ,
        "density": 1
        ,
        "mass": 1
        ,
        "linearDrag": 0.5
        ,
        "angularDrag": 0.25
        ,
        "dynamic": false
        ,
        "kinematic": false
      }
      ,
      "abs_aabb":
      {
      }
      ,
      "render":
      {
        "mesh": "data/meshes/scene_render/scene_render_high_wall026.mesh"
        ,
        "color": "1.0 1.0 1.0 1.0"
        ,
        "materials":
        [
          "data/materials/scene_render/BrickWall.material"
          ,
          "data/materials/scene_render/BrickWall.material"
        ]
      }
    }
  }
  ,
  {
    "entity":
    {
      "name":
      {
        "entityName": "high_wall027"
        ,
        "tag": "Interactable"
      }
      ,
      "transform":
      {
        "pos": "-14.3355 2.0 2.01343"
        ,
        "rotation": "0.0 0.0 0.0 -1.0"
      }
      ,
      "collider":
      {
        "shapes":
        [
          {
            "shape": "box"
            ,
            "half_size": "0.0443983 2.0 2.0"
            ,
            "offset":
            {
              "pos": "0.0 2.0 0.0"
            }
            ,
            "group": "all"
            ,
            "mask": "all"
          }
        ]
        ,
        "density": 1
        ,
        "mass": 1
        ,
        "linearDrag": 0.5
        ,
        "angularDrag": 0.25
        ,
        "dynamic": false
        ,
        "kinematic": false
      }
      ,
      "abs_aabb":
      {
      }
      ,
      "render":
      {
        "mesh": "data/meshes/scene_render/scene_render_high_wall027.mesh"
        ,
        "color": "1.0 1.0 1.0 1.0"
        ,
        "materials":
        [
          "data/materials/scene_render/BrickWall.material"
          ,
          "data/materials/scene_render/BrickWall.material"
        ]
      }
    }
  }
  ,
  {
    "entity":
    {
      "name":
      {
        "entityName": "high_wall028"
        ,
        "tag": "Interactable"
      }
      ,
      "transform":
      {
        "pos": "-14.3355 2.0 5.95806"
        ,
        "rotation": "0.0 0.0 0.0 -1.0"
      }
      ,
      "collider":
      {
        "shapes":
        [
          {
            "shape": "box"
            ,
            "half_size": "0.0443983 2.0 2.0"
            ,
            "offset":
            {
              "pos": "0.0 2.0 0.0"
            }
            ,
            "group": "all"
            ,
            "mask": "all"
          }
        ]
        ,
        "density": 1
        ,
        "mass": 1
        ,
        "linearDrag": 0.5
        ,
        "angularDrag": 0.25
        ,
        "dynamic": false
        ,
        "kinematic": false
      }
      ,
      "abs_aabb":
      {
      }
      ,
      "render":
      {
        "mesh": "data/meshes/scene_render/scene_render_high_wall028.mesh"
        ,
        "color": "1.0 1.0 1.0 1.0"
        ,
        "materials":
        [
          "data/materials/scene_render/BrickWall.material"
          ,
          "data/materials/scene_render/BrickWall.material"
        ]
      }
    }
  }
  ,
  {
    "entity":
    {
      "name":
      {
        "entityName": "mid_wall008"
        ,
        "tag": "Interactable"
      }
      ,
      "transform":
      {
        "pos": "-14.2303 11.4345 9.95806"
        ,
        "rotation": "0.0 0.0 0.0 -1.0"
      }
      ,
      "collider":
      {
        "shapes":
        [
          {
            "shape": "box"
            ,
            "half_size": "0.149554 0.565468 2.0"
            ,
            "offset":
            {
              "pos": "0.0 0.565468 0.0"
            }
            ,
            "group": "all"
            ,
            "mask": "all"
          }
        ]
        ,
        "density": 1
        ,
        "mass": 1
        ,
        "linearDrag": 0.5
        ,
        "angularDrag": 0.25
        ,
        "dynamic": false
        ,
        "kinematic": false
      }
      ,
      "abs_aabb":
      {
      }
      ,
      "render":
      {
        "mesh": "data/meshes/scene_render/scene_render_mid_wall008.mesh"
        ,
        "color": "1.0 1.0 1.0 1.0"
        ,
        "materials":
        [
          "data/materials/scene_render/Zocalo_SuperiorLado.material"
          ,
          "data/materials/scene_render/Zocalo_SuperiorLado.material"
          ,
          "data/materials/scene_render/Zocalo_SuperiorLado.material"
          ,
          "data/materials/scene_render/Zocalo_SuperiorLado.material"
        ]
      }
    }
  }
  ,
  {
    "entity":
    {
      "name":
      {
        "entityName": "mid_wall010"
        ,
        "tag": "Interactable"
      }
      ,
      "transform":
      {
        "pos": "-14.2303 11.4345 2.01343"
        ,
        "rotation": "0.0 0.0 0.0 -1.0"
      }
      ,
      "collider":
      {
        "shapes":
        [
          {
            "shape": "box"
            ,
            "half_size": "0.149554 0.565468 2.0"
            ,
            "offset":
            {
              "pos": "0.0 0.565468 0.0"
            }
            ,
            "group": "all"
            ,
            "mask": "all"
          }
        ]
        ,
        "density": 1
        ,
        "mass": 1
        ,
        "linearDrag": 0.5
        ,
        "angularDrag": 0.25
        ,
        "dynamic": false
        ,
        "kinematic": false
      }
      ,
      "abs_aabb":
      {
      }
      ,
      "render":
      {
        "mesh": "data/meshes/scene_render/scene_render_mid_wall010.mesh"
        ,
        "color": "1.0 1.0 1.0 1.0"
        ,
        "materials":
        [
          "data/materials/scene_render/Zocalo_SuperiorLado.material"
          ,
          "data/materials/scene_render/Zocalo_SuperiorLado.material"
          ,
          "data/materials/scene_render/Zocalo_SuperiorLado.material"
          ,
          "data/materials/scene_render/Zocalo_SuperiorLado.material"
        ]
      }
    }
  }
  ,
  {
    "entity":
    {
      "name":
      {
        "entityName": "high_wall029"
        ,
        "tag": "Interactable"
      }
      ,
      "transform":
      {
        "pos": "-14.3355 6.0 5.95806"
        ,
        "rotation": "0.0 0.0 0.0 -1.0"
      }
      ,
      "collider":
      {
        "shapes":
        [
          {
            "shape": "box"
            ,
            "half_size": "0.0443983 2.0 2.0"
            ,
            "offset":
            {
              "pos": "0.0 2.0 0.0"
            }
            ,
            "group": "all"
            ,
            "mask": "all"
          }
        ]
        ,
        "density": 1
        ,
        "mass": 1
        ,
        "linearDrag": 0.5
        ,
        "angularDrag": 0.25
        ,
        "dynamic": false
        ,
        "kinematic": false
      }
      ,
      "abs_aabb":
      {
      }
      ,
      "render":
      {
        "mesh": "data/meshes/scene_render/scene_render_high_wall029.mesh"
        ,
        "color": "1.0 1.0 1.0 1.0"
        ,
        "materials":
        [
          "data/materials/scene_render/PlasterWall.material"
          ,
          "data/materials/scene_render/PlasterWall.material"
        ]
      }
    }
  }
  ,
  {
    "entity":
    {
      "name":
      {
        "entityName": "column_base"
        ,
        "tag": "Interactable"
      }
      ,
      "transform":
      {
        "pos": "-10.3799 0.644516 0.758815"
        ,
        "rotation": "0.0 0.0 0.0 -1.0"
      }
      ,
      "collider":
      {
        "shapes":
        [
          {
            "shape": "box"
            ,
            "half_size": "1.13685 0.644516 0.758815"
            ,
            "offset":
            {
              "pos": "0.0 0.644516 0.0"
            }
            ,
            "group": "all"
            ,
            "mask": "all"
          }
        ]
        ,
        "density": 1
        ,
        "mass": 1
        ,
        "linearDrag": 0.5
        ,
        "angularDrag": 0.25
        ,
        "dynamic": false
        ,
        "kinematic": false
      }
      ,
      "abs_aabb":
      {
      }
      ,
      "render":
      {
        "mesh": "data/meshes/scene_render/scene_render_column_base.mesh"
        ,
        "color": "1.0 1.0 1.0 1.0"
        ,
        "materials":
        [
          "data/materials/scene_render/Columna_Pilar.material"
          ,
          "data/materials/scene_render/Columna_Pilar.material"
          ,
          "data/materials/scene_render/Columna_Pilar.material"
        ]
      }
    }
  }
  ,
  {
    "entity":
    {
      "name":
      {
        "entityName": "columna"
        ,
        "tag": "Interactable"
      }
      ,
      "transform":
      {
        "pos": "-10.3799 2.0 0.53923"
        ,
        "rotation": "0.0 0.0 0.0 -1.0"
      }
      ,
      "collider":
      {
        "shapes":
        [
          {
            "shape": "box"
            ,
            "half_size": "0.81529 2.0 0.53923"
            ,
            "offset":
            {
              "pos": "0.0 2.0 0.0"
            }
            ,
            "group": "all"
            ,
            "mask": "all"
          }
        ]
        ,
        "density": 1
        ,
        "mass": 1
        ,
        "linearDrag": 0.5
        ,
        "angularDrag": 0.25
        ,
        "dynamic": false
        ,
        "kinematic": false
      }
      ,
      "abs_aabb":
      {
      }
      ,
      "render":
      {
        "mesh": "data/meshes/scene_render/scene_render_columna.mesh"
        ,
        "color": "1.0 1.0 1.0 1.0"
        ,
        "materials":
        [
          "data/materials/scene_render/Columna_base.material"
          ,
          "data/materials/scene_render/Columna_base.material"
          ,
          "data/materials/scene_render/Columna_base.material"
          ,
          "data/materials/scene_render/Columna_base.material"
        ]
      }
    }
  }
  ,
  {
    "entity":
    {
      "name":
      {
        "entityName": "columna001"
        ,
        "tag": "Interactable"
      }
      ,
      "transform":
      {
        "pos": "-10.3799 6.0 0.53923"
        ,
        "rotation": "0.0 0.0 0.0 -1.0"
      }
      ,
      "collider":
      {
        "shapes":
        [
          {
            "shape": "box"
            ,
            "half_size": "0.81529 2.0 0.53923"
            ,
            "offset":
            {
              "pos": "0.0 2.0 0.0"
            }
            ,
            "group": "all"
            ,
            "mask": "all"
          }
        ]
        ,
        "density": 1
        ,
        "mass": 1
        ,
        "linearDrag": 0.5
        ,
        "angularDrag": 0.25
        ,
        "dynamic": false
        ,
        "kinematic": false
      }
      ,
      "abs_aabb":
      {
      }
      ,
      "render":
      {
        "mesh": "data/meshes/scene_render/scene_render_columna001.mesh"
        ,
        "color": "1.0 1.0 1.0 1.0"
        ,
        "materials":
        [
          "data/materials/scene_render/Columna_base.material"
          ,
          "data/materials/scene_render/Columna_base.material"
          ,
          "data/materials/scene_render/Columna_base.material"
          ,
          "data/materials/scene_render/Columna_base.material"
        ]
      }
    }
  }
  ,
  {
    "entity":
    {
      "name":
      {
        "entityName": "columna002"
        ,
        "tag": "Interactable"
      }
      ,
      "transform":
      {
        "pos": "-10.3799 10.0 0.539229"
        ,
        "rotation": "0.0 0.0 0.0 -1.0"
      }
      ,
      "collider":
      {
        "shapes":
        [
          {
            "shape": "box"
            ,
            "half_size": "0.81529 2.0 0.53923"
            ,
            "offset":
            {
              "pos": "0.0 2.0 0.0"
            }
            ,
            "group": "all"
            ,
            "mask": "all"
          }
        ]
        ,
        "density": 1
        ,
        "mass": 1
        ,
        "linearDrag": 0.5
        ,
        "angularDrag": 0.25
        ,
        "dynamic": false
        ,
        "kinematic": false
      }
      ,
      "abs_aabb":
      {
      }
      ,
      "render":
      {
        "mesh": "data/meshes/scene_render/scene_render_columna002.mesh"
        ,
        "color": "1.0 1.0 1.0 1.0"
        ,
        "materials":
        [
          "data/materials/scene_render/Columna_base.material"
          ,
          "data/materials/scene_render/Columna_base.material"
          ,
          "data/materials/scene_render/Columna_base.material"
          ,
          "data/materials/scene_render/Columna_base.material"
        ]
      }
    }
  }
  ,
  {
    "entity":
    {
      "name":
      {
        "entityName": "column_base001"
        ,
        "tag": "Interactable"
      }
      ,
      "transform":
      {
        "pos": "-6.37933 0.644516 0.758815"
        ,
        "rotation": "0.0 0.0 0.0 -1.0"
      }
      ,
      "collider":
      {
        "shapes":
        [
          {
            "shape": "box"
            ,
            "half_size": "1.13685 0.644516 0.758815"
            ,
            "offset":
            {
              "pos": "0.0 0.644516 0.0"
            }
            ,
            "group": "all"
            ,
            "mask": "all"
          }
        ]
        ,
        "density": 1
        ,
        "mass": 1
        ,
        "linearDrag": 0.5
        ,
        "angularDrag": 0.25
        ,
        "dynamic": false
        ,
        "kinematic": false
      }
      ,
      "abs_aabb":
      {
      }
      ,
      "render":
      {
        "mesh": "data/meshes/scene_render/scene_render_column_base001.mesh"
        ,
        "color": "1.0 1.0 1.0 1.0"
        ,
        "materials":
        [
          "data/materials/scene_render/Columna_Pilar.material"
          ,
          "data/materials/scene_render/Columna_Pilar.material"
          ,
          "data/materials/scene_render/Columna_Pilar.material"
        ]
      }
    }
  }
  ,
  {
    "entity":
    {
      "name":
      {
        "entityName": "columna003"
        ,
        "tag": "Interactable"
      }
      ,
      "transform":
      {
        "pos": "-6.37933 2.0 0.53923"
        ,
        "rotation": "0.0 0.0 0.0 -1.0"
      }
      ,
      "collider":
      {
        "shapes":
        [
          {
            "shape": "box"
            ,
            "half_size": "0.815291 2.0 0.53923"
            ,
            "offset":
            {
              "pos": "0.0 2.0 0.0"
            }
            ,
            "group": "all"
            ,
            "mask": "all"
          }
        ]
        ,
        "density": 1
        ,
        "mass": 1
        ,
        "linearDrag": 0.5
        ,
        "angularDrag": 0.25
        ,
        "dynamic": false
        ,
        "kinematic": false
      }
      ,
      "abs_aabb":
      {
      }
      ,
      "render":
      {
        "mesh": "data/meshes/scene_render/scene_render_columna003.mesh"
        ,
        "color": "1.0 1.0 1.0 1.0"
        ,
        "materials":
        [
          "data/materials/scene_render/Columna_base.material"
          ,
          "data/materials/scene_render/Columna_base.material"
          ,
          "data/materials/scene_render/Columna_base.material"
          ,
          "data/materials/scene_render/Columna_base.material"
        ]
      }
    }
  }
  ,
  {
    "entity":
    {
      "name":
      {
        "entityName": "columna004"
        ,
        "tag": "Interactable"
      }
      ,
      "transform":
      {
        "pos": "-6.37933 6.0 0.53923"
        ,
        "rotation": "0.0 0.0 0.0 -1.0"
      }
      ,
      "collider":
      {
        "shapes":
        [
          {
            "shape": "box"
            ,
            "half_size": "0.815291 2.0 0.53923"
            ,
            "offset":
            {
              "pos": "0.0 2.0 0.0"
            }
            ,
            "group": "all"
            ,
            "mask": "all"
          }
        ]
        ,
        "density": 1
        ,
        "mass": 1
        ,
        "linearDrag": 0.5
        ,
        "angularDrag": 0.25
        ,
        "dynamic": false
        ,
        "kinematic": false
      }
      ,
      "abs_aabb":
      {
      }
      ,
      "render":
      {
        "mesh": "data/meshes/scene_render/scene_render_columna004.mesh"
        ,
        "color": "1.0 1.0 1.0 1.0"
        ,
        "materials":
        [
          "data/materials/scene_render/Columna_base.material"
          ,
          "data/materials/scene_render/Columna_base.material"
          ,
          "data/materials/scene_render/Columna_base.material"
          ,
          "data/materials/scene_render/Columna_base.material"
        ]
      }
    }
  }
  ,
  {
    "entity":
    {
      "name":
      {
        "entityName": "columna005"
        ,
        "tag": "Interactable"
      }
      ,
      "transform":
      {
        "pos": "-6.37933 10.0 0.539229"
        ,
        "rotation": "0.0 0.0 0.0 -1.0"
      }
      ,
      "collider":
      {
        "shapes":
        [
          {
            "shape": "box"
            ,
            "half_size": "0.815291 2.0 0.53923"
            ,
            "offset":
            {
              "pos": "0.0 2.0 0.0"
            }
            ,
            "group": "all"
            ,
            "mask": "all"
          }
        ]
        ,
        "density": 1
        ,
        "mass": 1
        ,
        "linearDrag": 0.5
        ,
        "angularDrag": 0.25
        ,
        "dynamic": false
        ,
        "kinematic": false
      }
      ,
      "abs_aabb":
      {
      }
      ,
      "render":
      {
        "mesh": "data/meshes/scene_render/scene_render_columna005.mesh"
        ,
        "color": "1.0 1.0 1.0 1.0"
        ,
        "materials":
        [
          "data/materials/scene_render/Columna_base.material"
          ,
          "data/materials/scene_render/Columna_base.material"
          ,
          "data/materials/scene_render/Columna_base.material"
          ,
          "data/materials/scene_render/Columna_base.material"
        ]
      }
    }
  }
  ,
  {
    "entity":
    {
      "name":
      {
        "entityName": "banner2"
        ,
        "tag": "Interactable"
      }
      ,
      "transform":
      {
        "pos": "-3.95147 7.69968 0.123626"
        ,
        "rotation": "0.0 0.0 0.0 -1.0"
      }
      ,
      "collider":
      {
        "shapes":
        [
          {
            "shape": "box"
            ,
            "half_size": "0.867314 3.30482 0.0319329"
            ,
            "offset":
            {
              "pos": "0.0 3.30482 0.0"
            }
            ,
            "group": "all"
            ,
            "mask": "all"
          }
        ]
        ,
        "density": 1
        ,
        "mass": 1
        ,
        "linearDrag": 0.5
        ,
        "angularDrag": 0.25
        ,
        "dynamic": false
        ,
        "kinematic": false
      }
      ,
      "abs_aabb":
      {
      }
      ,
      "render":
      {
        "mesh": "data/meshes/scene_render/scene_render_banner2.mesh"
        ,
        "color": "1.0 1.0 1.0 1.0"
        ,
        "materials":
        [
          "data/materials/scene_render/Banner.material"
          ,
          "data/materials/scene_render/Banner.material"
          ,
          "data/materials/scene_render/Banner.material"
          ,
          "data/materials/scene_render/Banner.material"
          ,
          "data/materials/scene_render/Banner.material"
        ]
      }
    }
  }
  ,
  {
    "entity":
    {
      "name":
      {
        "entityName": "ventanaredonda"
        ,
        "tag": "Interactable"
      }
      ,
      "transform":
      {
        "pos": "-14.193 10.8698 6.00455"
        ,
        "rotation": "0.0 0.0 0.0 -1.0"
      }
      ,
      "collider":
      {
        "shapes":
        [
          {
            "shape": "box"
            ,
            "half_size": "0.0684166 1.33555 1.33474"
            ,
            "offset":
            {
              "pos": "0.0 1.33555 0.0"
            }
            ,
            "group": "all"
            ,
            "mask": "all"
          }
        ]
        ,
        "density": 1
        ,
        "mass": 1
        ,
        "linearDrag": 0.5
        ,
        "angularDrag": 0.25
        ,
        "dynamic": false
        ,
        "kinematic": false
      }
      ,
      "abs_aabb":
      {
      }
      ,
      "render":
      {
        "mesh": "data/meshes/scene_render/scene_render_ventanaredonda.mesh"
        ,
        "color": "1.0 1.0 1.0 1.0"
        ,
        "materials":
        [
          "data/materials/scene_render/VentanaRedonda_hierro.material"
        ]
      }
    }
  }
  ,
  {
    "entity":
    {
      "name":
      {
        "entityName": "ventanaredonda_cristal"
        ,
        "tag": "Interactable"
      }
      ,
      "transform":
      {
        "pos": "-14.2116 10.8655 6.0125"
        ,
        "rotation": "0.0 0.0 0.0 -1.0"
      }
      ,
      "collider":
      {
        "shapes":
        [
          {
            "shape": "box"
            ,
            "half_size": "5.00679e-05 1.23234 1.23234"
            ,
            "offset":
            {
              "pos": "0.0 1.23234 0.0"
            }
            ,
            "group": "all"
            ,
            "mask": "all"
          }
        ]
        ,
        "density": 1
        ,
        "mass": 1
        ,
        "linearDrag": 0.5
        ,
        "angularDrag": 0.25
        ,
        "dynamic": false
        ,
        "kinematic": false
      }
      ,
      "abs_aabb":
      {
      }
      ,
      "render":
      {
        "mesh": "data/meshes/scene_render/scene_render_ventanaredonda_cristal.mesh"
        ,
        "color": "1.0 1.0 1.0 1.0"
        ,
        "materials":
        [
          "data/materials/scene_render/Puerta.material"
        ]
      }
    }
  }
  ,
  {
    "entity":
    {
      "name":
      {
        "entityName": "arco002"
        ,
        "tag": "Interactable"
      }
      ,
      "transform":
      {
        "pos": "-14.0436 4.44619 6.01236"
        ,
        "rotation": "0.0 0.0 0.0 -1.0"
      }
      ,
      "collider":
      {
        "shapes":
        [
          {
            "shape": "box"
            ,
            "half_size": "0.375623 4.49006 2.27524"
            ,
            "offset":
            {
              "pos": "0.0 4.49006 0.0"
            }
            ,
            "group": "all"
            ,
            "mask": "all"
          }
        ]
        ,
        "density": 1
        ,
        "mass": 1
        ,
        "linearDrag": 0.5
        ,
        "angularDrag": 0.25
        ,
        "dynamic": false
        ,
        "kinematic": false
      }
      ,
      "abs_aabb":
      {
      }
      ,
      "render":
      {
        "mesh": "data/meshes/scene_render/scene_render_arco002.mesh"
        ,
        "color": "1.0 1.0 1.0 1.0"
        ,
        "materials":
        [
          "data/materials/scene_render/puerta.material"
        ]
      }
    }
  }
  ,
  {
    "entity":
    {
      "name":
      {
        "entityName": "paret001"
        ,
        "tag": "Interactable"
      }
      ,
      "transform":
      {
        "pos": "-14.3911 10.978 5.96173"
        ,
        "rotation": "0.0 0.0 0.0 -1.0"
      }
      ,
      "collider":
      {
        "shapes":
        [
          {
            "shape": "box"
            ,
            "half_size": "0.100001 2.97796 2.0"
            ,
            "offset":
            {
              "pos": "0.0 2.97796 0.0"
            }
            ,
            "group": "all"
            ,
            "mask": "all"
          }
        ]
        ,
        "density": 1
        ,
        "mass": 1
        ,
        "linearDrag": 0.5
        ,
        "angularDrag": 0.25
        ,
        "dynamic": false
        ,
        "kinematic": false
      }
      ,
      "abs_aabb":
      {
      }
      ,
      "render":
      {
        "mesh": "data/meshes/scene_render/scene_render_paret001.mesh"
        ,
        "color": "1.0 1.0 1.0 1.0"
        ,
        "materials":
        [
          "data/materials/scene_render/ventanaredonda_wall.material"
        ]
      }
    }
  }
  ,
  {
    "entity":
    {
      "name":
      {
        "entityName": "banner1"
        ,
        "tag": "Interactable"
      }
      ,
      "transform":
      {
        "pos": "-12.6968 7.69968 0.123626"
        ,
        "rotation": "0.0 0.0 0.0 -1.0"
      }
      ,
      "collider":
      {
        "shapes":
        [
          {
            "shape": "box"
            ,
            "half_size": "0.867313 3.30482 0.0319329"
            ,
            "offset":
            {
              "pos": "0.0 3.30482 0.0"
            }
            ,
            "group": "all"
            ,
            "mask": "all"
          }
        ]
        ,
        "density": 1
        ,
        "mass": 1
        ,
        "linearDrag": 0.5
        ,
        "angularDrag": 0.25
        ,
        "dynamic": false
        ,
        "kinematic": false
      }
      ,
      "abs_aabb":
      {
      }
      ,
      "render":
      {
        "mesh": "data/meshes/scene_render/scene_render_banner1.mesh"
        ,
        "color": "1.0 1.0 1.0 1.0"
        ,
        "materials":
        [
          "data/materials/scene_render/Banner.material"
          ,
          "data/materials/scene_render/Banner.material"
          ,
          "data/materials/scene_render/Banner.material"
          ,
          "data/materials/scene_render/Banner.material"
          ,
          "data/materials/scene_render/Banner.material"
        ]
      }
    }
  }
  ,
  {
    "entity":
    {
      "name":
      {
        "entityName": "high_wall030"
        ,
        "tag": "Interactable"
      }
      ,
      "transform":
      {
        "pos": "-4.38599 2.0 0.0578248"
        ,
        "rotation": "0.0 0.0 0.0 -1.0"
      }
      ,
      "collider":
      {
        "shapes":
        [
          {
            "shape": "box"
            ,
            "half_size": "2.0 2.0 0.0443976"
            ,
            "offset":
            {
              "pos": "0.0 2.0 0.0"
            }
            ,
            "group": "all"
            ,
            "mask": "all"
          }
        ]
        ,
        "density": 1
        ,
        "mass": 1
        ,
        "linearDrag": 0.5
        ,
        "angularDrag": 0.25
        ,
        "dynamic": false
        ,
        "kinematic": false
      }
      ,
      "abs_aabb":
      {
      }
      ,
      "render":
      {
        "mesh": "data/meshes/scene_render/scene_render_high_wall030.mesh"
        ,
        "color": "1.0 1.0 1.0 1.0"
        ,
        "materials":
        [
          "data/materials/scene_render/BrickWall.material"
          ,
          "data/materials/scene_render/BrickWall.material"
        ]
      }
    }
  }
]
