[
  {
    "entity":
    {
      "name":
      {
        "entityName": "Cst_Door_Bridge"
        ,
        "tag": "Interactable"
      }
      ,
      "transform":
      {
        "pos": "0.0 0.0 0.0"
        ,
        "rotation": "0.0 0.0 0.0 -1.0"
      }
      ,
      "collider":
      {
        "shapes":
        [
          {
            "shape": "trimesh"
            ,
            "collision_mesh": "data/meshes/props/Cst_Door_Bridge.col_mesh"
            ,
            "group": "all"
            ,
            "mask": "all"
          }
        ]
        ,
        "density": 1
        ,
        "mass": 1
        ,
        "linearDrag": 0.5
        ,
        "angularDrag": 0.25
        ,
        "dynamic": false
        ,
        "kinematic": false
      }
      ,
      "abs_aabb":
      {
      }
	  ,
	  "comp_horizontal_door":
	  {
		"targetXoffset": 4.5
		,
		"speedOpen": 3
		,
		"prefabL": "data/prefabs/props/Cst_Bridge_Door_left.json"
		,
		"prefabR": "data/prefabs/props/Cst_Bridge_Door_right.json"
		,
		"offsetL": "0.0 -0.501311 -2.59436"
		,
		"offsetR": "0.0 -0.501311 2.40043"
	  }
      ,
      "render":
      {
        "mesh": "data/meshes/props/Cst_Door_Bridge.mesh"
        ,
        "color": "1.0 1.0 1.0 1.0"
        ,
		"glowAmount": 20,
        "materials":
        [
          "data/materials/props/mat_bridge_door_Wall.material"
          ,
          "data/materials/props/mat_bridge_door_Arch.material"
        ]
      }
    }
  }
]
