[
  {
    "entity":
    {
      "name":
      {
        "entityName": "Door_R"
        ,
        "tag": "Interactable"
      }
      ,
      "transform":
      {
        "pos": "3.03286 0.183838 -3.94647"
        ,
        "rotation": "0.0 0.0 0.0 -1.0"
      }
      ,
      "collider":
      {
        "shapes":
        [
          {
            "shape": "box"
            ,
            "half_size": "2.99525 12.0 0.325719"
            ,
            "group": "all"
            ,
            "mask": "all"
          }
        ]
        ,
        "density": 1
        ,
        "mass": 1
        ,
        "linearDrag": 0.5
        ,
        "angularDrag": 0.25
        ,
        "dynamic": true
        ,
        "kinematic": true
      }
      ,
      "abs_aabb":
      {
      }
	  ,
	  "local_aabb":
	  {
		"half_size": "2.99525 12.0 0.2"
	  }
      ,
      "render":
      {
        "mesh": "data/meshes/props/huge_gate_Door_R.mesh"
        ,
        "color": "1.0 1.0 1.0 1.0"
        ,
        "materials":
        [
          "data/materials/props/mat_HugeDoor.material"
          ,
          "data/materials/props/mat_HugeDoor.material"
          ,
          "data/materials/props/mat_HugeDoor.material"
          ,
          "data/materials/props/mat_HugeDoor.material"
          ,
          "data/materials/props/mat_HugeDoor.material"
          ,
          "data/materials/props/mat_HugeDoor.material"
        ]
      }
    }
  }
]
