[
  {
    "entity": {
      "name": {
        "entityName": "ATestParticle",
        "tag": "Interactable"
      },
      "transform": {
        "pos": "-3.0 0.402482 -4.0",
        "rotation": "0.0 0.0 0.0 -1.0"
      },
      "instanciate_particle": {
        "system_particles": [
          "data/particles/prefabs_particles/ATestTricolor_2.json"
        ]
      },
      "collider": {
        "shapes": [
          {
            "shape": "box",
            "half_size": "1.62495 0.498579 0.657779",
            "group": "all",
            "mask": "all"
          }
        ],
        "density": 1,
        "mass": 1,
        "linearDrag": 0.5,
        "angularDrag": 0.25,
        "dynamic": true,
        "kinematic": false,
        "continuous_collision": true
      },
      "abs_aabb": {
      },
      "local_aabb": {
        "half_size": "1.62495 0.657779 0.498579"
      },
      "comp_breakable": {
        "mesh": [
          "data/prefabs/props/table/mesa_cacho1.json",
          "data/prefabs/props/table/mesa_cacho2.json",
          "data/prefabs/props/table/mesa_cacho3.json",
          "data/prefabs/props/table/mesa_cacho4.json",
          "data/prefabs/props/table/mesa_cacho5.json",
          "data/prefabs/props/table/mesa_cacho6.json",
          "data/prefabs/props/table/mesa_cacho7.json"
        ],
        "offset0": "-0.497215 0.0 0.450997",
        "offset1": "0.579789 0.0 0.450997",
        "offset2": "1.3022 0.0 -0.0339711",
        "offset3": "1.30213 0.0188508 -0.44396",
        "offset4": "-1.30042 0.0 -0.0339711",
        "offset5": "-1.30084 0.0188508 -0.44396",
        "offset6": "0.00237221 0.00418484 -0.196836",
        "vel": 10,
        "sound": "event:/Props/Table"
      },
      "comp_audio": {
        "name": "table",
        "sound": "event:/Props/Table",
        "isContact": true
      },
      "magic_outline": {
        "outline_color": "0.14 0.22 0.44 1",
        "outline_glow": 3
      },
      "render": {
        "meshes": [
          {
            "mesh": "data/meshes/props/mesa_entera_mesa_entera.mesh",
            "materials": [
              "data/materials/glowing_outlines.material"
            ]
          },
          {
            "mesh": "data/meshes/props/mesa_entera_mesa_entera.mesh",
            "materials": [
              "data/materials/props/taula.material"
            ]
          }
        ],
        "rimFactor": 1
      }
    }
  }
]
