[
  {
    "entity": {
      "name": {
        "entityName": "table",
        "tag": "Interactable"
      },
      "transform": {
        "pos": "0.0 0.0 0.0",
        "rotation": "0.0 0.0 0.0 -1.0"
      },
      "collider": {
        "shapes": [
          {
            "shape": "box",
            "half_size": "2.62665 0.747506 1.48",
            "group": "all",
            "mask": "all"
          }
        ],
        "density": 1,
        "mass": 1,
        "linearDrag": 0.5,
        "angularDrag": 0.25,
        "dynamic": true,
        "kinematic": false,
        "continuous_collision": true        
      },
      "abs_aabb": {
      },
      "local_aabb": {
        "half_size": "2.62665 0.747506 1.48"
      },
      "comp_breakable": {
        "mesh": [
          "data/prefabs/props/table/mesa_cacho1.json",
          "data/prefabs/props/table/mesa_cacho2.json",
          "data/prefabs/props/table/mesa_cacho3.json",
          "data/prefabs/props/table/mesa_cacho4.json",
          "data/prefabs/props/table/mesa_cacho5.json",
          "data/prefabs/props/table/mesa_cacho6.json",
          "data/prefabs/props/table/mesa_cacho7.json"
        ],
        "offset0": "-1.109 -0.014 1.308",
        "offset1": "1.314 -0.014 1.308",
        "offset2": "-2.917 -0.014 0.217",
        "offset3": "2.939 -0.014 0.217",
        "offset4": "0.015 -0.005 -0.15",
        "offset5": "-2.918 0.028 -0.706",
        "offset6": "2.939 0.028 -0.706",
        "vel": 10,
        "sound": "event:/Props/BreakWood"
      },
      "comp_audio": {
        "name": "barrel",
        "sound": "event:/Props/Table",
        "isContact": true,
        "isBreakable": true
      },
      "magic_outline": {
        "outline_color": "0.14 0.22 0.44 1",
        "outline_glow": 3
      },
      "render": {
      	"meshes": [
      		{
	        	"mesh": "data/meshes/props/mesa_entera_mesa_entera.mesh",
	        	"materials": [
              		"data/materials/glowing_outlines.material"
	        	]
	        },
	        {
	        	"mesh": "data/meshes/props/mesa_entera_mesa_entera.mesh",
	        	"materials": [
	          		"data/materials/props/taula.material"
	        	]
	        }
	    ],
        "rimFactor":  1
      }
    }
  }
]
