[
  {
    "entity":
    {
      "name":
      {
        "entityName": "candle"
        ,
        "tag": "Interactable"
      }
      ,
      "transform":
      {
        "pos": "0.0 0.0 0.0"
        ,
        "rotation": "0.0 0.0 0.0 -1.0"
      }
	  ,
      "collider":
      {
        "shapes":
        [
          {
            "shape": "convex"
            ,
            "collision_mesh": "data/meshes/props/props_candle.col_mesh"
            ,
            "group": "world"
            ,
            "mask": "world"
          }
        ]
        ,
        "density": 1.0
        ,
        "mass": 1.0
        ,
        "linearDrag": 0.5
        ,
        "angularDrag": 0.25
        ,
        "dynamic": true
        ,
        "kinematic": false
		,
		"continuous_collision": true
      }
      ,
      "abs_aabb":
      {
      }
      ,
      "local_aabb":
      {
        "half_size": "0.200418 0.200418 0.182233"
      }
	  ,
	  "magic_outline": {
        "outline_color": "0.14 0.22 0.44 1",
        "outline_glow": 3
      }
      ,
      "render":
      {
	   "meshes": [
			{
				"mesh": "data/meshes/props/props_candle.mesh"
				,
				"materials":
				[
				  "data/materials/props/mat_candle.material"
				  ,
				  "data/materials/props/mat_candleholder.material"
				]
			},
			{
				"mesh": "data/meshes/props/props_candle.mesh"
				,
				"materials":
				[
				  "data/materials/glowing_outlines.material"
				  ,
				  "data/materials/glowing_outlines.material"
				]
			}
		]
      }
    }
  }
]
