[
  {
    "entity": {
      "name": {
        "entityName": "wide_vase",
        "tag": "Interactable"
      },
      "transform": {
        "pos": "0.0 0.0 0.0",
        "rotation": "0.0 0.0 0.0 -1.0"
      },
      "collider": {
        "shapes": [
          {
            "shape": "convex",
            "collision_mesh": "data/meshes/props/props_wide_vase.col_mesh",
            "group": "all",
            "mask": "all"
          }
        ],
        "density": 1,
        "mass": 1,
        "linearDrag": 0.5,
        "angularDrag": 0.25,
        "dynamic": true,
        "kinematic": false,
		"continuous_collision": true
      },
      "abs_aabb": {
      },
      "local_aabb": {
        "half_size": "0.32471 0.404741 0.5353"
      },
      "comp_breakable": {
        "mesh": [
          "data/prefabs/props/broken_wide_vase/Roto_Ancho00.json",
          "data/prefabs/props/broken_wide_vase/Roto_Ancho01.json",
          "data/prefabs/props/broken_wide_vase/Roto_Ancho02.json",
          "data/prefabs/props/broken_wide_vase/Roto_Ancho03.json",
          "data/prefabs/props/broken_wide_vase/Roto_Ancho04.json",
          "data/prefabs/props/broken_wide_vase/Roto_Ancho05.json",
          "data/prefabs/props/broken_wide_vase/Roto_Ancho06.json"
        ],
        "offset0": "-0.062 0.056 0.734",
        "offset1": "0.152 -0.14 0.576",
        "offset2": "0.141 -0.454 0.009",
        "offset3": "0.431 0.145 -0.197",
        "offset4": "-0.08 0.521 -0.185",
        "offset5": "-0.052 -0.075 -0.479",
        "offset6": "0.136 0.55 -0.472",
        "vel": 8,
        "sound": "event:/Props/BreakVases"
      },
      "comp_audio": {
        "name": "vase",
        "sound": "event:/Props/Ceramic",
        "isContact": true,
        "isBreakable": true
      },
      "magic_outline": {
        "outline_color": "0.14 0.22 0.44 1",
        "outline_glow": 3
      },
      "render": {
        "meshes": [
          {
            "mesh": "data/meshes/props/props_wide_vase.mesh",
            "materials": [
              "data/materials/glowing_outlines.material",
              "data/materials/glowing_outlines.material"
            ]
          },
          {
            "mesh": "data/meshes/props/props_wide_vase.mesh",
            "materials": [
              "data/materials/props/mat_BigVases.material",
              "data/materials/props/mat_BigVases.material"
            ]
          }
        ],
        "rimFactor": 1
      }
    }
  }
]
