[
  {
    "entity":
    {
      "name":
      {
        "entityName": "altar"
        ,
        "tag": "Interactable"
      }
      ,
      "transform":
      {
        "pos": "0.0 0.0 0.0"
        ,
        "rotation": "0.0 0.0 0.0 -1.0"
      }
      ,
	  "instanciate_particle": {
      "system_particles": [
        "data/particles/prefabs_particles/AltarParticles_1.json"
      ]
      },
      "collider":
      {
        "shapes":
        [
          {
            "shape": "trimesh"
            ,
            "collision_mesh": "data/meshes/props/props_altar.col_mesh"
            ,
            "group": "all"
            ,
            "mask": "all"
          }
        ]
        ,
        "density": 1
        ,
        "mass": 1
        ,
        "linearDrag": 0.5
        ,
        "angularDrag": 0.25
        ,
        "dynamic": false
        ,
        "kinematic": false
      }
      ,
      "abs_aabb":
      {
      }
      ,
      "render":
      {
        "mesh": "data/meshes/props/props_altar.mesh"
        ,
        "materials":
        [
          "data/materials/props/mat_altar.material"
          ,
          "data/materials/props/mat_altar.material"
        ]
      }
    }
  }
]
