[
  {
    "entity":
    {
      "name":
      {
        "entityName": "prop_banner"
        ,
        "tag": "Interactable"
      }
      ,
      "transform":
      {
        "pos": "0.00132305 0.196236 -0.00168005"
        ,
        "rotation": "0.0 0.0 0.0 -1.0"
      }
      ,
      "collider":
      {
        "shapes":
        [
          {
            "shape": "box"
            ,
            "half_size": "0.0725094 3.57854 0.906368"
            ,
            "group": "all"
            ,
            "mask": "all"
          }
        ]
        ,
        "density": 1
        ,
        "mass": 1
        ,
        "linearDrag": 0.5
        ,
        "angularDrag": 0.25
        ,
        "dynamic": false
        ,
        "kinematic": false
      }
      ,
      "abs_aabb":
      {
      }
      ,
      "render":
      {
        "mesh": "data/meshes/props/prop_banner_prop_banner.mesh"
        ,
        "color": "1.0 1.0 1.0 1.0"
        ,
        "materials":
        [
          "data/materials/props/banner.material"
          ,
          "data/materials/props/banner.material"
          ,
          "data/materials/props/banner.material"
          ,
          "data/materials/props/banner.material"
          ,
          "data/materials/props/banner.material"
          ,
          "data/materials/props/banner.material"
        ]
      }
    }
  }
]
