[
  {
    "entity":
    {
      "name":
      {
        "entityName": "book_small"
        ,
        "tag": "Interactable"
      }
      ,
      "transform":
      {
        "pos": "0.0 0.0 0.0"
        ,
        "rotation": "0.0 0.0 0.0 -1.0"
      }
      ,
      "collider":
      {
        "shapes": [
          {
            "shape": "box",
            "half_size": "0.105189 0.53772 0.567955",
            "group": "world",
            "mask": "world"
          }
        ],
        "density": 1.0
        ,
        "mass": 1.0
        ,
        "linearDrag": 0.5
        ,
        "angularDrag": 0.25
        ,
        "dynamic": true
        ,
        "kinematic": false
      }
      ,
      "abs_aabb":
      {
      }
      ,
      "local_aabb":
      {
        "half_size": "0.105189 0.567955 0.53772"
      }
      ,
      "comp_audio": {
        "name": "book_small",
        "sound": "event:/Props/BookDrop",
        "isContact": true,
		"isBreakable": false,
	    "particles": "data/particles/prefabs_particles/Pages_4.json"
      },
	  "magic_outline": {
        "outline_color": "0.14 0.22 0.44 1",
        "outline_glow": 3
      },
      "render":
      {
	   "meshes": [
          {
            "mesh": "data/meshes/props/props_book_small.mesh",
            "materials": [
              "data/materials/glowing_outlines.material"
            ]
          },
		  {
			"mesh": "data/meshes/props/props_book_small.mesh",
			"materials":
			[
			  "data/materials/props/mat_books.material"
			]
		  }
		 ]
      }
    }
  }
]
