[
  {
    "entity":
    {
      "name":
      {
        "entityName": "big_chunk"
        ,
        "tag": "Interactable"
      }
      ,
      "transform":
      {
      }
      ,
      "collider":
      {
        "shapes":
        [
          {
            "shape": "convex"
            ,
            "collision_mesh": "data/meshes/props/props_big_chunk.col_mesh"
            ,
            "group": "all"
            ,
            "mask": "all"
          }
        ]
        ,
        "density": 1
        ,
        "mass": 1
        ,
        "linearDrag": 0.5
        ,
        "angularDrag": 0.25
        ,
        "dynamic": false
        ,
        "kinematic": false
      }
      ,
      "abs_aabb":
      {
      }
      ,
      "render":
      {
	  	"instanciable": true
        ,
        "key": 155
		,
        "mesh": "data/meshes/props/props_big_chunk.mesh"
        ,
        "rimFactor": 1
        ,
        "materials":
        [
          "data/materials/props/m_big_chunk.material"
          ,
          "data/materials/props/m_big_chunk.material"
          ,
          "data/materials/props/m_big_chunk.material"
          ,
          "data/materials/props/m_big_chunk.material"
          ,
          "data/materials/props/m_big_chunk.material"
          ,
          "data/materials/props/m_big_chunk.material"
        ]
      }
    }
  }
]
