[
  {
    "entity":
    {
      "name":
      {
        "entityName": "stand_brazier_blue"
        ,
        "tag": "Interactable"
      }
      ,
      "transform":
      {
      },
	  "instanciate_particle": {
        "system_particles": [
          "data/particles/prefabs_particles/bigRedB.json"
        ]
      },
      "light_point": {
        "color": "1 0.5 0 1",
        "flicker": true,
        "intensity" : 5,
        "radius": 8,
        "min_intensity": 2,
        "max_intensity": 5,
        "min_radius": 3,
        "max_radius": 8,
        "smoothness": 75
      }
      ,
      "collider":
      {
        "shapes":
        [
          {
            "shape": "box"
            ,
            "half_size": "0.67358 1.12634 0.67358"
            ,
            "offset":
            {
              "pos": "0.0 0.0 0.0"
            }
            ,
            "group": "all"
            ,
            "mask": "all"
          }
        ]
        ,
        "density": 1
        ,
        "mass": 1
        ,
        "linearDrag": 0.5
        ,
        "angularDrag": 0.25
        ,
        "dynamic": false
        ,
        "kinematic": false
      }
      ,
      "abs_aabb":
      {
      }
      ,
      "render":
      {
        "instanciable": true
        ,
        "key": 150
        ,
        "mesh": "data/meshes/props/props_swr_stand_brazier.mesh"
        ,
        "color": "1.0 1.0 1.0 1.0"
        ,
        "materials":
        [
          "data/materials/props/m_swr_stand_base.material"
          ,
          "data/materials/props/m_swr_stand_bowl.material"
        ]
      }
    }
  },
  {
    "entity":
    {
      "name":
      {
        "entityName": "swr_brazier_fire"
        ,
        "tag": "No Interactable"
      },
      "transform":
      {
        "pos": "0 1.35 0"
      },
      "prefab": "data/prefabs/fires/orange_fire.json"
    }
  }
]
