[
  {
    "entity":
    {
      "name":
      {
        "entityName": "chair"
        ,
        "tag": "Interactable"
      }
      ,
      "transform":
      {
        "pos": "0.0 0.0 0.0"
        ,
        "rotation": "0.0 0.0 0.0 -1.0"
      }
      ,
	  "collider":
      {
        "shapes":
        [
          {
            "shape": "box"
            ,
            "half_size": "0.234723 0.509592 0.225389"
            ,
            "group": "all"
            ,
            "mask": "all"
          }
        ]
        ,
        "density": 1
        ,
        "mass": 1
        ,
        "linearDrag": 0.5
        ,
        "angularDrag": 0.25
        ,
        "dynamic": true
        ,
        "kinematic": false
		,
		"continuous_collision": true
      }
      ,
      "abs_aabb":
      {
      }
	  ,
      "local_aabb":
      {
        "half_size": "0.234723 0.225389 0.509592"
      }
      ,
      "render":
      {
        "mesh": "data/meshes/props/props_chair.mesh"
        ,
        "rimFactor": 1
        ,
        "materials":
        [
          "data/materials/props/mat_chair.material"
        ]
      }
    }
  }
]
