[
  {
    "entity":
    {
      "name":
      {
        "entityName": "axe"
        ,
        "tag": "Interactable"
      }
      ,
      "transform":
      {
        "pos": "0.0 0.0 0.0"
        ,
        "rotation": "0.0 0.0 0.0 -1.0"
      }
      ,
      "collider":
      {
        "shapes": [
          {
            "shape": "convex",
            "collision_mesh": "data/meshes/props/props_axe.col_mesh",
            "group": "world",
            "mask": "world"
          },
          {
            "shape": "sphere",
            "radius": 0.8,
            "group": "magicOnly",
            "mask": "magicOnly",
            "trigger": true
          }
        ],
        "density": 1.0
        ,
        "mass": 1.0
        ,
        "linearDrag": 0.5
        ,
        "angularDrag": 0.25
        ,
        "dynamic": true
        ,
        "kinematic": false
		,
		"continuous_collision": true
      }
      ,
      "abs_aabb":
      {
      }
      ,
      "local_aabb":
      {
        "half_size": "0.0467383 0.366416 0.750391"
      }
      ,
      "comp_audio": {
      	"name": "sword",
        "sound": "event:/Props/SwordClash",
        "isContact": true,
		"isBreakable": false,
	    "particles": "data/particles/prefabs_particles/skullDestroy.json"
      },
	  "magic_outline": {
        "outline_color": "0.14 0.22 0.44 1",
        "outline_glow": 3
      },
      "render":
      {
	    "meshes":
		[
			{
				"mesh": "data/meshes/props/props_axe.mesh"
				,
				"materials":
				[
				  "data/materials/props/mat_axe.material"
				  ,
				  "data/materials/props/mat_axe.material"
				]
			},
			{
				"mesh": "data/meshes/props/props_axe.mesh"
				,
				"materials":
				[
				  "data/materials/glowing_outlines.material"
				  ,
				  "data/materials/glowing_outlines.material"
				]
			}
		]
      }
    }
  }
]
