[
  {
    "entity":
    {
      "name":
      {
        "entityName": "cst_stand_brazier"
        ,
        "tag": "Interactable"
      }
      ,
      "transform":
      {
      }
      ,
      "light_point": {
        "color": "1 0.7 0 1",
        "flicker": true,
        "intensity" : 5,
        "radius": 8,
        "min_intensity": 7.7,
        "max_intensity": 8,
        "min_radius": 1.9,
        "max_radius": 2,
        "smoothness": 75
      }
      ,
      "collider":
      {
        "shapes":
        [
          {
            "shape": "box"
            ,
            "half_size": "0.67358 1.12634 0.67358"
            ,
            "offset":
            {
              "pos": "0.0 0.0 0.0"
            }
            ,
            "group": "all"
            ,
            "mask": "all"
          }
        ]
        ,
        "density": 1
        ,
        "mass": 1
        ,
        "linearDrag": 0.5
        ,
        "angularDrag": 0.25
        ,
        "dynamic": false
        ,
        "kinematic": false
      }
      ,
      "abs_aabb":
      {
      }
      ,
      "render":
      {
        "instanciable": true
        ,
        "key": 150
        ,
        "mesh": "data/meshes/props/props_swr_stand_brazier.mesh"
        ,
        "color": "1.0 1.0 1.0 1.0"
        ,
        "materials":
        [
          "data/materials/props/m_swr_stand_base.material"
          ,
          "data/materials/props/m_swr_stand_bowl.material"
        ]
      }
    }
  },
  {
    "entity":
    {
      "name":
      {
        "entityName": "swr_brazier_fire"
        ,
        "tag": "No Interactable"
      },
      "transform":
      {
        "pos": "0 1.35 0"
      },
      "prefab": "data/prefabs/fires/red_fire.json"
    }
  },
{
        "entity": {
            "buffers": {
                "TCtesParticles": {
                    "billboard": true,
                    "center": "0.000000 1.300000 0.000000",
                    "center_radius": 0.5,
                    "color_curve": 2,
                    "colors": [
                        [
                            0.0,
                            "1.000000 1.000000 0.000000 0.392157"
                        ],
                        [
                            0.14285714285714285,
                            "1.000000 0.734694 0.000000 0.288115"
                        ],
                        [
                            0.2857142857142857,
                            "1.000000 0.510204 0.000000 0.200080"
                        ],
                        [
                            0.42857142857142855,
                            "1.000000 0.326531 0.000000 0.128051"
                        ],
                        [
                            0.5714285714285714,
                            "1.000000 0.183673 0.000000 0.072029"
                        ],
                        [
                            0.7142857142857142,
                            "1.000000 0.081633 0.000000 0.032013"
                        ],
                        [
                            0.8571428571428571,
                            "1.000000 0.020408 0.000000 0.008003"
                        ],
                        [
                            1.0,
                            "1.000000 0.000000 0.000000 0.000000"
                        ]
                    ],
                    "cube_half_size": "1.000000 1.000000 1.000000",
                    "desc": "Cte buffer to control emission parameters and update parameters",
                    "dir": "0.000000 1.000000 0.000000",
                    "dir_aperture": 0.5,
                    "duration": "1.000000 1.500000",
                    "forward": "0.000000 0.999949 0.010100",
                    "glow": 1.0,
                    "gravity_factor": "0.000000 0.500000",
                    "looping": true,
                    "modifier_size_factor": "0.100000 1.000000",
                    "node_color": [],
                    "node_pitch": [],
                    "node_pitch2": [],
                    "node_roll": [],
                    "node_roll2": [],
                    "node_size": [],
                    "node_speed": [],
                    "node_yaw": [],
                    "node_yaw2": [],
                    "noise_factor": "0.000000 0.000000",
                    "noise_frequency": "0.500000 0.500000",
                    "num_elems": 1024,
                    "num_particles_per_spawn": "1.000000 1.000000",
                    "pitch": 0,
                    "pitch1": 0.0,
                    "pitch2": 0.0,
                    "pitchOverTimeValues": [
                        [
                            0.0,
                            0.0
                        ],
                        [
                            0.14285714285714285,
                            0.0
                        ],
                        [
                            0.2857142857142857,
                            0.0
                        ],
                        [
                            0.42857142857142855,
                            0.0
                        ],
                        [
                            0.5714285714285714,
                            0.0
                        ],
                        [
                            0.7142857142857142,
                            0.0
                        ],
                        [
                            0.8571428571428571,
                            0.0
                        ],
                        [
                            1.0,
                            0.0
                        ]
                    ],
                    "pitchOverTimeValues2": [
                        [
                            0.0,
                            0.0
                        ],
                        [
                            0.14285714285714285,
                            0.0
                        ],
                        [
                            0.2857142857142857,
                            0.0
                        ],
                        [
                            0.42857142857142855,
                            0.0
                        ],
                        [
                            0.5714285714285714,
                            0.0
                        ],
                        [
                            0.7142857142857142,
                            0.0
                        ],
                        [
                            0.8571428571428571,
                            0.0
                        ],
                        [
                            1.0,
                            0.0
                        ]
                    ],
                    "pitch_curve": -1,
                    "pitch_curve2": -1,
                    "random_dir_factor": 0.0,
                    "random_over_time_type": 0,
                    "roll": 0,
                    "roll1": 0.0,
                    "roll2": 0.0,
                    "rollOverTimeValues": [
                        [
                            0.0,
                            0.0
                        ],
                        [
                            0.14285714285714285,
                            0.0
                        ],
                        [
                            0.2857142857142857,
                            0.0
                        ],
                        [
                            0.42857142857142855,
                            0.0
                        ],
                        [
                            0.5714285714285714,
                            0.0
                        ],
                        [
                            0.7142857142857142,
                            0.0
                        ],
                        [
                            0.8571428571428571,
                            0.0
                        ],
                        [
                            1.0,
                            0.0
                        ]
                    ],
                    "rollOverTimeValues2": [
                        [
                            0.0,
                            0.0
                        ],
                        [
                            0.14285714285714285,
                            0.0
                        ],
                        [
                            0.2857142857142857,
                            0.0
                        ],
                        [
                            0.42857142857142855,
                            0.0
                        ],
                        [
                            0.5714285714285714,
                            0.0
                        ],
                        [
                            0.7142857142857142,
                            0.0
                        ],
                        [
                            0.8571428571428571,
                            0.0
                        ],
                        [
                            1.0,
                            0.0
                        ]
                    ],
                    "roll_curve": -1,
                    "roll_curve2": -1,
                    "rotation_over_direction": false,
                    "rotation_speed": "1.000000 1.000000",
                    "shell_thickness": 1.0,
                    "size_curve": -1,
                    "sizes": [
                        [
                            0.0,
                            1.0
                        ],
                        [
                            0.14285714285714285,
                            1.0
                        ],
                        [
                            0.2857142857142857,
                            1.0
                        ],
                        [
                            0.42857142857142855,
                            1.0
                        ],
                        [
                            0.5714285714285714,
                            1.0
                        ],
                        [
                            0.7142857142857142,
                            1.0
                        ],
                        [
                            0.8571428571428571,
                            1.0
                        ],
                        [
                            1.0,
                            1.0
                        ]
                    ],
                    "speed": "0.500000 4.000000",
                    "speedOverTimeValues": [
                        [
                            0.0,
                            1.0
                        ],
                        [
                            0.14285714285714285,
                            1.0
                        ],
                        [
                            0.2857142857142857,
                            1.0
                        ],
                        [
                            0.42857142857142855,
                            1.0
                        ],
                        [
                            0.5714285714285714,
                            1.0
                        ],
                        [
                            0.7142857142857142,
                            1.0
                        ],
                        [
                            0.8571428571428571,
                            1.0
                        ],
                        [
                            1.0,
                            1.0
                        ]
                    ],
                    "speed_curve": -1,
                    "system_delay_time": 0.0,
                    "system_total_life_time": 0.0,
                    "time_between_spawns": "0.020000 0.020000",
                    "type": "cone",
                    "world_space": false,
                    "yaw": 0,
                    "yaw1": 0.0,
                    "yaw2": 0.0,
                    "yawOverTimeValues": [
                        [
                            0.0,
                            0.0
                        ],
                        [
                            0.14285714285714285,
                            0.0
                        ],
                        [
                            0.2857142857142857,
                            0.0
                        ],
                        [
                            0.42857142857142855,
                            0.0
                        ],
                        [
                            0.5714285714285714,
                            0.0
                        ],
                        [
                            0.7142857142857142,
                            0.0
                        ],
                        [
                            0.8571428571428571,
                            0.0
                        ],
                        [
                            1.0,
                            0.0
                        ]
                    ],
                    "yawOverTimeValues2": [
                        [
                            0.0,
                            0.0
                        ],
                        [
                            0.14285714285714285,
                            0.0
                        ],
                        [
                            0.2857142857142857,
                            0.0
                        ],
                        [
                            0.42857142857142855,
                            0.0
                        ],
                        [
                            0.5714285714285714,
                            0.0
                        ],
                        [
                            0.7142857142857142,
                            0.0
                        ],
                        [
                            0.8571428571428571,
                            0.0
                        ],
                        [
                            1.0,
                            0.0
                        ]
                    ],
                    "yaw_curve": -1,
                    "yaw_curve2": -1
                },
                "indirect_draw": {
                    "bytes_per_elem": 20,
                    "desc": "Arguments of the draw instanced indirect. 5 x uint",
                    "init_indirect_from_mesh": "unit_quad_xy_centered.mesh",
                    "is_indirect": true,
                    "name": "indirect_draw",
                    "num_elems": 1
                },
                "indirect_update": {
                    "bytes_per_elem": 12,
                    "desc": "Arguments of the dispachIndirect, so the CPU never knows how many particles are alive. 3 x uint",
                    "is_indirect": true,
                    "num_elems": 1
                },
                "instances": {
                    "bytes_per_elem": 320,
                    "desc": "Array of active particles at the start of the frame",
                    "num_elems": 1024
                },
                "instances_active": {
                    "bytes_per_elem": 320,
                    "desc": "Array of active particles after the update",
                    "num_elems": 1024
                },
                "system": {
                    "bytes_per_elem": 32,
                    "desc": "Stores dynamic information of this system: num particles alive/dead/time to next spawn/...",
                    "num_elems": 1
                }
            },
            "compute": [
                {
                    "cs": "cs_particles_flow_spawn.compute",
                    "desc": "Spawning just 1 thread",
                    "sizes": [
                        1,
                        1,
                        1
                    ]
                },
                {
                    "cs": "cs_particles_flow_update.compute",
                    "desc": "Updating as many thread groups as required & defined by the buffer indirect_update",
                    "sizes": {
                        "buffer": "indirect_update",
                        "offset": 0
                    }
                },
                {
                    "swap_a": "instances",
                    "swap_b": "instances_active"
                }
            ],
            "name": "distortBigBraziere",
            "num_instances": "indirect_draw",
            "render": {
                "materials": [
                    "data\\materials\\particles\\y_fireDistort.material"
                ],
                "mesh": "unit_quad_xy_centered.mesh"
            },
            "transform": {
                "pos": "0 0 0",
                "rotation": "0.0 0.0 0.0 1.0"
            }
        }
    },
    {
        "entity": {
            "buffers": {
                "TCtesParticles": {
                    "billboard": true,
                    "center": "0.000000 0.930000 0.000000",
                    "center_radius": 0.38999998569488525,
                    "color_curve": 2,
                    "colors": [
                        [
                            0.0,
                            "1.000000 1.000000 0.000000 1.000000"
                        ],
                        [
                            0.14285714285714285,
                            "0.886855 0.734694 0.000009 1.000000"
                        ],
                        [
                            0.2857142857142857,
                            "0.791116 0.510204 0.000017 1.000000"
                        ],
                        [
                            0.42857142857142855,
                            "0.712785 0.326531 0.000023 1.000000"
                        ],
                        [
                            0.5714285714285714,
                            "0.651860 0.183673 0.000028 1.000000"
                        ],
                        [
                            0.7142857142857142,
                            "0.608343 0.081633 0.000031 1.000000"
                        ],
                        [
                            0.8571428571428571,
                            "0.580392 0.019608 0.000000 0.470588"
                        ],
                        [
                            1.0,
                            "0.572549 0.000000 0.000000 0.000000"
                        ]
                    ],
                    "cube_half_size": "1.000000 1.000000 1.000000",
                    "desc": "Cte buffer to control emission parameters and update parameters",
                    "dir": "0.000000 1.000000 0.000000",
                    "dir_aperture": 0.6299999952316284,
                    "duration": "0.500000 2.000000",
                    "forward": "0.000000 0.999949 0.010100",
                    "glow": 10.0,
                    "gravity_factor": "0.000000 0.010000",
                    "looping": true,
                    "modifier_size_factor": "0.010000 0.040000",
                    "node_color": [],
                    "node_pitch": [],
                    "node_pitch2": [],
                    "node_roll": [],
                    "node_roll2": [],
                    "node_size": [],
                    "node_speed": [],
                    "node_yaw": [],
                    "node_yaw2": [],
                    "noise_factor": "0.080000 0.320000",
                    "noise_frequency": "1.000000 6.000000",
                    "num_elems": 1024,
                    "num_particles_per_spawn": "1.000000 2.000000",
                    "pitch": 0,
                    "pitch1": 0.0,
                    "pitch2": 0.0,
                    "pitchOverTimeValues": [
                        [
                            0.0,
                            0.0
                        ],
                        [
                            0.14285714285714285,
                            0.0
                        ],
                        [
                            0.2857142857142857,
                            0.0
                        ],
                        [
                            0.42857142857142855,
                            0.0
                        ],
                        [
                            0.5714285714285714,
                            0.0
                        ],
                        [
                            0.7142857142857142,
                            0.0
                        ],
                        [
                            0.8571428571428571,
                            0.0
                        ],
                        [
                            1.0,
                            0.0
                        ]
                    ],
                    "pitchOverTimeValues2": [
                        [
                            0.0,
                            0.0
                        ],
                        [
                            0.14285714285714285,
                            0.0
                        ],
                        [
                            0.2857142857142857,
                            0.0
                        ],
                        [
                            0.42857142857142855,
                            0.0
                        ],
                        [
                            0.5714285714285714,
                            0.0
                        ],
                        [
                            0.7142857142857142,
                            0.0
                        ],
                        [
                            0.8571428571428571,
                            0.0
                        ],
                        [
                            1.0,
                            0.0
                        ]
                    ],
                    "pitch_curve": -1,
                    "pitch_curve2": -1,
                    "random_dir_factor": 0.0,
                    "random_over_time_type": 0,
                    "roll": 0,
                    "roll1": 0.0,
                    "roll2": 0.0,
                    "rollOverTimeValues": [
                        [
                            0.0,
                            0.0
                        ],
                        [
                            0.14285714285714285,
                            0.0
                        ],
                        [
                            0.2857142857142857,
                            0.0
                        ],
                        [
                            0.42857142857142855,
                            0.0
                        ],
                        [
                            0.5714285714285714,
                            0.0
                        ],
                        [
                            0.7142857142857142,
                            0.0
                        ],
                        [
                            0.8571428571428571,
                            0.0
                        ],
                        [
                            1.0,
                            0.0
                        ]
                    ],
                    "rollOverTimeValues2": [
                        [
                            0.0,
                            0.0
                        ],
                        [
                            0.14285714285714285,
                            0.0
                        ],
                        [
                            0.2857142857142857,
                            0.0
                        ],
                        [
                            0.42857142857142855,
                            0.0
                        ],
                        [
                            0.5714285714285714,
                            0.0
                        ],
                        [
                            0.7142857142857142,
                            0.0
                        ],
                        [
                            0.8571428571428571,
                            0.0
                        ],
                        [
                            1.0,
                            0.0
                        ]
                    ],
                    "roll_curve": -1,
                    "roll_curve2": -1,
                    "rotation_over_direction": false,
                    "rotation_speed": "1.000000 1.000000",
                    "shell_thickness": 1.0,
                    "size_curve": 13,
                    "sizes": [
                        [
                            0.0,
                            1.0
                        ],
                        [
                            0.14285714285714285,
                            1.0177208185195923
                        ],
                        [
                            0.2857142857142857,
                            1.050089955329895
                        ],
                        [
                            0.42857142857142855,
                            1.0659170150756836
                        ],
                        [
                            0.5714285714285714,
                            1.0340118408203125
                        ],
                        [
                            0.7142857142857142,
                            0.9231840372085571
                        ],
                        [
                            0.8571428571428571,
                            0.7022436261177063
                        ],
                        [
                            1.0,
                            0.3400000035762787
                        ]
                    ],
                    "speed": "1.000000 2.000000",
                    "speedOverTimeValues": [
                        [
                            0.0,
                            1.0
                        ],
                        [
                            0.14285714285714285,
                            1.0
                        ],
                        [
                            0.2857142857142857,
                            1.0
                        ],
                        [
                            0.42857142857142855,
                            1.0
                        ],
                        [
                            0.5714285714285714,
                            1.0
                        ],
                        [
                            0.7142857142857142,
                            1.0
                        ],
                        [
                            0.8571428571428571,
                            1.0
                        ],
                        [
                            1.0,
                            1.0
                        ]
                    ],
                    "speed_curve": -1,
                    "system_delay_time": 0.0,
                    "system_total_life_time": 0.0,
                    "time_between_spawns": "0.100000 0.100000",
                    "type": "cone",
                    "world_space": false,
                    "yaw": 0,
                    "yaw1": 0.0,
                    "yaw2": 0.0,
                    "yawOverTimeValues": [
                        [
                            0.0,
                            0.0
                        ],
                        [
                            0.14285714285714285,
                            0.0
                        ],
                        [
                            0.2857142857142857,
                            0.0
                        ],
                        [
                            0.42857142857142855,
                            0.0
                        ],
                        [
                            0.5714285714285714,
                            0.0
                        ],
                        [
                            0.7142857142857142,
                            0.0
                        ],
                        [
                            0.8571428571428571,
                            0.0
                        ],
                        [
                            1.0,
                            0.0
                        ]
                    ],
                    "yawOverTimeValues2": [
                        [
                            0.0,
                            0.0
                        ],
                        [
                            0.14285714285714285,
                            0.0
                        ],
                        [
                            0.2857142857142857,
                            0.0
                        ],
                        [
                            0.42857142857142855,
                            0.0
                        ],
                        [
                            0.5714285714285714,
                            0.0
                        ],
                        [
                            0.7142857142857142,
                            0.0
                        ],
                        [
                            0.8571428571428571,
                            0.0
                        ],
                        [
                            1.0,
                            0.0
                        ]
                    ],
                    "yaw_curve": 0,
                    "yaw_curve2": -1
                },
                "indirect_draw": {
                    "bytes_per_elem": 20,
                    "desc": "Arguments of the draw instanced indirect. 5 x uint",
                    "init_indirect_from_mesh": "unit_quad_xy_centered.mesh",
                    "is_indirect": true,
                    "name": "indirect_draw",
                    "num_elems": 1
                },
                "indirect_update": {
                    "bytes_per_elem": 12,
                    "desc": "Arguments of the dispachIndirect, so the CPU never knows how many particles are alive. 3 x uint",
                    "is_indirect": true,
                    "num_elems": 1
                },
                "instances": {
                    "bytes_per_elem": 320,
                    "desc": "Array of active particles at the start of the frame",
                    "num_elems": 1024
                },
                "instances_active": {
                    "bytes_per_elem": 320,
                    "desc": "Array of active particles after the update",
                    "num_elems": 1024
                },
                "system": {
                    "bytes_per_elem": 32,
                    "desc": "Stores dynamic information of this system: num particles alive/dead/time to next spawn/...",
                    "num_elems": 1
                }
            },
            "compute": [
                {
                    "cs": "cs_particles_flow_spawn.compute",
                    "desc": "Spawning just 1 thread",
                    "sizes": [
                        1,
                        1,
                        1
                    ]
                },
                {
                    "cs": "cs_particles_flow_update.compute",
                    "desc": "Updating as many thread groups as required & defined by the buffer indirect_update",
                    "sizes": {
                        "buffer": "indirect_update",
                        "offset": 0
                    }
                },
                {
                    "swap_a": "instances",
                    "swap_b": "instances_active"
                }
            ],
            "name": "StandBrazierSparks",
            "num_instances": "indirect_draw",
            "render": {
                "materials": [
                    "data\\materials\\particles\\Dust_Speck.material"
                ],
                "mesh": "unit_quad_xy_centered.mesh"
            },
            "transform": {
                "pos": "0 0 0",
                "rotation": "0.0 0.0 0.0 1.0"
            }
        }
    }
]
