[
  {
    "entity":
    {
      "name": "BalusterPost_mat_Baluster_post"
      ,
      "transform":
      {
      }
      ,
      "render":
      {
        "instanciable": true
        ,
        "key": 13
        ,
        "mesh": "data/meshes/CSTut_pt2/CSTut_pt2_BalusterPost017.mesh"
        ,
        "color": "1.0 1.0 1.0 1.0"
        ,
        "materials":
        [
          "data/materials/CSTut_pt2/mat_Baluster_post.material"
          ,
          "data/materials/CSTut_pt2/mat_Baluster_post.material"
          ,
          "data/materials/CSTut_pt2/mat_Baluster_post.material"
          ,
          "data/materials/CSTut_pt2/mat_Baluster_post.material"
          ,
          "data/materials/CSTut_pt2/mat_Baluster_post.material"
          ,
          "data/materials/CSTut_pt2/mat_Baluster_post.material"
        ]
      }
    }
  }
]
