[
  {
    "entity":
    {
      "name": "CstHalfCeil4x4_Cover_mat_Cst_HalfCeil"
      ,
      "transform":
      {
      }
      ,
      "render":
      {
        "instanciable": true
        ,
        "key": 19
        ,
        "mesh": "data/meshes/CSTut_pt2/CSTut_pt2_CstHalfCeil4x4_Cover020.mesh"
        ,
        "color": "1.0 1.0 1.0 1.0"
        ,
        "materials":
        [
          "data/materials/CSTut_pt2/mat_Cst_HalfCeil.material"
        ]
      }
    }
  }
]
