[
  {
    "entity":
    {
      "name": "Cst_Wood_Plank_1_m_prueba"
      ,
      "transform":
      {
      }
      ,
      "render":
      {
        "instanciable": true
        ,
        "key": 2
        ,
        "mesh": "data/meshes/CST_Scaff/CST_Scaff_Cst_Wood_Plank_004.mesh"
        ,
        "color": "1.0 1.0 1.0 1.0"
        ,
        "materials":
        [
          "data/materials/CST_Scaff/m_prueba.material"
        ]
      }
    }
  }
]
