[
  {
    "entity":
    {
      "name": "Cst_baseboard_4_mat_Cst_Baseboardwood"
      ,
      "transform":
      {
      }
      ,
      "render":
      {
        "instanciable": true
        ,
        "key": 23
        ,
        "mesh": "data/meshes/CSTut_pt3/CSTut_pt3_Cst_baseboard_036.mesh"
        ,
        "color": "1.0 1.0 1.0 1.0"
        ,
        "materials":
        [
          "data/materials/CSTut_pt3/mat_Cst_Baseboardwood.material"
        ]
      }
    }
  }
]
