[
  {
    "entity":
    {
      "name": "Cst_Claraboya_Mat_CST_Claraboya"
      ,
      "transform":
      {
      }
      ,
      "render":
      {
        "instanciable": true
        ,
        "key": 32
        ,
        "mesh": "data/meshes/CSTut_pt3/CSTut_pt3_Cst_Claraboya018.mesh"
        ,
        "color": "1.0 1.0 1.0 1.0"
        ,
        "materials":
        [
          "data/materials/CSTut_pt3/Mat_CST_Claraboya.material"
          ,
          "data/materials/CSTut_pt3/Mat_CST_Claraboya.material"
        ]
      }
    }
  }
]
