[
  {
    "entity":
    {
      "name": "CstArchDoor_Mat_CstArchDoor"
      ,
      "transform":
      {
      }
      ,
      "render":
      {
        "instanciable": true
        ,
        "key": 38
        ,
        "mesh": "data/meshes/CSTut_pt3/CSTut_pt3_CstArchDoor.mesh"
        ,
        "color": "1.0 1.0 1.0 1.0"
        ,
        "materials":
        [
          "data/materials/CSTut_pt3/Mat_CstArchDoor.material"
          ,
          "data/materials/CSTut_pt3/Mat_CstArchDoor.material"
          ,
          "data/materials/CSTut_pt3/Mat_CstArchDoor.material"
          ,
          "data/materials/CSTut_pt3/Mat_CstArchDoor.material"
        ]
      }
    }
  }
]
