[
  {
    "entity":
    {
      "name": "CstWall8x8__Mat_Cst_Wall_V02"
      ,
      "transform":
      {
      }
      ,
      "render":
      {
        "instanciable": true
        ,
        "key": 1
        ,
        "mesh": "data/meshes/CSTut_pt3/CSTut_pt3_CstWall8x8_2045.mesh"
        ,
        "color": "1.0 1.0 1.0 1.0"
        ,
        "materials":
        [
          "data/materials/CSTut_pt3/Mat_Cst_Wall_V02.material"
        ]
      }
    }
  }
]
