[
  {
    "entity":
    {
      "name": "SwrArchDoor_mat_BridgeBroke"
      ,
      "transform":
      {
      }
      ,
      "render":
      {
        "instanciable": true
        ,
        "key": 31
        ,
        "mesh": "data/meshes/CSTut_pt3/CSTut_pt3_SwrArchDoor.mesh"
        ,
        "color": "1.0 1.0 1.0 1.0"
        ,
        "materials":
        [
          "data/materials/CSTut_pt3/mat_BridgeBroke.material"
        ]
      }
    }
  }
]
