[
  {
    "entity": {
      "name": {
        "entityName": "Glass_broken_30",
        "tag": "Interactable"
      },
      "transform": {
        "pos": "0.0 0.0 0.0",
        "rotation": "0.0 0.0 0.0 -1.0"
      },
      "collider": {
        "shapes": [
          {
            "shape": "convex",
            "collision_mesh": "data/meshes/props/broken_glass_8x8/CST_Glass_8x8_rotos_Glass_broken_30.col_mesh",
            "group": "all",
            "mask": "all"
          }
        ],
        "density": 1,
        "mass": 1,
        "linearDrag": 0.5,
        "angularDrag": 0.25,
        "dynamic": true,
        "kinematic": false,
        "continuous_collision": true
      },
      "abs_aabb": {
      },
      "local_aabb": {
        "half_size": "1.06473 1.0 0.125"
      },
      "comp_audio": {
        "name": "glass_piece",
        "sound": "event:/Props/GlassPieces",
        "isContact": true
      },
      "magic_outline": {
        "outline_color": "0.14 0.22 0.44 1",
        "outline_glow": 3
      },
      "render": {
        "meshes": [
          {
            "mesh": "data/meshes/props/broken_glass_8x8/CST_Glass_8x8_rotos_Glass_broken_30.mesh",
            "materials": [
              "data/materials/glowing_outlines.material",
              "data/materials/glowing_outlines.material",
              "data/materials/glowing_outlines.material",
              "data/materials/glowing_outlines.material"                            
            ]
          },
          {
            "mesh": "data/meshes/props/broken_glass_8x8/CST_Glass_8x8_rotos_Glass_broken_30.mesh",
            "materials": [
              "data/materials/glassTest.material",
              "data/materials/glassTest.material",
              "data/materials/glassTest.material",
              "data/materials/glassTest.material"
            ]
          },
          {
            "mesh": "data/meshes/props/broken_glass_8x8/CST_Glass_8x8_rotos_Glass_broken_30.mesh",
            "materials": [
              "data/materials/object_distorsion.material",
              "data/materials/object_distorsion.material",
              "data/materials/object_distorsion.material",
              "data/materials/object_distorsion.material"
            ]
          }
        ],
        "rimFactor": 1
      }
    }
  }
]