[
  {
    "entity": {
      "name": {
        "entityName" : "door_up",
        "tag": "Interactable"
      },
      "transform": {
        "pos": "0 0 0"
      },
      "abs_aabb": {},
      "local_aabb":
      {
        "half_size": "1 1 0.5"
      },
      "collider": {
        "shapes": [
          {
            "shape": "box"
            ,
            "half_size": "1 1 0.5"
          }
        ],
        "dynamic": true,
        "kinematic": true,
        "group": "all",
        "mask": "all"
      },
      "render":
      {
        "mesh": "data/meshes/doors/door_up/door_up_door_up.mesh"
        ,
        "color": "0.6 0.894118 0.6 1.0"
        ,
        "materials":
        [
          "data/materials/doors/door_up/mat_door_up.material",
          "data/materials/doors/door_up/mat_door_up.material",
          "data/materials/doors/door_up/mat_door_up.material"
        ]
      }
    }
  }
]
