[
    {
        "entity": {
            "buffers": {
                "TCtesParticles": {
                    "billboard": false,
                    "center": "0.000000 1.940000 0.000000",
                    "center_radius": 0.0,
                    "color_curve": 0,
                    "colors": [
                        [
                            0.0,
                            "0.142157 0.142157 0.142155 1.000000"
                        ],
                        [
                            0.14285714285714285,
                            "0.135839 0.135839 0.135838 1.000000"
                        ],
                        [
                            0.2857142857142857,
                            "0.124299 0.124300 0.124298 1.000000"
                        ],
                        [
                            0.42857142857142855,
                            "0.118657 0.118657 0.118656 1.000000"
                        ],
                        [
                            0.5714285714285714,
                            "0.130031 0.130032 0.130030 1.000000"
                        ],
                        [
                            0.7142857142857142,
                            "0.169542 0.169542 0.169541 1.000000"
                        ],
                        [
                            0.8571428571428571,
                            "0.248309 0.248307 0.248306 1.000000"
                        ],
                        [
                            1.0,
                            "0.377451 0.377447 0.377447 1.000000"
                        ]
                    ],
                    "cube_half_size": "100.000000 10.000000 1.000000",
                    "desc": "Cte buffer to control emission parameters and update parameters",
                    "dir": "0.000000 1.000000 0.000000",
                    "dir_aperture": 7.5,
                    "duration": "1.000000 1.250000",
                    "forward": "0.000000 1.000000 -0.000000",
                    "glow": 1.0,
                    "gravity_factor": "0.000000 0.000000",
                    "looping": true,
                    "modifier_size_factor": "0.100000 0.100000",
                    "node_color": [],
                    "node_pitch": [],
                    "node_pitch2": [],
                    "node_roll": [],
                    "node_roll2": [],
                    "node_size": [],
                    "node_speed": [],
                    "node_yaw": [],
                    "node_yaw2": [],
                    "noise_factor": "0.000000 0.000000",
                    "noise_frequency": "0.000000 0.000000",
                    "num_particles_per_spawn": "10.000000 10.000000",
                    "pitch": 0,
                    "pitch1": 0.0,
                    "pitch2": 0.0,
                    "pitchOverTimeValues": [
                        [
                            0.0,
                            0.0
                        ],
                        [
                            0.14285714285714285,
                            0.0
                        ],
                        [
                            0.2857142857142857,
                            0.0
                        ],
                        [
                            0.42857142857142855,
                            0.0
                        ],
                        [
                            0.5714285714285714,
                            0.0
                        ],
                        [
                            0.7142857142857142,
                            0.0
                        ],
                        [
                            0.8571428571428571,
                            0.0
                        ],
                        [
                            1.0,
                            0.0
                        ]
                    ],
                    "pitchOverTimeValues2": [
                        [
                            0.0,
                            0.0
                        ],
                        [
                            0.14285714285714285,
                            0.0
                        ],
                        [
                            0.2857142857142857,
                            0.0
                        ],
                        [
                            0.42857142857142855,
                            0.0
                        ],
                        [
                            0.5714285714285714,
                            0.0
                        ],
                        [
                            0.7142857142857142,
                            0.0
                        ],
                        [
                            0.8571428571428571,
                            0.0
                        ],
                        [
                            1.0,
                            0.0
                        ]
                    ],
                    "pitch_curve": -1,
                    "pitch_curve2": -1,
                    "random_dir_factor": 0.0,
                    "random_over_time_type": 0,
                    "roll": 0,
                    "roll1": 0.0,
                    "roll2": 0.0,
                    "rollOverTimeValues": [
                        [
                            0.0,
                            0.0
                        ],
                        [
                            0.14285714285714285,
                            0.0
                        ],
                        [
                            0.2857142857142857,
                            0.0
                        ],
                        [
                            0.42857142857142855,
                            0.0
                        ],
                        [
                            0.5714285714285714,
                            0.0
                        ],
                        [
                            0.7142857142857142,
                            0.0
                        ],
                        [
                            0.8571428571428571,
                            0.0
                        ],
                        [
                            1.0,
                            0.0
                        ]
                    ],
                    "rollOverTimeValues2": [
                        [
                            0.0,
                            0.0
                        ],
                        [
                            0.14285714285714285,
                            0.0
                        ],
                        [
                            0.2857142857142857,
                            0.0
                        ],
                        [
                            0.42857142857142855,
                            0.0
                        ],
                        [
                            0.5714285714285714,
                            0.0
                        ],
                        [
                            0.7142857142857142,
                            0.0
                        ],
                        [
                            0.8571428571428571,
                            0.0
                        ],
                        [
                            1.0,
                            0.0
                        ]
                    ],
                    "roll_curve": -1,
                    "roll_curve2": -1,
                    "rotation_over_direction": true,
                    "rotation_over_direction_factor": 0.5,
                    "shell_thickness": 1.0,
                    "size_curve": 4,
                    "sizes": [
                        [
                            0.0,
                            10.0
                        ],
                        [
                            0.14285714285714285,
                            9.973760604858398
                        ],
                        [
                            0.2857142857142857,
                            9.790087699890137
                        ],
                        [
                            0.42857142857142855,
                            9.291544914245605
                        ],
                        [
                            0.5714285714285714,
                            8.320699691772461
                        ],
                        [
                            0.7142857142857142,
                            6.72011661529541
                        ],
                        [
                            0.8571428571428571,
                            4.332361221313477
                        ],
                        [
                            1.0,
                            1.0
                        ]
                    ],
                    "speed": "40.000000 60.000000",
                    "speedOverTimeValues": [
                        [
                            0.0,
                            0.9900000095367432
                        ],
                        [
                            0.14285714285714285,
                            0.9862973690032959
                        ],
                        [
                            0.2857142857142857,
                            0.9836443066596985
                        ],
                        [
                            0.42857142857142855,
                            0.9818658828735352
                        ],
                        [
                            0.5714285714285714,
                            0.9807872176170349
                        ],
                        [
                            0.7142857142857142,
                            0.9802332520484924
                        ],
                        [
                            0.8571428571428571,
                            0.9800291657447815
                        ],
                        [
                            1.0,
                            0.9800000190734863
                        ]
                    ],
                    "speed_curve": 5,
                    "system_delay_time": 0.0,
                    "system_total_life_time": 1.0,
                    "time_between_spawns": "2.000000 2.000000",
                    "type": "cone",
                    "yaw": 0,
                    "yaw1": 0.0,
                    "yaw2": 0.0,
                    "yawOverTimeValues": [
                        [
                            0.0,
                            0.0
                        ],
                        [
                            0.14285714285714285,
                            0.0
                        ],
                        [
                            0.2857142857142857,
                            0.0
                        ],
                        [
                            0.42857142857142855,
                            0.0
                        ],
                        [
                            0.5714285714285714,
                            0.0
                        ],
                        [
                            0.7142857142857142,
                            0.0
                        ],
                        [
                            0.8571428571428571,
                            0.0
                        ],
                        [
                            1.0,
                            0.0
                        ]
                    ],
                    "yawOverTimeValues2": [
                        [
                            0.0,
                            0.0
                        ],
                        [
                            0.14285714285714285,
                            0.0
                        ],
                        [
                            0.2857142857142857,
                            0.0
                        ],
                        [
                            0.42857142857142855,
                            0.0
                        ],
                        [
                            0.5714285714285714,
                            0.0
                        ],
                        [
                            0.7142857142857142,
                            0.0
                        ],
                        [
                            0.8571428571428571,
                            0.0
                        ],
                        [
                            1.0,
                            0.0
                        ]
                    ],
                    "yaw_curve": 0,
                    "yaw_curve2": -1
                },
                "indirect_draw": {
                    "bytes_per_elem": 20,
                    "desc": "Arguments of the draw instanced indirect. 5 x uint",
                    "init_indirect_from_mesh": "data\\meshes\\particles\\Strike.mesh",
                    "is_indirect": true,
                    "name": "indirect_draw",
                    "num_elems": 1
                },
                "indirect_update": {
                    "bytes_per_elem": 12,
                    "desc": "Arguments of the dispachIndirect, so the CPU never knows how many particles are alive. 3 x uint",
                    "is_indirect": true,
                    "num_elems": 1
                },
                "instances": {
                    "bytes_per_elem": 512,
                    "desc": "Array of active particles at the start of the frame",
                    "num_elems": 2048
                },
                "instances_active": {
                    "bytes_per_elem": 512,
                    "desc": "Array of active particles after the update",
                    "num_elems": 2048
                },
                "system": {
                    "bytes_per_elem": 32,
                    "desc": "Stores dynamic information of this system: num particles alive/dead/time to next spawn/...",
                    "num_elems": 1
                }
            },
            "compute": [
                {
                    "cs": "cs_particles_flow_spawn.compute",
                    "desc": "Spawning just 1 thread",
                    "sizes": [
                        1,
                        1,
                        1
                    ]
                },
                {
                    "cs": "cs_particles_flow_update.compute",
                    "desc": "Updating as many thread groups as required & defined by the buffer indirect_update",
                    "sizes": {
                        "buffer": "indirect_update",
                        "offset": 0
                    }
                },
                {
                    "swap_a": "instances",
                    "swap_b": "instances_active"
                }
            ],
            "name": "AntonBarsExample",
            "num_instances": "indirect_draw",
            "render": {
                "materials": [
                    "data/materials/particles/particles_flow.material"
                ],
                "mesh": "data\\meshes\\particles\\Strike.mesh"
            },
            "transform": {
                "pos": "0 0 0",
                "rotation": "0.0 0.0 0.0 1.0"
            }
        }
    }
]
