[
    {
        "entity": {
            "buffers": {
                "TCtesParticles": {
                    "billboard": false,
                    "center": "0.000000 0.000000 0.000000",
                    "center_radius": 0.0,
                    "color_curve": 0,
                    "colors": [
                        [
                            0.0,
                            "0.000000 0.588235 1.000000 1.000000"
                        ],
                        [
                            0.14285714285714285,
                            "0.264426 0.662185 0.787115 1.000000"
                        ],
                        [
                            0.2857142857142857,
                            "0.528851 0.736134 0.574230 1.000000"
                        ],
                        [
                            0.42857142857142855,
                            "0.793277 0.810084 0.361345 1.000000"
                        ],
                        [
                            0.5714285714285714,
                            "0.938795 0.849160 0.216387 1.000000"
                        ],
                        [
                            0.7142857142857142,
                            "0.965406 0.853362 0.139356 1.000000"
                        ],
                        [
                            0.8571428571428571,
                            "0.992017 0.857563 0.062325 1.000000"
                        ],
                        [
                            1.0,
                            "1.000000 0.858824 0.039216 0.000000"
                        ]
                    ],
                    "cube_half_size": "0.000000 0.000000 0.000000",
                    "desc": "Cte buffer to control emission parameters and update parameters",
                    "dir": "0.000000 0.000000 -1.000000",
                    "dir_aperture": 0.5,
                    "duration": "2.000000 2.000000",
                    "forward": "0.000000 0.999949 0.010100",
                    "glow": 3.0,
                    "gravity_factor": "0.000000 0.000000",
                    "looping": true,
                    "modifier_size_factor": "2.000000 2.000000",
                    "node_color": [
                        [
                            0.5,
                            "0.925490 0.847059 0.254902 1.000000"
                        ],
                        [
                            0.8999999761581421,
                            "1.000000 0.858824 0.039216 1.000000"
                        ]
                    ],
                    "node_pitch": [],
                    "node_pitch2": [],
                    "node_roll": [],
                    "node_roll2": [],
                    "node_size": [
                        [
                            0.5,
                            1.0
                        ]
                    ],
                    "node_speed": [
                        [
                            0.5,
                            0.0
                        ]
                    ],
                    "node_yaw": [],
                    "node_yaw2": [],
                    "noise_factor": "0.000000 0.000000",
                    "noise_frequency": "0.500000 0.500000",
                    "num_particles_per_spawn": "1.000000 1.000000",
                    "pitch": 0,
                    "pitch1": 0.0,
                    "pitch2": 0.0,
                    "pitchOverTimeValues": [
                        [
                            0.0,
                            0.0
                        ],
                        [
                            0.14285714285714285,
                            0.0
                        ],
                        [
                            0.2857142857142857,
                            0.0
                        ],
                        [
                            0.42857142857142855,
                            0.0
                        ],
                        [
                            0.5714285714285714,
                            0.0
                        ],
                        [
                            0.7142857142857142,
                            0.0
                        ],
                        [
                            0.8571428571428571,
                            0.0
                        ],
                        [
                            1.0,
                            0.0
                        ]
                    ],
                    "pitchOverTimeValues2": [
                        [
                            0.0,
                            0.0
                        ],
                        [
                            0.14285714285714285,
                            0.0
                        ],
                        [
                            0.2857142857142857,
                            0.0
                        ],
                        [
                            0.42857142857142855,
                            0.0
                        ],
                        [
                            0.5714285714285714,
                            0.0
                        ],
                        [
                            0.7142857142857142,
                            0.0
                        ],
                        [
                            0.8571428571428571,
                            0.0
                        ],
                        [
                            1.0,
                            0.0
                        ]
                    ],
                    "pitch_curve": -1,
                    "pitch_curve2": -1,
                    "random_dir_factor": 0.0,
                    "random_over_time_type": 0,
                    "roll": 0,
                    "roll1": 0.0,
                    "roll2": 0.0,
                    "rollOverTimeValues": [
                        [
                            0.0,
                            180.0
                        ],
                        [
                            0.14285714285714285,
                            180.0
                        ],
                        [
                            0.2857142857142857,
                            180.0
                        ],
                        [
                            0.42857142857142855,
                            180.0
                        ],
                        [
                            0.5714285714285714,
                            180.0
                        ],
                        [
                            0.7142857142857142,
                            180.0
                        ],
                        [
                            0.8571428571428571,
                            180.0
                        ],
                        [
                            1.0,
                            180.0
                        ]
                    ],
                    "rollOverTimeValues2": [
                        [
                            0.0,
                            180.0
                        ],
                        [
                            0.14285714285714285,
                            180.0
                        ],
                        [
                            0.2857142857142857,
                            180.0
                        ],
                        [
                            0.42857142857142855,
                            180.0
                        ],
                        [
                            0.5714285714285714,
                            180.0
                        ],
                        [
                            0.7142857142857142,
                            180.0
                        ],
                        [
                            0.8571428571428571,
                            180.0
                        ],
                        [
                            1.0,
                            180.0
                        ]
                    ],
                    "roll_curve": -1,
                    "roll_curve2": -1,
                    "rotation_over_direction": false,
                    "shell_thickness": 0.0,
                    "size_curve": 0,
                    "sizes": [
                        [
                            0.0,
                            0.0
                        ],
                        [
                            0.14285714285714285,
                            0.2857142984867096
                        ],
                        [
                            0.2857142857142857,
                            0.5714285969734192
                        ],
                        [
                            0.42857142857142855,
                            0.8571428656578064
                        ],
                        [
                            0.5714285714285714,
                            1.0
                        ],
                        [
                            0.7142857142857142,
                            1.0
                        ],
                        [
                            0.8571428571428571,
                            1.0
                        ],
                        [
                            1.0,
                            1.0
                        ]
                    ],
                    "speed": "2.000000 2.000000",
                    "speedOverTimeValues": [
                        [
                            0.0,
                            1.0
                        ],
                        [
                            0.14285714285714285,
                            0.7142857313156128
                        ],
                        [
                            0.2857142857142857,
                            0.4285714030265808
                        ],
                        [
                            0.42857142857142855,
                            0.1428571343421936
                        ],
                        [
                            0.5714285714285714,
                            0.0
                        ],
                        [
                            0.7142857142857142,
                            0.0
                        ],
                        [
                            0.8571428571428571,
                            0.0
                        ],
                        [
                            1.0,
                            0.0
                        ]
                    ],
                    "speed_curve": 0,
                    "system_delay_time": 0.0,
                    "system_total_life_time": 0.0,
                    "time_between_spawns": "2.000000 2.000000",
                    "type": "cube",
                    "world_space": false,
                    "yaw": 0,
                    "yaw1": 0.0,
                    "yaw2": 0.0,
                    "yawOverTimeValues": [
                        [
                            0.0,
                            0.0
                        ],
                        [
                            0.14285714285714285,
                            0.0
                        ],
                        [
                            0.2857142857142857,
                            0.0
                        ],
                        [
                            0.42857142857142855,
                            0.0
                        ],
                        [
                            0.5714285714285714,
                            0.0
                        ],
                        [
                            0.7142857142857142,
                            0.0
                        ],
                        [
                            0.8571428571428571,
                            0.0
                        ],
                        [
                            1.0,
                            0.0
                        ]
                    ],
                    "yawOverTimeValues2": [
                        [
                            0.0,
                            0.0
                        ],
                        [
                            0.14285714285714285,
                            0.0
                        ],
                        [
                            0.2857142857142857,
                            0.0
                        ],
                        [
                            0.42857142857142855,
                            0.0
                        ],
                        [
                            0.5714285714285714,
                            0.0
                        ],
                        [
                            0.7142857142857142,
                            0.0
                        ],
                        [
                            0.8571428571428571,
                            0.0
                        ],
                        [
                            1.0,
                            0.0
                        ]
                    ],
                    "yaw_curve": 0,
                    "yaw_curve2": -1
                },
                "indirect_draw": {
                    "bytes_per_elem": 20,
                    "desc": "Arguments of the draw instanced indirect. 5 x uint",
                    "init_indirect_from_mesh": "unit_quad_xy_centered.mesh",
                    "is_indirect": true,
                    "name": "indirect_draw",
                    "num_elems": 1
                },
                "indirect_update": {
                    "bytes_per_elem": 12,
                    "desc": "Arguments of the dispachIndirect, so the CPU never knows how many particles are alive. 3 x uint",
                    "is_indirect": true,
                    "num_elems": 1
                },
                "instances": {
                    "bytes_per_elem": 320,
                    "desc": "Array of active particles at the start of the frame",
                    "num_elems": 2048
                },
                "instances_active": {
                    "bytes_per_elem": 320,
                    "desc": "Array of active particles after the update",
                    "num_elems": 2048
                },
                "system": {
                    "bytes_per_elem": 32,
                    "desc": "Stores dynamic information of this system: num particles alive/dead/time to next spawn/...",
                    "num_elems": 1
                }
            },
            "compute": [
                {
                    "cs": "cs_particles_flow_spawn.compute",
                    "desc": "Spawning just 1 thread",
                    "sizes": [
                        1,
                        1,
                        1
                    ]
                },
                {
                    "cs": "cs_particles_flow_update.compute",
                    "desc": "Updating as many thread groups as required & defined by the buffer indirect_update",
                    "sizes": {
                        "buffer": "indirect_update",
                        "offset": 0
                    }
                },
                {
                    "swap_a": "instances",
                    "swap_b": "instances_active"
                }
            ],
            "name": "Outer_Ring",
            "num_instances": "indirect_draw",
            "render": {
                "materials": [
                    "data\\materials\\particles\\Fireball_Outer_ring_lined.material"
                ],
                "mesh": "unit_quad_xy_centered.mesh"
            },
            "transform": {
                "pos": "0 0 0",
                "rotation": "0.0 0.0 0.0 1.0"
            }
        }
    },
    {
        "entity": {
            "buffers": {
                "TCtesParticles": {
                    "billboard": false,
                    "center": "0.000000 0.000000 -0.250000",
                    "center_radius": 0.0,
                    "color_curve": 4,
                    "colors": [
                        [
                            0.0,
                            "0.149020 0.847059 0.941176 0.000000"
                        ],
                        [
                            0.14285714285714285,
                            "0.165666 0.833714 0.925636 0.023324"
                        ],
                        [
                            0.2857142857142857,
                            "0.282193 0.740299 0.816856 0.186589"
                        ],
                        [
                            0.42857142857142855,
                            "0.598479 0.486745 0.521593 0.629738"
                        ],
                        [
                            0.5714285714285714,
                            "0.863303 0.275612 0.274088 1.000000"
                        ],
                        [
                            0.7142857142857142,
                            "0.877818 0.294288 0.253130 1.000000"
                        ],
                        [
                            0.8571428571428571,
                            "0.932527 0.364681 0.174134 1.000000"
                        ],
                        [
                            1.0,
                            "0.960784 0.133333 0.133333 0.000000"
                        ]
                    ],
                    "cube_half_size": "0.000000 0.000000 0.000000",
                    "desc": "Cte buffer to control emission parameters and update parameters",
                    "dir": "0.000000 0.000000 -1.000000",
                    "dir_aperture": 0.5,
                    "duration": "2.000000 2.000000",
                    "forward": "0.000000 0.999949 0.010100",
                    "glow": 3.0,
                    "gravity_factor": "0.000000 0.000000",
                    "looping": true,
                    "modifier_size_factor": "1.700000 1.700000",
                    "node_color": [
                        [
                            0.5,
                            "0.862745 0.274894 0.274894 1.000000"
                        ],
                        [
                            0.8999999761581421,
                            "0.960784 0.401038 0.133333 1.000000"
                        ]
                    ],
                    "node_pitch": [],
                    "node_pitch2": [],
                    "node_roll": [],
                    "node_roll2": [],
                    "node_size": [
                        [
                            0.5,
                            1.0
                        ]
                    ],
                    "node_speed": [
                        [
                            0.5,
                            0.0
                        ]
                    ],
                    "node_yaw": [],
                    "node_yaw2": [],
                    "noise_factor": "0.000000 0.000000",
                    "noise_frequency": "0.500000 0.500000",
                    "num_particles_per_spawn": "1.000000 1.000000",
                    "pitch": 0,
                    "pitch1": 0.0,
                    "pitch2": 0.0,
                    "pitchOverTimeValues": [
                        [
                            0.0,
                            0.0
                        ],
                        [
                            0.14285714285714285,
                            0.0
                        ],
                        [
                            0.2857142857142857,
                            0.0
                        ],
                        [
                            0.42857142857142855,
                            0.0
                        ],
                        [
                            0.5714285714285714,
                            0.0
                        ],
                        [
                            0.7142857142857142,
                            0.0
                        ],
                        [
                            0.8571428571428571,
                            0.0
                        ],
                        [
                            1.0,
                            0.0
                        ]
                    ],
                    "pitchOverTimeValues2": [
                        [
                            0.0,
                            0.0
                        ],
                        [
                            0.14285714285714285,
                            0.0
                        ],
                        [
                            0.2857142857142857,
                            0.0
                        ],
                        [
                            0.42857142857142855,
                            0.0
                        ],
                        [
                            0.5714285714285714,
                            0.0
                        ],
                        [
                            0.7142857142857142,
                            0.0
                        ],
                        [
                            0.8571428571428571,
                            0.0
                        ],
                        [
                            1.0,
                            0.0
                        ]
                    ],
                    "pitch_curve": -1,
                    "pitch_curve2": -1,
                    "random_dir_factor": 0.0,
                    "random_over_time_type": 0,
                    "roll": 0,
                    "roll1": 0.0,
                    "roll2": 0.0,
                    "rollOverTimeValues": [
                        [
                            0.0,
                            -180.0
                        ],
                        [
                            0.14285714285714285,
                            -180.0
                        ],
                        [
                            0.2857142857142857,
                            -180.0
                        ],
                        [
                            0.42857142857142855,
                            -180.0
                        ],
                        [
                            0.5714285714285714,
                            -180.0
                        ],
                        [
                            0.7142857142857142,
                            -180.0
                        ],
                        [
                            0.8571428571428571,
                            -180.0
                        ],
                        [
                            1.0,
                            -180.0
                        ]
                    ],
                    "rollOverTimeValues2": [
                        [
                            0.0,
                            -180.0
                        ],
                        [
                            0.14285714285714285,
                            -180.0
                        ],
                        [
                            0.2857142857142857,
                            -180.0
                        ],
                        [
                            0.42857142857142855,
                            -180.0
                        ],
                        [
                            0.5714285714285714,
                            -180.0
                        ],
                        [
                            0.7142857142857142,
                            -180.0
                        ],
                        [
                            0.8571428571428571,
                            -180.0
                        ],
                        [
                            1.0,
                            -180.0
                        ]
                    ],
                    "roll_curve": -1,
                    "roll_curve2": -1,
                    "rotation_over_direction": false,
                    "shell_thickness": 0.0,
                    "size_curve": 4,
                    "sizes": [
                        [
                            0.0,
                            0.0
                        ],
                        [
                            0.14285714285714285,
                            0.02332361787557602
                        ],
                        [
                            0.2857142857142857,
                            0.18658894300460815
                        ],
                        [
                            0.42857142857142855,
                            0.6297376155853271
                        ],
                        [
                            0.5714285714285714,
                            1.0
                        ],
                        [
                            0.7142857142857142,
                            1.0
                        ],
                        [
                            0.8571428571428571,
                            1.0
                        ],
                        [
                            1.0,
                            1.0
                        ]
                    ],
                    "speed": "2.000000 2.000000",
                    "speedOverTimeValues": [
                        [
                            0.0,
                            1.0
                        ],
                        [
                            0.14285714285714285,
                            0.7142857313156128
                        ],
                        [
                            0.2857142857142857,
                            0.4285714030265808
                        ],
                        [
                            0.42857142857142855,
                            0.1428571343421936
                        ],
                        [
                            0.5714285714285714,
                            0.0
                        ],
                        [
                            0.7142857142857142,
                            0.0
                        ],
                        [
                            0.8571428571428571,
                            0.0
                        ],
                        [
                            1.0,
                            0.0
                        ]
                    ],
                    "speed_curve": 0,
                    "system_delay_time": 0.0,
                    "system_total_life_time": 0.0,
                    "time_between_spawns": "2.000000 2.000000",
                    "type": "cube",
                    "world_space": false,
                    "yaw": 0,
                    "yaw1": 0.0,
                    "yaw2": 0.0,
                    "yawOverTimeValues": [
                        [
                            0.0,
                            0.0
                        ],
                        [
                            0.14285714285714285,
                            0.0
                        ],
                        [
                            0.2857142857142857,
                            0.0
                        ],
                        [
                            0.42857142857142855,
                            0.0
                        ],
                        [
                            0.5714285714285714,
                            0.0
                        ],
                        [
                            0.7142857142857142,
                            0.0
                        ],
                        [
                            0.8571428571428571,
                            0.0
                        ],
                        [
                            1.0,
                            0.0
                        ]
                    ],
                    "yawOverTimeValues2": [
                        [
                            0.0,
                            0.0
                        ],
                        [
                            0.14285714285714285,
                            0.0
                        ],
                        [
                            0.2857142857142857,
                            0.0
                        ],
                        [
                            0.42857142857142855,
                            0.0
                        ],
                        [
                            0.5714285714285714,
                            0.0
                        ],
                        [
                            0.7142857142857142,
                            0.0
                        ],
                        [
                            0.8571428571428571,
                            0.0
                        ],
                        [
                            1.0,
                            0.0
                        ]
                    ],
                    "yaw_curve": 0,
                    "yaw_curve2": -1
                },
                "indirect_draw": {
                    "bytes_per_elem": 20,
                    "desc": "Arguments of the draw instanced indirect. 5 x uint",
                    "init_indirect_from_mesh": "unit_quad_xy_centered.mesh",
                    "is_indirect": true,
                    "name": "indirect_draw",
                    "num_elems": 1
                },
                "indirect_update": {
                    "bytes_per_elem": 12,
                    "desc": "Arguments of the dispachIndirect, so the CPU never knows how many particles are alive. 3 x uint",
                    "is_indirect": true,
                    "num_elems": 1
                },
                "instances": {
                    "bytes_per_elem": 320,
                    "desc": "Array of active particles at the start of the frame",
                    "num_elems": 2048
                },
                "instances_active": {
                    "bytes_per_elem": 320,
                    "desc": "Array of active particles after the update",
                    "num_elems": 2048
                },
                "system": {
                    "bytes_per_elem": 32,
                    "desc": "Stores dynamic information of this system: num particles alive/dead/time to next spawn/...",
                    "num_elems": 1
                }
            },
            "compute": [
                {
                    "cs": "cs_particles_flow_spawn.compute",
                    "desc": "Spawning just 1 thread",
                    "sizes": [
                        1,
                        1,
                        1
                    ]
                },
                {
                    "cs": "cs_particles_flow_update.compute",
                    "desc": "Updating as many thread groups as required & defined by the buffer indirect_update",
                    "sizes": {
                        "buffer": "indirect_update",
                        "offset": 0
                    }
                },
                {
                    "swap_a": "instances",
                    "swap_b": "instances_active"
                }
            ],
            "name": "Inner_Ring",
            "num_instances": "indirect_draw",
            "render": {
                "materials": [
                    "data\\materials\\particles\\Fireball_inner_ring.material"
                ],
                "mesh": "unit_quad_xy_centered.mesh"
            },
            "transform": {
                "pos": "0 0 0",
                "rotation": "0.0 0.0 0.0 1.0"
            }
        }
    },
    {
        "entity": {
            "buffers": {
                "TCtesParticles": {
                    "billboard": false,
                    "center": "0.000000 0.000000 -1.210000",
                    "center_radius": 0.0,
                    "color_curve": 10,
                    "colors": [
                        [
                            0.0,
                            "1.000000 0.349020 0.349020 0.000000"
                        ],
                        [
                            0.14285714285714285,
                            "1.000000 0.349019 0.349019 0.000765"
                        ],
                        [
                            0.2857142857142857,
                            "1.000000 0.348996 0.348996 0.024485"
                        ],
                        [
                            0.42857142857142855,
                            "1.000000 0.348838 0.348838 0.185934"
                        ],
                        [
                            0.5714285714285714,
                            "1.000000 0.348251 0.348251 0.783526"
                        ],
                        [
                            0.7142857142857142,
                            "1.000000 0.348047 0.348047 1.000000"
                        ],
                        [
                            0.8571428571428571,
                            "1.000000 0.348493 0.348493 1.000000"
                        ],
                        [
                            1.0,
                            "1.000000 0.349020 0.349020 0.000000"
                        ]
                    ],
                    "cube_half_size": "0.000000 0.000000 0.000000",
                    "desc": "Cte buffer to control emission parameters and update parameters",
                    "dir": "0.000000 0.000000 1.000000",
                    "dir_aperture": 0.5,
                    "duration": "2.000000 2.000000",
                    "forward": "0.000000 0.999949 0.010100",
                    "glow": 3.0,
                    "gravity_factor": "0.000000 0.000000",
                    "looping": true,
                    "modifier_size_factor": "2.000000 2.000000",
                    "node_color": [
                        [
                            0.6000000238418579,
                            "1.000000 0.348039 0.348039 1.000000"
                        ],
                        [
                            0.8999999761581421,
                            "1.000000 0.349020 0.349020 1.000000"
                        ]
                    ],
                    "node_pitch": [],
                    "node_pitch2": [],
                    "node_roll": [],
                    "node_roll2": [],
                    "node_size": [],
                    "node_speed": [
                        [
                            0.5,
                            0.0
                        ]
                    ],
                    "node_yaw": [],
                    "node_yaw2": [],
                    "noise_factor": "0.000000 0.000000",
                    "noise_frequency": "0.500000 0.500000",
                    "num_particles_per_spawn": "1.200000 1.000000",
                    "pitch": 0,
                    "pitch1": 0.0,
                    "pitch2": 0.0,
                    "pitchOverTimeValues": [
                        [
                            0.0,
                            0.0
                        ],
                        [
                            0.14285714285714285,
                            0.0
                        ],
                        [
                            0.2857142857142857,
                            0.0
                        ],
                        [
                            0.42857142857142855,
                            0.0
                        ],
                        [
                            0.5714285714285714,
                            0.0
                        ],
                        [
                            0.7142857142857142,
                            0.0
                        ],
                        [
                            0.8571428571428571,
                            0.0
                        ],
                        [
                            1.0,
                            0.0
                        ]
                    ],
                    "pitchOverTimeValues2": [
                        [
                            0.0,
                            0.0
                        ],
                        [
                            0.14285714285714285,
                            0.0
                        ],
                        [
                            0.2857142857142857,
                            0.0
                        ],
                        [
                            0.42857142857142855,
                            0.0
                        ],
                        [
                            0.5714285714285714,
                            0.0
                        ],
                        [
                            0.7142857142857142,
                            0.0
                        ],
                        [
                            0.8571428571428571,
                            0.0
                        ],
                        [
                            1.0,
                            0.0
                        ]
                    ],
                    "pitch_curve": -1,
                    "pitch_curve2": -1,
                    "random_dir_factor": 0.0,
                    "random_over_time_type": 0,
                    "roll": 0,
                    "roll1": 0.0,
                    "roll2": 0.0,
                    "rollOverTimeValues": [
                        [
                            0.0,
                            0.0
                        ],
                        [
                            0.14285714285714285,
                            0.0
                        ],
                        [
                            0.2857142857142857,
                            0.0
                        ],
                        [
                            0.42857142857142855,
                            0.0
                        ],
                        [
                            0.5714285714285714,
                            0.0
                        ],
                        [
                            0.7142857142857142,
                            0.0
                        ],
                        [
                            0.8571428571428571,
                            0.0
                        ],
                        [
                            1.0,
                            0.0
                        ]
                    ],
                    "rollOverTimeValues2": [
                        [
                            0.0,
                            0.0
                        ],
                        [
                            0.14285714285714285,
                            0.0
                        ],
                        [
                            0.2857142857142857,
                            0.0
                        ],
                        [
                            0.42857142857142855,
                            0.0
                        ],
                        [
                            0.5714285714285714,
                            0.0
                        ],
                        [
                            0.7142857142857142,
                            0.0
                        ],
                        [
                            0.8571428571428571,
                            0.0
                        ],
                        [
                            1.0,
                            0.0
                        ]
                    ],
                    "roll_curve": -1,
                    "roll_curve2": -1,
                    "rotation_over_direction": false,
                    "shell_thickness": 0.0,
                    "size_curve": 5,
                    "sizes": [
                        [
                            0.0,
                            1.25
                        ],
                        [
                            0.14285714285714285,
                            1.1574344635009766
                        ],
                        [
                            0.2857142857142857,
                            1.0911078453063965
                        ],
                        [
                            0.42857142857142855,
                            1.0466471910476685
                        ],
                        [
                            0.5714285714285714,
                            1.019679307937622
                        ],
                        [
                            0.7142857142857142,
                            1.0058308839797974
                        ],
                        [
                            0.8571428571428571,
                            1.0007288455963135
                        ],
                        [
                            1.0,
                            1.0
                        ]
                    ],
                    "speed": "0.250000 0.250000",
                    "speedOverTimeValues": [
                        [
                            0.0,
                            1.0
                        ],
                        [
                            0.14285714285714285,
                            0.7142857313156128
                        ],
                        [
                            0.2857142857142857,
                            0.4285714030265808
                        ],
                        [
                            0.42857142857142855,
                            0.1428571343421936
                        ],
                        [
                            0.5714285714285714,
                            0.0
                        ],
                        [
                            0.7142857142857142,
                            0.0
                        ],
                        [
                            0.8571428571428571,
                            0.0
                        ],
                        [
                            1.0,
                            0.0
                        ]
                    ],
                    "speed_curve": 0,
                    "system_delay_time": 0.0,
                    "system_total_life_time": 0.0,
                    "time_between_spawns": "2.000000 2.000000",
                    "type": "cube",
                    "world_space": false,
                    "yaw": 0,
                    "yaw1": 0.0,
                    "yaw2": 0.0,
                    "yawOverTimeValues": [
                        [
                            0.0,
                            0.0
                        ],
                        [
                            0.14285714285714285,
                            0.0
                        ],
                        [
                            0.2857142857142857,
                            0.0
                        ],
                        [
                            0.42857142857142855,
                            0.0
                        ],
                        [
                            0.5714285714285714,
                            0.0
                        ],
                        [
                            0.7142857142857142,
                            0.0
                        ],
                        [
                            0.8571428571428571,
                            0.0
                        ],
                        [
                            1.0,
                            0.0
                        ]
                    ],
                    "yawOverTimeValues2": [
                        [
                            0.0,
                            0.0
                        ],
                        [
                            0.14285714285714285,
                            0.0
                        ],
                        [
                            0.2857142857142857,
                            0.0
                        ],
                        [
                            0.42857142857142855,
                            0.0
                        ],
                        [
                            0.5714285714285714,
                            0.0
                        ],
                        [
                            0.7142857142857142,
                            0.0
                        ],
                        [
                            0.8571428571428571,
                            0.0
                        ],
                        [
                            1.0,
                            0.0
                        ]
                    ],
                    "yaw_curve": 0,
                    "yaw_curve2": -1
                },
                "indirect_draw": {
                    "bytes_per_elem": 20,
                    "desc": "Arguments of the draw instanced indirect. 5 x uint",
                    "init_indirect_from_mesh": "unit_quad_xy_centered.mesh",
                    "is_indirect": true,
                    "name": "indirect_draw",
                    "num_elems": 1
                },
                "indirect_update": {
                    "bytes_per_elem": 12,
                    "desc": "Arguments of the dispachIndirect, so the CPU never knows how many particles are alive. 3 x uint",
                    "is_indirect": true,
                    "num_elems": 1
                },
                "instances": {
                    "bytes_per_elem": 320,
                    "desc": "Array of active particles at the start of the frame",
                    "num_elems": 2048
                },
                "instances_active": {
                    "bytes_per_elem": 320,
                    "desc": "Array of active particles after the update",
                    "num_elems": 2048
                },
                "system": {
                    "bytes_per_elem": 32,
                    "desc": "Stores dynamic information of this system: num particles alive/dead/time to next spawn/...",
                    "num_elems": 1
                }
            },
            "compute": [
                {
                    "cs": "cs_particles_flow_spawn.compute",
                    "desc": "Spawning just 1 thread",
                    "sizes": [
                        1,
                        1,
                        1
                    ]
                },
                {
                    "cs": "cs_particles_flow_update.compute",
                    "desc": "Updating as many thread groups as required & defined by the buffer indirect_update",
                    "sizes": {
                        "buffer": "indirect_update",
                        "offset": 0
                    }
                },
                {
                    "swap_a": "instances",
                    "swap_b": "instances_active"
                }
            ],
            "name": "Inner_Ring_Aim",
            "num_instances": "indirect_draw",
            "render": {
                "materials": [
                    "data\\materials\\particles\\Fireball_Inner_ring_deco.material"
                ],
                "mesh": "unit_quad_xy_centered.mesh"
            },
            "transform": {
                "pos": "0 0 0",
                "rotation": "0.0 0.0 0.0 1.0"
            }
        }
    },
    {
        "entity": {
            "buffers": {
                "TCtesParticles": {
                    "billboard": false,
                    "center": "0.000000 0.100000 -0.160000",
                    "center_radius": 0.0,
                    "color_curve": 0,
                    "colors": [
                        [
                            0.0,
                            "0.000000 0.588235 1.000000 0.000000"
                        ],
                        [
                            0.14285714285714285,
                            "0.285714 0.512045 0.725490 0.000000"
                        ],
                        [
                            0.2857142857142857,
                            "0.571429 0.435854 0.450980 0.000000"
                        ],
                        [
                            0.42857142857142855,
                            "0.857143 0.359664 0.176471 0.000000"
                        ],
                        [
                            0.5714285714285714,
                            "1.000000 0.321569 0.039216 1.000000"
                        ],
                        [
                            0.7142857142857142,
                            "1.000000 0.321569 0.039216 1.000000"
                        ],
                        [
                            0.8571428571428571,
                            "1.000000 0.321569 0.039216 1.000000"
                        ],
                        [
                            1.0,
                            "1.000000 0.321800 0.039216 0.000000"
                        ]
                    ],
                    "cube_half_size": "0.000000 0.000000 0.000000",
                    "desc": "Cte buffer to control emission parameters and update parameters",
                    "dir": "0.000000 0.000000 -1.000000",
                    "dir_aperture": 0.5,
                    "duration": "2.000000 2.000000",
                    "forward": "0.000000 0.999949 0.010100",
                    "glow": 2.0,
                    "gravity_factor": "0.000000 0.000000",
                    "looping": true,
                    "modifier_size_factor": "1.000000 1.000000",
                    "node_color": [
                        [
                            0.5,
                            "1.000000 0.321569 0.039216 0.000000"
                        ],
                        [
                            0.5099999904632568,
                            "1.000000 0.321569 0.039216 1.000000"
                        ],
                        [
                            0.8999999761581421,
                            "1.000000 0.321569 0.039216 1.000000"
                        ]
                    ],
                    "node_pitch": [],
                    "node_pitch2": [],
                    "node_roll": [],
                    "node_roll2": [],
                    "node_size": [
                        [
                            0.5,
                            1.0
                        ]
                    ],
                    "node_speed": [
                        [
                            0.5,
                            0.0
                        ]
                    ],
                    "node_yaw": [],
                    "node_yaw2": [],
                    "noise_factor": "0.000000 0.000000",
                    "noise_frequency": "0.500000 0.500000",
                    "num_particles_per_spawn": "1.000000 1.000000",
                    "pitch": 0,
                    "pitch1": 0.0,
                    "pitch2": 0.0,
                    "pitchOverTimeValues": [
                        [
                            0.0,
                            0.0
                        ],
                        [
                            0.14285714285714285,
                            0.0
                        ],
                        [
                            0.2857142857142857,
                            0.0
                        ],
                        [
                            0.42857142857142855,
                            0.0
                        ],
                        [
                            0.5714285714285714,
                            0.0
                        ],
                        [
                            0.7142857142857142,
                            0.0
                        ],
                        [
                            0.8571428571428571,
                            0.0
                        ],
                        [
                            1.0,
                            0.0
                        ]
                    ],
                    "pitchOverTimeValues2": [
                        [
                            0.0,
                            0.0
                        ],
                        [
                            0.14285714285714285,
                            0.0
                        ],
                        [
                            0.2857142857142857,
                            0.0
                        ],
                        [
                            0.42857142857142855,
                            0.0
                        ],
                        [
                            0.5714285714285714,
                            0.0
                        ],
                        [
                            0.7142857142857142,
                            0.0
                        ],
                        [
                            0.8571428571428571,
                            0.0
                        ],
                        [
                            1.0,
                            0.0
                        ]
                    ],
                    "pitch_curve": -1,
                    "pitch_curve2": -1,
                    "random_dir_factor": 0.0,
                    "random_over_time_type": 0,
                    "roll": 0,
                    "roll1": 0.0,
                    "roll2": 0.0,
                    "rollOverTimeValues": [
                        [
                            0.0,
                            0.0
                        ],
                        [
                            0.14285714285714285,
                            0.0
                        ],
                        [
                            0.2857142857142857,
                            0.0
                        ],
                        [
                            0.42857142857142855,
                            0.0
                        ],
                        [
                            0.5714285714285714,
                            0.0
                        ],
                        [
                            0.7142857142857142,
                            0.0
                        ],
                        [
                            0.8571428571428571,
                            0.0
                        ],
                        [
                            1.0,
                            0.0
                        ]
                    ],
                    "rollOverTimeValues2": [
                        [
                            0.0,
                            0.0
                        ],
                        [
                            0.14285714285714285,
                            0.0
                        ],
                        [
                            0.2857142857142857,
                            0.0
                        ],
                        [
                            0.42857142857142855,
                            0.0
                        ],
                        [
                            0.5714285714285714,
                            0.0
                        ],
                        [
                            0.7142857142857142,
                            0.0
                        ],
                        [
                            0.8571428571428571,
                            0.0
                        ],
                        [
                            1.0,
                            0.0
                        ]
                    ],
                    "roll_curve": -1,
                    "roll_curve2": -1,
                    "rotation_over_direction": false,
                    "shell_thickness": 0.0,
                    "size_curve": 0,
                    "sizes": [
                        [
                            0.0,
                            1.0
                        ],
                        [
                            0.14285714285714285,
                            1.0
                        ],
                        [
                            0.2857142857142857,
                            1.0
                        ],
                        [
                            0.42857142857142855,
                            1.0
                        ],
                        [
                            0.5714285714285714,
                            1.0
                        ],
                        [
                            0.7142857142857142,
                            1.0
                        ],
                        [
                            0.8571428571428571,
                            1.0
                        ],
                        [
                            1.0,
                            1.0
                        ]
                    ],
                    "speed": "2.000000 2.000000",
                    "speedOverTimeValues": [
                        [
                            0.0,
                            1.0
                        ],
                        [
                            0.14285714285714285,
                            0.7142857313156128
                        ],
                        [
                            0.2857142857142857,
                            0.4285714030265808
                        ],
                        [
                            0.42857142857142855,
                            0.1428571343421936
                        ],
                        [
                            0.5714285714285714,
                            0.0
                        ],
                        [
                            0.7142857142857142,
                            0.0
                        ],
                        [
                            0.8571428571428571,
                            0.0
                        ],
                        [
                            1.0,
                            0.0
                        ]
                    ],
                    "speed_curve": 0,
                    "system_delay_time": 0.0,
                    "system_total_life_time": 0.0,
                    "time_between_spawns": "2.000000 2.000000",
                    "type": "cube",
                    "world_space": false,
                    "yaw": 0,
                    "yaw1": 0.0,
                    "yaw2": 0.0,
                    "yawOverTimeValues": [
                        [
                            0.0,
                            0.0
                        ],
                        [
                            0.14285714285714285,
                            0.0
                        ],
                        [
                            0.2857142857142857,
                            0.0
                        ],
                        [
                            0.42857142857142855,
                            0.0
                        ],
                        [
                            0.5714285714285714,
                            0.0
                        ],
                        [
                            0.7142857142857142,
                            0.0
                        ],
                        [
                            0.8571428571428571,
                            0.0
                        ],
                        [
                            1.0,
                            0.0
                        ]
                    ],
                    "yawOverTimeValues2": [
                        [
                            0.0,
                            0.0
                        ],
                        [
                            0.14285714285714285,
                            0.0
                        ],
                        [
                            0.2857142857142857,
                            0.0
                        ],
                        [
                            0.42857142857142855,
                            0.0
                        ],
                        [
                            0.5714285714285714,
                            0.0
                        ],
                        [
                            0.7142857142857142,
                            0.0
                        ],
                        [
                            0.8571428571428571,
                            0.0
                        ],
                        [
                            1.0,
                            0.0
                        ]
                    ],
                    "yaw_curve": 0,
                    "yaw_curve2": -1
                },
                "indirect_draw": {
                    "bytes_per_elem": 20,
                    "desc": "Arguments of the draw instanced indirect. 5 x uint",
                    "init_indirect_from_mesh": "unit_quad_xy_centered.mesh",
                    "is_indirect": true,
                    "name": "indirect_draw",
                    "num_elems": 1
                },
                "indirect_update": {
                    "bytes_per_elem": 12,
                    "desc": "Arguments of the dispachIndirect, so the CPU never knows how many particles are alive. 3 x uint",
                    "is_indirect": true,
                    "num_elems": 1
                },
                "instances": {
                    "bytes_per_elem": 320,
                    "desc": "Array of active particles at the start of the frame",
                    "num_elems": 2048
                },
                "instances_active": {
                    "bytes_per_elem": 320,
                    "desc": "Array of active particles after the update",
                    "num_elems": 2048
                },
                "system": {
                    "bytes_per_elem": 32,
                    "desc": "Stores dynamic information of this system: num particles alive/dead/time to next spawn/...",
                    "num_elems": 1
                }
            },
            "compute": [
                {
                    "cs": "cs_particles_flow_spawn.compute",
                    "desc": "Spawning just 1 thread",
                    "sizes": [
                        1,
                        1,
                        1
                    ]
                },
                {
                    "cs": "cs_particles_flow_update.compute",
                    "desc": "Updating as many thread groups as required & defined by the buffer indirect_update",
                    "sizes": {
                        "buffer": "indirect_update",
                        "offset": 0
                    }
                },
                {
                    "swap_a": "instances",
                    "swap_b": "instances_active"
                }
            ],
            "name": "Symbol",
            "num_instances": "indirect_draw",
            "render": {
                "materials": [
                    "data\\materials\\particles\\Fireball_Symbol_2.material"
                ],
                "mesh": "unit_quad_xy_centered.mesh"
            },
            "transform": {
                "pos": "0 0 0",
                "rotation": "0.0 0.0 0.0 1.0"
            }
        }
    },
    {
        "entity": {
            "buffers": {
                "TCtesParticles": {
                    "billboard": false,
                    "center": "0.000000 0.000000 -2.040000",
                    "center_radius": 0.0,
                    "color_curve": 0,
                    "colors": [
                        [
                            0.0,
                            "0.000000 0.266667 1.000000 0.000000"
                        ],
                        [
                            0.14285714285714285,
                            "0.152381 0.327171 0.871148 0.000000"
                        ],
                        [
                            0.2857142857142857,
                            "0.304762 0.387675 0.742297 0.000000"
                        ],
                        [
                            0.42857142857142855,
                            "0.457143 0.448179 0.613445 0.000000"
                        ],
                        [
                            0.5714285714285714,
                            "0.941363 0.654442 0.246973 1.000000"
                        ],
                        [
                            0.7142857142857142,
                            "0.960037 0.698973 0.328852 1.000000"
                        ],
                        [
                            0.8571428571428571,
                            "0.978711 0.743504 0.410730 1.000000"
                        ],
                        [
                            1.0,
                            "0.984314 0.756863 0.435294 0.000000"
                        ]
                    ],
                    "cube_half_size": "0.000000 0.000000 0.000000",
                    "desc": "Cte buffer to control emission parameters and update parameters",
                    "dir": "0.000000 0.000000 1.000000",
                    "dir_aperture": 0.5,
                    "duration": "2.000000 2.000000",
                    "forward": "0.000000 0.999949 0.010100",
                    "glow": 3.0,
                    "gravity_factor": "0.000000 0.000000",
                    "looping": true,
                    "modifier_size_factor": "1.500000 1.500000",
                    "node_color": [
                        [
                            0.5,
                            "0.533333 0.478431 0.549020 0.000000"
                        ],
                        [
                            0.5099999904632568,
                            "0.933333 0.635294 0.211765 1.000000"
                        ],
                        [
                            0.8999999761581421,
                            "0.984314 0.756863 0.435294 1.000000"
                        ]
                    ],
                    "node_pitch": [],
                    "node_pitch2": [],
                    "node_roll": [],
                    "node_roll2": [],
                    "node_size": [
                        [
                            0.6499999761581421,
                            1.0
                        ]
                    ],
                    "node_speed": [
                        [
                            0.5,
                            0.0
                        ]
                    ],
                    "node_yaw": [],
                    "node_yaw2": [],
                    "noise_factor": "0.000000 0.000000",
                    "noise_frequency": "0.500000 0.500000",
                    "num_particles_per_spawn": "1.000000 1.000000",
                    "pitch": 0,
                    "pitch1": 0.0,
                    "pitch2": 0.0,
                    "pitchOverTimeValues": [
                        [
                            0.0,
                            0.0
                        ],
                        [
                            0.14285714285714285,
                            0.0
                        ],
                        [
                            0.2857142857142857,
                            0.0
                        ],
                        [
                            0.42857142857142855,
                            0.0
                        ],
                        [
                            0.5714285714285714,
                            0.0
                        ],
                        [
                            0.7142857142857142,
                            0.0
                        ],
                        [
                            0.8571428571428571,
                            0.0
                        ],
                        [
                            1.0,
                            0.0
                        ]
                    ],
                    "pitchOverTimeValues2": [
                        [
                            0.0,
                            0.0
                        ],
                        [
                            0.14285714285714285,
                            0.0
                        ],
                        [
                            0.2857142857142857,
                            0.0
                        ],
                        [
                            0.42857142857142855,
                            0.0
                        ],
                        [
                            0.5714285714285714,
                            0.0
                        ],
                        [
                            0.7142857142857142,
                            0.0
                        ],
                        [
                            0.8571428571428571,
                            0.0
                        ],
                        [
                            1.0,
                            0.0
                        ]
                    ],
                    "pitch_curve": -1,
                    "pitch_curve2": -1,
                    "random_dir_factor": 0.0,
                    "random_over_time_type": 0,
                    "roll": 0,
                    "roll1": 0.0,
                    "roll2": 0.0,
                    "rollOverTimeValues": [
                        [
                            0.0,
                            -180.0
                        ],
                        [
                            0.14285714285714285,
                            -180.0
                        ],
                        [
                            0.2857142857142857,
                            -180.0
                        ],
                        [
                            0.42857142857142855,
                            -180.0
                        ],
                        [
                            0.5714285714285714,
                            -180.0
                        ],
                        [
                            0.7142857142857142,
                            -180.0
                        ],
                        [
                            0.8571428571428571,
                            -180.0
                        ],
                        [
                            1.0,
                            -180.0
                        ]
                    ],
                    "rollOverTimeValues2": [
                        [
                            0.0,
                            -180.0
                        ],
                        [
                            0.14285714285714285,
                            -180.0
                        ],
                        [
                            0.2857142857142857,
                            -180.0
                        ],
                        [
                            0.42857142857142855,
                            -180.0
                        ],
                        [
                            0.5714285714285714,
                            -180.0
                        ],
                        [
                            0.7142857142857142,
                            -180.0
                        ],
                        [
                            0.8571428571428571,
                            -180.0
                        ],
                        [
                            1.0,
                            -180.0
                        ]
                    ],
                    "roll_curve": -1,
                    "roll_curve2": -1,
                    "rotation_over_direction": false,
                    "shell_thickness": 0.0,
                    "size_curve": 0,
                    "sizes": [
                        [
                            0.0,
                            0.0
                        ],
                        [
                            0.14285714285714285,
                            0.21978023648262024
                        ],
                        [
                            0.2857142857142857,
                            0.4395604729652405
                        ],
                        [
                            0.42857142857142855,
                            0.6593406796455383
                        ],
                        [
                            0.5714285714285714,
                            0.879120945930481
                        ],
                        [
                            0.7142857142857142,
                            1.0
                        ],
                        [
                            0.8571428571428571,
                            1.0
                        ],
                        [
                            1.0,
                            1.0
                        ]
                    ],
                    "speed": "2.000000 2.000000",
                    "speedOverTimeValues": [
                        [
                            0.0,
                            1.0
                        ],
                        [
                            0.14285714285714285,
                            0.7142857313156128
                        ],
                        [
                            0.2857142857142857,
                            0.4285714030265808
                        ],
                        [
                            0.42857142857142855,
                            0.1428571343421936
                        ],
                        [
                            0.5714285714285714,
                            0.0
                        ],
                        [
                            0.7142857142857142,
                            0.0
                        ],
                        [
                            0.8571428571428571,
                            0.0
                        ],
                        [
                            1.0,
                            0.0
                        ]
                    ],
                    "speed_curve": 0,
                    "system_delay_time": 0.0,
                    "system_total_life_time": 0.0,
                    "time_between_spawns": "2.000000 2.000000",
                    "type": "cube",
                    "world_space": false,
                    "yaw": 0,
                    "yaw1": 0.0,
                    "yaw2": 0.0,
                    "yawOverTimeValues": [
                        [
                            0.0,
                            0.0
                        ],
                        [
                            0.14285714285714285,
                            0.0
                        ],
                        [
                            0.2857142857142857,
                            0.0
                        ],
                        [
                            0.42857142857142855,
                            0.0
                        ],
                        [
                            0.5714285714285714,
                            0.0
                        ],
                        [
                            0.7142857142857142,
                            0.0
                        ],
                        [
                            0.8571428571428571,
                            0.0
                        ],
                        [
                            1.0,
                            0.0
                        ]
                    ],
                    "yawOverTimeValues2": [
                        [
                            0.0,
                            0.0
                        ],
                        [
                            0.14285714285714285,
                            0.0
                        ],
                        [
                            0.2857142857142857,
                            0.0
                        ],
                        [
                            0.42857142857142855,
                            0.0
                        ],
                        [
                            0.5714285714285714,
                            0.0
                        ],
                        [
                            0.7142857142857142,
                            0.0
                        ],
                        [
                            0.8571428571428571,
                            0.0
                        ],
                        [
                            1.0,
                            0.0
                        ]
                    ],
                    "yaw_curve": 0,
                    "yaw_curve2": -1
                },
                "indirect_draw": {
                    "bytes_per_elem": 20,
                    "desc": "Arguments of the draw instanced indirect. 5 x uint",
                    "init_indirect_from_mesh": "unit_quad_xy_centered.mesh",
                    "is_indirect": true,
                    "name": "indirect_draw",
                    "num_elems": 1
                },
                "indirect_update": {
                    "bytes_per_elem": 12,
                    "desc": "Arguments of the dispachIndirect, so the CPU never knows how many particles are alive. 3 x uint",
                    "is_indirect": true,
                    "num_elems": 1
                },
                "instances": {
                    "bytes_per_elem": 320,
                    "desc": "Array of active particles at the start of the frame",
                    "num_elems": 2048
                },
                "instances_active": {
                    "bytes_per_elem": 320,
                    "desc": "Array of active particles after the update",
                    "num_elems": 2048
                },
                "system": {
                    "bytes_per_elem": 32,
                    "desc": "Stores dynamic information of this system: num particles alive/dead/time to next spawn/...",
                    "num_elems": 1
                }
            },
            "compute": [
                {
                    "cs": "cs_particles_flow_spawn.compute",
                    "desc": "Spawning just 1 thread",
                    "sizes": [
                        1,
                        1,
                        1
                    ]
                },
                {
                    "cs": "cs_particles_flow_update.compute",
                    "desc": "Updating as many thread groups as required & defined by the buffer indirect_update",
                    "sizes": {
                        "buffer": "indirect_update",
                        "offset": 0
                    }
                },
                {
                    "swap_a": "instances",
                    "swap_b": "instances_active"
                }
            ],
            "name": "Outer_Ring_2",
            "num_instances": "indirect_draw",
            "render": {
                "materials": [
                    "data\\materials\\particles\\Fireball_Outer_ring.material"
                ],
                "mesh": "unit_quad_xy_centered.mesh"
            },
            "transform": {
                "pos": "0 0 0",
                "rotation": "0.0 0.0 0.0 1.0"
            }
        }
    },
    {
        "entity": {
            "buffers": {
                "TCtesParticles": {
                    "billboard": false,
                    "center": "0.000000 0.000000 -0.920000",
                    "center_radius": 0.5,
                    "color_curve": 0,
                    "colors": [
                        [
                            0.0,
                            "0.750000 0.356401 0.235294 1.000000"
                        ],
                        [
                            0.14285714285714285,
                            "0.785714 0.305487 0.201681 0.857143"
                        ],
                        [
                            0.2857142857142857,
                            "0.821429 0.254572 0.168067 0.714286"
                        ],
                        [
                            0.42857142857142855,
                            "0.857143 0.203658 0.134454 0.571429"
                        ],
                        [
                            0.5714285714285714,
                            "0.892857 0.152743 0.100840 0.428571"
                        ],
                        [
                            0.7142857142857142,
                            "0.928571 0.101829 0.067227 0.285714"
                        ],
                        [
                            0.8571428571428571,
                            "0.964286 0.050914 0.033613 0.142857"
                        ],
                        [
                            1.0,
                            "1.000000 0.000000 0.000000 0.000000"
                        ]
                    ],
                    "cube_half_size": "0.000000 0.000000 0.000000",
                    "desc": "Cte buffer to control emission parameters and update parameters",
                    "dir": "0.000000 0.000000 1.000000",
                    "dir_aperture": 100.0,
                    "duration": "1.000000 1.500000",
                    "forward": "1.000000 0.000000 0.000000",
                    "glow": 5.0,
                    "gravity_factor": "0.000000 0.000000",
                    "looping": true,
                    "modifier_size_factor": "0.500000 0.500000",
                    "node_color": [],
                    "node_pitch": [],
                    "node_pitch2": [],
                    "node_roll": [],
                    "node_roll2": [],
                    "node_size": [],
                    "node_speed": [],
                    "node_yaw": [],
                    "node_yaw2": [],
                    "noise_factor": "0.000000 0.000000",
                    "noise_frequency": "0.500000 0.500000",
                    "num_particles_per_spawn": "1.000000 1.000000",
                    "pitch": 0,
                    "pitch1": 0.0,
                    "pitch2": 0.0,
                    "pitchOverTimeValues": [
                        [
                            0.0,
                            0.0
                        ],
                        [
                            0.14285714285714285,
                            0.0
                        ],
                        [
                            0.2857142857142857,
                            0.0
                        ],
                        [
                            0.42857142857142855,
                            0.0
                        ],
                        [
                            0.5714285714285714,
                            0.0
                        ],
                        [
                            0.7142857142857142,
                            0.0
                        ],
                        [
                            0.8571428571428571,
                            0.0
                        ],
                        [
                            1.0,
                            0.0
                        ]
                    ],
                    "pitchOverTimeValues2": [
                        [
                            0.0,
                            0.0
                        ],
                        [
                            0.14285714285714285,
                            0.0
                        ],
                        [
                            0.2857142857142857,
                            0.0
                        ],
                        [
                            0.42857142857142855,
                            0.0
                        ],
                        [
                            0.5714285714285714,
                            0.0
                        ],
                        [
                            0.7142857142857142,
                            0.0
                        ],
                        [
                            0.8571428571428571,
                            0.0
                        ],
                        [
                            1.0,
                            0.0
                        ]
                    ],
                    "pitch_curve": -1,
                    "pitch_curve2": -1,
                    "random_dir_factor": 0.0,
                    "random_over_time_type": 0,
                    "roll": 0,
                    "roll1": 0.0,
                    "roll2": 0.0,
                    "rollOverTimeValues": [
                        [
                            0.0,
                            0.0
                        ],
                        [
                            0.14285714285714285,
                            0.0
                        ],
                        [
                            0.2857142857142857,
                            0.0
                        ],
                        [
                            0.42857142857142855,
                            0.0
                        ],
                        [
                            0.5714285714285714,
                            0.0
                        ],
                        [
                            0.7142857142857142,
                            0.0
                        ],
                        [
                            0.8571428571428571,
                            0.0
                        ],
                        [
                            1.0,
                            0.0
                        ]
                    ],
                    "rollOverTimeValues2": [
                        [
                            0.0,
                            0.0
                        ],
                        [
                            0.14285714285714285,
                            0.0
                        ],
                        [
                            0.2857142857142857,
                            0.0
                        ],
                        [
                            0.42857142857142855,
                            0.0
                        ],
                        [
                            0.5714285714285714,
                            0.0
                        ],
                        [
                            0.7142857142857142,
                            0.0
                        ],
                        [
                            0.8571428571428571,
                            0.0
                        ],
                        [
                            1.0,
                            0.0
                        ]
                    ],
                    "roll_curve": -1,
                    "roll_curve2": -1,
                    "rotation_over_direction": false,
                    "shell_thickness": 0.0,
                    "size_curve": 29,
                    "sizes": [
                        [
                            0.0,
                            0.0
                        ],
                        [
                            0.14285714285714285,
                            1.0013442039489746
                        ],
                        [
                            0.2857142857142857,
                            1.9524768590927124
                        ],
                        [
                            0.42857142857142855,
                            2.805704355239868
                        ],
                        [
                            0.5714285714285714,
                            3.5182418823242188
                        ],
                        [
                            0.7142857142857142,
                            4.0543599128723145
                        ],
                        [
                            0.8571428571428571,
                            4.387175559997559
                        ],
                        [
                            1.0,
                            4.5
                        ]
                    ],
                    "speed": "0.000000 0.000000",
                    "speedOverTimeValues": [
                        [
                            0.0,
                            1.0
                        ],
                        [
                            0.14285714285714285,
                            0.8571428656578064
                        ],
                        [
                            0.2857142857142857,
                            0.7142857313156128
                        ],
                        [
                            0.42857142857142855,
                            0.5714285373687744
                        ],
                        [
                            0.5714285714285714,
                            0.4285714030265808
                        ],
                        [
                            0.7142857142857142,
                            0.2857142686843872
                        ],
                        [
                            0.8571428571428571,
                            0.1428571343421936
                        ],
                        [
                            1.0,
                            0.0
                        ]
                    ],
                    "speed_curve": 0,
                    "system_delay_time": 0.0,
                    "system_total_life_time": 0.0,
                    "time_between_spawns": "2.000000 2.000000",
                    "type": "cube",
                    "world_space": false,
                    "yaw": 0,
                    "yaw1": 0.0,
                    "yaw2": 0.0,
                    "yawOverTimeValues": [
                        [
                            0.0,
                            0.0
                        ],
                        [
                            0.14285714285714285,
                            0.0
                        ],
                        [
                            0.2857142857142857,
                            0.0
                        ],
                        [
                            0.42857142857142855,
                            0.0
                        ],
                        [
                            0.5714285714285714,
                            0.0
                        ],
                        [
                            0.7142857142857142,
                            0.0
                        ],
                        [
                            0.8571428571428571,
                            0.0
                        ],
                        [
                            1.0,
                            0.0
                        ]
                    ],
                    "yawOverTimeValues2": [
                        [
                            0.0,
                            0.0
                        ],
                        [
                            0.14285714285714285,
                            0.0
                        ],
                        [
                            0.2857142857142857,
                            0.0
                        ],
                        [
                            0.42857142857142855,
                            0.0
                        ],
                        [
                            0.5714285714285714,
                            0.0
                        ],
                        [
                            0.7142857142857142,
                            0.0
                        ],
                        [
                            0.8571428571428571,
                            0.0
                        ],
                        [
                            1.0,
                            0.0
                        ]
                    ],
                    "yaw_curve": -1,
                    "yaw_curve2": -1
                },
                "indirect_draw": {
                    "bytes_per_elem": 20,
                    "desc": "Arguments of the draw instanced indirect. 5 x uint",
                    "init_indirect_from_mesh": "unit_quad_xy_centered.mesh",
                    "is_indirect": true,
                    "name": "indirect_draw",
                    "num_elems": 1
                },
                "indirect_update": {
                    "bytes_per_elem": 12,
                    "desc": "Arguments of the dispachIndirect, so the CPU never knows how many particles are alive. 3 x uint",
                    "is_indirect": true,
                    "num_elems": 1
                },
                "instances": {
                    "bytes_per_elem": 320,
                    "desc": "Array of active particles at the start of the frame",
                    "num_elems": 2048
                },
                "instances_active": {
                    "bytes_per_elem": 320,
                    "desc": "Array of active particles after the update",
                    "num_elems": 2048
                },
                "system": {
                    "bytes_per_elem": 32,
                    "desc": "Stores dynamic information of this system: num particles alive/dead/time to next spawn/...",
                    "num_elems": 1
                }
            },
            "compute": [
                {
                    "cs": "cs_particles_flow_spawn.compute",
                    "desc": "Spawning just 1 thread",
                    "sizes": [
                        1,
                        1,
                        1
                    ]
                },
                {
                    "cs": "cs_particles_flow_update.compute",
                    "desc": "Updating as many thread groups as required & defined by the buffer indirect_update",
                    "sizes": {
                        "buffer": "indirect_update",
                        "offset": 0
                    }
                },
                {
                    "swap_a": "instances",
                    "swap_b": "instances_active"
                }
            ],
            "name": "Emission",
            "num_instances": "indirect_draw",
            "render": {
                "materials": [
                    "data\\materials\\particles\\Fireball_Circle.material"
                ],
                "mesh": "unit_quad_xy_centered.mesh"
            },
            "transform": {
                "pos": "0 0 0",
                "rotation": "0.0 0.0 0.0 1.0"
            }
        }
    }
]
