[
    {
        "entity": {
            "buffers": {
                "TCtesParticles": {
                    "billboard": true,
                    "center": "0.000000 0.000000 0.000000",
                    "center_radius": 0.5,
                    "color_curve": 0,
                    "colors": [
                        [
                            0.0,
                            "0.900782 0.578431 1.000000 1.000000"
                        ],
                        [
                            0.14285714285714285,
                            "0.877141 0.495798 1.000000 0.857143"
                        ],
                        [
                            0.2857142857142857,
                            "0.853500 0.413165 1.000000 0.714286"
                        ],
                        [
                            0.42857142857142855,
                            "0.829859 0.330532 1.000000 0.571429"
                        ],
                        [
                            0.5714285714285714,
                            "0.806217 0.247899 1.000000 0.428571"
                        ],
                        [
                            0.7142857142857142,
                            "0.782576 0.165266 1.000000 0.285714"
                        ],
                        [
                            0.8571428571428571,
                            "0.758935 0.082633 1.000000 0.142857"
                        ],
                        [
                            1.0,
                            "0.735294 0.000000 1.000000 0.000000"
                        ]
                    ],
                    "cube_half_size": "1.000000 1.000000 1.000000",
                    "desc": "Cte buffer to control emission parameters and update parameters",
                    "dir": "0.000000 1.000000 0.000000",
                    "dir_aperture": 0.5,
                    "duration": "0.500000 1.000000",
                    "forward": "0.000000 0.999949 0.010100",
                    "glow": 20.0,
                    "gravity_factor": "0.000000 1.000000",
                    "looping": false,
                    "modifier_size_factor": "0.050000 0.700000",
                    "node_color": [],
                    "node_pitch": [],
                    "node_pitch2": [],
                    "node_roll": [],
                    "node_roll2": [],
                    "node_size": [],
                    "node_speed": [],
                    "node_yaw": [],
                    "node_yaw2": [],
                    "noise_factor": "0.000000 0.200000",
                    "noise_frequency": "15.000000 100.000000",
                    "num_elems": 32,
                    "num_particles_per_spawn": "20.000000 20.000000",
                    "pitch": 0,
                    "pitch1": 0.0,
                    "pitch2": 0.0,
                    "pitchOverTimeValues": [
                        [
                            0.0,
                            0.0
                        ],
                        [
                            0.14285714285714285,
                            0.0
                        ],
                        [
                            0.2857142857142857,
                            0.0
                        ],
                        [
                            0.42857142857142855,
                            0.0
                        ],
                        [
                            0.5714285714285714,
                            0.0
                        ],
                        [
                            0.7142857142857142,
                            0.0
                        ],
                        [
                            0.8571428571428571,
                            0.0
                        ],
                        [
                            1.0,
                            0.0
                        ]
                    ],
                    "pitchOverTimeValues2": [
                        [
                            0.0,
                            0.0
                        ],
                        [
                            0.14285714285714285,
                            0.0
                        ],
                        [
                            0.2857142857142857,
                            0.0
                        ],
                        [
                            0.42857142857142855,
                            0.0
                        ],
                        [
                            0.5714285714285714,
                            0.0
                        ],
                        [
                            0.7142857142857142,
                            0.0
                        ],
                        [
                            0.8571428571428571,
                            0.0
                        ],
                        [
                            1.0,
                            0.0
                        ]
                    ],
                    "pitch_curve": -1,
                    "pitch_curve2": -1,
                    "random_dir_factor": 0.0,
                    "random_over_time_type": 0,
                    "roll": 0,
                    "roll1": 0.0,
                    "roll2": 0.0,
                    "rollOverTimeValues": [
                        [
                            0.0,
                            0.0
                        ],
                        [
                            0.14285714285714285,
                            0.0
                        ],
                        [
                            0.2857142857142857,
                            0.0
                        ],
                        [
                            0.42857142857142855,
                            0.0
                        ],
                        [
                            0.5714285714285714,
                            0.0
                        ],
                        [
                            0.7142857142857142,
                            0.0
                        ],
                        [
                            0.8571428571428571,
                            0.0
                        ],
                        [
                            1.0,
                            0.0
                        ]
                    ],
                    "rollOverTimeValues2": [
                        [
                            0.0,
                            0.0
                        ],
                        [
                            0.14285714285714285,
                            0.0
                        ],
                        [
                            0.2857142857142857,
                            0.0
                        ],
                        [
                            0.42857142857142855,
                            0.0
                        ],
                        [
                            0.5714285714285714,
                            0.0
                        ],
                        [
                            0.7142857142857142,
                            0.0
                        ],
                        [
                            0.8571428571428571,
                            0.0
                        ],
                        [
                            1.0,
                            0.0
                        ]
                    ],
                    "roll_curve": -1,
                    "roll_curve2": -1,
                    "rotation_over_direction": false,
                    "rotation_speed": "1.000000 1.000000",
                    "shell_thickness": 1.0,
                    "size_curve": -1,
                    "sizes": [
                        [
                            0.0,
                            1.0
                        ],
                        [
                            0.14285714285714285,
                            1.0
                        ],
                        [
                            0.2857142857142857,
                            1.0
                        ],
                        [
                            0.42857142857142855,
                            1.0
                        ],
                        [
                            0.5714285714285714,
                            1.0
                        ],
                        [
                            0.7142857142857142,
                            1.0
                        ],
                        [
                            0.8571428571428571,
                            1.0
                        ],
                        [
                            1.0,
                            1.0
                        ]
                    ],
                    "speed": "5.000000 15.000000",
                    "speedOverTimeValues": [
                        [
                            0.0,
                            4.0
                        ],
                        [
                            0.14285714285714285,
                            0.7877550721168518
                        ],
                        [
                            0.2857142857142857,
                            0.6081632375717163
                        ],
                        [
                            0.42857142857142855,
                            0.4612244963645935
                        ],
                        [
                            0.5714285714285714,
                            0.34693872928619385
                        ],
                        [
                            0.7142857142857142,
                            0.26530611515045166
                        ],
                        [
                            0.8571428571428571,
                            0.2163265347480774
                        ],
                        [
                            1.0,
                            0.20000000298023224
                        ]
                    ],
                    "speed_curve": -1,
                    "system_delay_time": 0.0,
                    "system_total_life_time": 0.10000000149011612,
                    "time_between_spawns": "1.000000 1.000000",
                    "type": "sphere",
                    "world_space": false,
                    "yaw": 0,
                    "yaw1": 0.0,
                    "yaw2": 0.0,
                    "yawOverTimeValues": [
                        [
                            0.0,
                            0.0
                        ],
                        [
                            0.14285714285714285,
                            0.0
                        ],
                        [
                            0.2857142857142857,
                            0.0
                        ],
                        [
                            0.42857142857142855,
                            0.0
                        ],
                        [
                            0.5714285714285714,
                            0.0
                        ],
                        [
                            0.7142857142857142,
                            0.0
                        ],
                        [
                            0.8571428571428571,
                            0.0
                        ],
                        [
                            1.0,
                            0.0
                        ]
                    ],
                    "yawOverTimeValues2": [
                        [
                            0.0,
                            0.0
                        ],
                        [
                            0.14285714285714285,
                            0.0
                        ],
                        [
                            0.2857142857142857,
                            0.0
                        ],
                        [
                            0.42857142857142855,
                            0.0
                        ],
                        [
                            0.5714285714285714,
                            0.0
                        ],
                        [
                            0.7142857142857142,
                            0.0
                        ],
                        [
                            0.8571428571428571,
                            0.0
                        ],
                        [
                            1.0,
                            0.0
                        ]
                    ],
                    "yaw_curve": -1,
                    "yaw_curve2": -1
                },
                "indirect_draw": {
                    "bytes_per_elem": 20,
                    "desc": "Arguments of the draw instanced indirect. 5 x uint",
                    "init_indirect_from_mesh": "unit_quad_xy_centered.mesh",
                    "is_indirect": true,
                    "name": "indirect_draw",
                    "num_elems": 1
                },
                "indirect_update": {
                    "bytes_per_elem": 12,
                    "desc": "Arguments of the dispachIndirect, so the CPU never knows how many particles are alive. 3 x uint",
                    "is_indirect": true,
                    "num_elems": 1
                },
                "instances": {
                    "bytes_per_elem": 320,
                    "desc": "Array of active particles at the start of the frame",
                    "num_elems": 32
                },
                "instances_active": {
                    "bytes_per_elem": 320,
                    "desc": "Array of active particles after the update",
                    "num_elems": 32
                },
                "system": {
                    "bytes_per_elem": 32,
                    "desc": "Stores dynamic information of this system: num particles alive/dead/time to next spawn/...",
                    "num_elems": 1
                }
            },
            "compute": [
                {
                    "cs": "cs_particles_flow_spawn.compute",
                    "desc": "Spawning just 1 thread",
                    "sizes": [
                        1,
                        1,
                        1
                    ]
                },
                {
                    "cs": "cs_particles_flow_update.compute",
                    "desc": "Updating as many thread groups as required & defined by the buffer indirect_update",
                    "sizes": {
                        "buffer": "indirect_update",
                        "offset": 0
                    }
                },
                {
                    "swap_a": "instances",
                    "swap_b": "instances_active"
                }
            ],
            "name": "ImpactRed",
            "num_instances": "indirect_draw",
            "render": {
                "materials": [
                    "data\\materials\\particles\\flare.material"
                ],
                "mesh": "unit_quad_xy_centered.mesh"
            },
            "transform": {
                "pos": "0 0 0",
                "rotation": "0.0 0.0 0.0 1.0"
            }
        }
    }
]
