[
    {
        "entity": {
            "buffers": {
                "TCtesParticles": {
                    "billboard": true,
                    "center": "0.000000 0.000000 0.000000",
                    "center_radius": 0.0,
                    "color_curve": 0,
                    "colors": [
                        [
                            0.0,
                            "0.154082 0.099481 0.563725 1.000000"
                        ],
                        [
                            0.14285714285714285,
                            "0.153919 0.099275 0.563866 1.000000"
                        ],
                        [
                            0.2857142857142857,
                            "0.153756 0.099069 0.564006 1.000000"
                        ],
                        [
                            0.42857142857142855,
                            "0.153593 0.098863 0.564146 1.000000"
                        ],
                        [
                            0.5714285714285714,
                            "0.153430 0.098657 0.564286 1.000000"
                        ],
                        [
                            0.7142857142857142,
                            "0.153267 0.098451 0.564426 1.000000"
                        ],
                        [
                            0.8571428571428571,
                            "0.153104 0.098245 0.564566 1.000000"
                        ],
                        [
                            1.0,
                            "0.152941 0.098039 0.564706 1.000000"
                        ]
                    ],
                    "cube_half_size": "1.000000 1.000000 1.000000",
                    "desc": "Cte buffer to control emission parameters and update parameters",
                    "dir": "0.000000 1.000000 0.000000",
                    "dir_aperture": 0.5,
                    "duration": "1.100000 1.000000",
                    "forward": "0.000000 0.999949 0.010100",
                    "glow": 3.0,
                    "gravity_factor": "0.000000 0.000000",
                    "looping": true,
                    "modifier_size_factor": "2.000000 2.000000",
                    "node_color": [],
                    "node_pitch": [],
                    "node_pitch2": [],
                    "node_roll": [],
                    "node_roll2": [],
                    "node_size": [
                        [
                            0.25,
                            1.0
                        ],
                        [
                            0.5,
                            0.5
                        ],
                        [
                            0.75,
                            1.0
                        ]
                    ],
                    "node_speed": [],
                    "node_yaw": [],
                    "node_yaw2": [],
                    "noise_factor": "0.000000 0.000000",
                    "noise_frequency": "0.500000 0.500000",
                    "num_particles_per_spawn": "2.000000 2.000000",
                    "pitch": 0,
                    "pitch1": 0.0,
                    "pitch2": 0.0,
                    "pitchOverTimeValues": [
                        [
                            0.0,
                            0.0
                        ],
                        [
                            0.14285714285714285,
                            0.0
                        ],
                        [
                            0.2857142857142857,
                            0.0
                        ],
                        [
                            0.42857142857142855,
                            0.0
                        ],
                        [
                            0.5714285714285714,
                            0.0
                        ],
                        [
                            0.7142857142857142,
                            0.0
                        ],
                        [
                            0.8571428571428571,
                            0.0
                        ],
                        [
                            1.0,
                            0.0
                        ]
                    ],
                    "pitchOverTimeValues2": [
                        [
                            0.0,
                            0.0
                        ],
                        [
                            0.14285714285714285,
                            0.0
                        ],
                        [
                            0.2857142857142857,
                            0.0
                        ],
                        [
                            0.42857142857142855,
                            0.0
                        ],
                        [
                            0.5714285714285714,
                            0.0
                        ],
                        [
                            0.7142857142857142,
                            0.0
                        ],
                        [
                            0.8571428571428571,
                            0.0
                        ],
                        [
                            1.0,
                            0.0
                        ]
                    ],
                    "pitch_curve": -1,
                    "pitch_curve2": -1,
                    "random_dir_factor": 0.0,
                    "random_over_time_type": 0,
                    "roll": 0,
                    "roll1": 0.0,
                    "roll2": 0.0,
                    "rollOverTimeValues": [
                        [
                            0.0,
                            0.0
                        ],
                        [
                            0.14285714285714285,
                            0.0
                        ],
                        [
                            0.2857142857142857,
                            0.0
                        ],
                        [
                            0.42857142857142855,
                            0.0
                        ],
                        [
                            0.5714285714285714,
                            0.0
                        ],
                        [
                            0.7142857142857142,
                            0.0
                        ],
                        [
                            0.8571428571428571,
                            0.0
                        ],
                        [
                            1.0,
                            0.0
                        ]
                    ],
                    "rollOverTimeValues2": [
                        [
                            0.0,
                            0.0
                        ],
                        [
                            0.14285714285714285,
                            0.0
                        ],
                        [
                            0.2857142857142857,
                            0.0
                        ],
                        [
                            0.42857142857142855,
                            0.0
                        ],
                        [
                            0.5714285714285714,
                            0.0
                        ],
                        [
                            0.7142857142857142,
                            0.0
                        ],
                        [
                            0.8571428571428571,
                            0.0
                        ],
                        [
                            1.0,
                            0.0
                        ]
                    ],
                    "roll_curve": -1,
                    "roll_curve2": -1,
                    "rotation_over_direction": false,
                    "shell_thickness": 1.0,
                    "size_curve": 0,
                    "sizes": [
                        [
                            0.0,
                            0.5
                        ],
                        [
                            0.14285714285714285,
                            0.7857142686843872
                        ],
                        [
                            0.2857142857142857,
                            0.9285714030265808
                        ],
                        [
                            0.42857142857142855,
                            0.6428571343421936
                        ],
                        [
                            0.5714285714285714,
                            0.6428571939468384
                        ],
                        [
                            0.7142857142857142,
                            0.9285714626312256
                        ],
                        [
                            0.8571428571428571,
                            0.7857142686843872
                        ],
                        [
                            1.0,
                            0.5
                        ]
                    ],
                    "speed": "0.000000 0.000000",
                    "speedOverTimeValues": [
                        [
                            0.0,
                            1.0
                        ],
                        [
                            0.14285714285714285,
                            1.0
                        ],
                        [
                            0.2857142857142857,
                            1.0
                        ],
                        [
                            0.42857142857142855,
                            1.0
                        ],
                        [
                            0.5714285714285714,
                            1.0
                        ],
                        [
                            0.7142857142857142,
                            1.0
                        ],
                        [
                            0.8571428571428571,
                            1.0
                        ],
                        [
                            1.0,
                            1.0
                        ]
                    ],
                    "speed_curve": -1,
                    "system_delay_time": 0.0,
                    "system_total_life_time": 0.0,
                    "time_between_spawns": "0.300000 0.300000",
                    "type": "sphere",
                    "world_space": false,
                    "yaw": 0,
                    "yaw1": 0.0,
                    "yaw2": 0.0,
                    "yawOverTimeValues": [
                        [
                            0.0,
                            0.0
                        ],
                        [
                            0.14285714285714285,
                            0.0
                        ],
                        [
                            0.2857142857142857,
                            0.0
                        ],
                        [
                            0.42857142857142855,
                            0.0
                        ],
                        [
                            0.5714285714285714,
                            0.0
                        ],
                        [
                            0.7142857142857142,
                            0.0
                        ],
                        [
                            0.8571428571428571,
                            0.0
                        ],
                        [
                            1.0,
                            0.0
                        ]
                    ],
                    "yawOverTimeValues2": [
                        [
                            0.0,
                            0.0
                        ],
                        [
                            0.14285714285714285,
                            0.0
                        ],
                        [
                            0.2857142857142857,
                            0.0
                        ],
                        [
                            0.42857142857142855,
                            0.0
                        ],
                        [
                            0.5714285714285714,
                            0.0
                        ],
                        [
                            0.7142857142857142,
                            0.0
                        ],
                        [
                            0.8571428571428571,
                            0.0
                        ],
                        [
                            1.0,
                            0.0
                        ]
                    ],
                    "yaw_curve": -1,
                    "yaw_curve2": -1
                },
                "indirect_draw": {
                    "bytes_per_elem": 20,
                    "desc": "Arguments of the draw instanced indirect. 5 x uint",
                    "init_indirect_from_mesh": "unit_quad_xy_centered.mesh",
                    "is_indirect": true,
                    "name": "indirect_draw",
                    "num_elems": 1
                },
                "indirect_update": {
                    "bytes_per_elem": 12,
                    "desc": "Arguments of the dispachIndirect, so the CPU never knows how many particles are alive. 3 x uint",
                    "is_indirect": true,
                    "num_elems": 1
                },
                "instances": {
                    "bytes_per_elem": 320,
                    "desc": "Array of active particles at the start of the frame",
                    "num_elems": 2048
                },
                "instances_active": {
                    "bytes_per_elem": 320,
                    "desc": "Array of active particles after the update",
                    "num_elems": 2048
                },
                "system": {
                    "bytes_per_elem": 32,
                    "desc": "Stores dynamic information of this system: num particles alive/dead/time to next spawn/...",
                    "num_elems": 1
                }
            },
            "compute": [
                {
                    "cs": "cs_particles_flow_spawn.compute",
                    "desc": "Spawning just 1 thread",
                    "sizes": [
                        1,
                        1,
                        1
                    ]
                },
                {
                    "cs": "cs_particles_flow_update.compute",
                    "desc": "Updating as many thread groups as required & defined by the buffer indirect_update",
                    "sizes": {
                        "buffer": "indirect_update",
                        "offset": 0
                    }
                },
                {
                    "swap_a": "instances",
                    "swap_b": "instances_active"
                }
            ],
            "name": "Center",
            "num_instances": "indirect_draw",
            "render": {
                "materials": [
                    "data\\materials\\particles\\Power_Dust.material"
                ],
                "mesh": "unit_quad_xy_centered.mesh"
            },
            "transform": {
                "pos": "0 0 0",
                "rotation": "0.0 0.0 0.0 1.0"
            }
        }
    },
    {
        "entity": {
            "buffers": {
                "TCtesParticles": {
                    "billboard": false,
                    "center": "0.000000 0.000000 0.000000",
                    "center_radius": 0.0,
                    "color_curve": 0,
                    "colors": [
                        [
                            0.0,
                            "0.164706 0.313726 0.447059 0.000000"
                        ],
                        [
                            0.14285714285714285,
                            "0.164672 0.313737 0.447012 0.952381"
                        ],
                        [
                            0.2857142857142857,
                            "0.164560 0.313776 0.446856 0.793651"
                        ],
                        [
                            0.42857142857142855,
                            "0.164448 0.313815 0.446701 0.634921"
                        ],
                        [
                            0.5714285714285714,
                            "0.164336 0.313854 0.446545 0.476190"
                        ],
                        [
                            0.7142857142857142,
                            "0.164224 0.313892 0.446390 0.317460"
                        ],
                        [
                            0.8571428571428571,
                            "0.164112 0.313931 0.446234 0.158730"
                        ],
                        [
                            1.0,
                            "0.163999 0.313970 0.446078 0.000000"
                        ]
                    ],
                    "cube_half_size": "1.000000 1.000000 1.000000",
                    "desc": "Cte buffer to control emission parameters and update parameters",
                    "dir": "0.000000 1.000000 0.000000",
                    "dir_aperture": 0.5,
                    "duration": "5.000000 5.000000",
                    "forward": "0.000000 0.999949 0.010100",
                    "glow": 1.0,
                    "gravity_factor": "0.000000 0.000000",
                    "looping": true,
                    "modifier_size_factor": "1.000000 1.000000",
                    "node_color": [
                        [
                            0.10000000149011612,
                            "0.164706 0.313726 0.447059 1.000000"
                        ]
                    ],
                    "node_pitch": [],
                    "node_pitch2": [],
                    "node_roll": [],
                    "node_roll2": [],
                    "node_size": [
                        [
                            0.25,
                            0.800000011920929
                        ],
                        [
                            0.5,
                            1.0
                        ],
                        [
                            0.75,
                            0.800000011920929
                        ]
                    ],
                    "node_speed": [],
                    "node_yaw": [],
                    "node_yaw2": [],
                    "noise_factor": "0.000000 0.000000",
                    "noise_frequency": "0.500000 0.500000",
                    "num_particles_per_spawn": "10.000000 12.000000",
                    "pitch": 0,
                    "pitch1": 0.0,
                    "pitch2": 0.0,
                    "pitchOverTimeValues": [
                        [
                            0.0,
                            0.0
                        ],
                        [
                            0.14285714285714285,
                            0.0
                        ],
                        [
                            0.2857142857142857,
                            0.0
                        ],
                        [
                            0.42857142857142855,
                            0.0
                        ],
                        [
                            0.5714285714285714,
                            0.0
                        ],
                        [
                            0.7142857142857142,
                            0.0
                        ],
                        [
                            0.8571428571428571,
                            0.0
                        ],
                        [
                            1.0,
                            0.0
                        ]
                    ],
                    "pitchOverTimeValues2": [
                        [
                            0.0,
                            0.0
                        ],
                        [
                            0.14285714285714285,
                            0.0
                        ],
                        [
                            0.2857142857142857,
                            0.0
                        ],
                        [
                            0.42857142857142855,
                            0.0
                        ],
                        [
                            0.5714285714285714,
                            0.0
                        ],
                        [
                            0.7142857142857142,
                            0.0
                        ],
                        [
                            0.8571428571428571,
                            0.0
                        ],
                        [
                            1.0,
                            0.0
                        ]
                    ],
                    "pitch_curve": -1,
                    "pitch_curve2": -1,
                    "random_dir_factor": 0.0,
                    "random_over_time_type": 1,
                    "roll": 0,
                    "roll1": 0.0,
                    "roll2": 0.0,
                    "rollOverTimeValues": [
                        [
                            0.0,
                            180.0
                        ],
                        [
                            0.14285714285714285,
                            180.0
                        ],
                        [
                            0.2857142857142857,
                            180.0
                        ],
                        [
                            0.42857142857142855,
                            180.0
                        ],
                        [
                            0.5714285714285714,
                            180.0
                        ],
                        [
                            0.7142857142857142,
                            180.0
                        ],
                        [
                            0.8571428571428571,
                            180.0
                        ],
                        [
                            1.0,
                            180.0
                        ]
                    ],
                    "rollOverTimeValues2": [
                        [
                            0.0,
                            -180.0
                        ],
                        [
                            0.14285714285714285,
                            -180.0
                        ],
                        [
                            0.2857142857142857,
                            -180.0
                        ],
                        [
                            0.42857142857142855,
                            -180.0
                        ],
                        [
                            0.5714285714285714,
                            -180.0
                        ],
                        [
                            0.7142857142857142,
                            -180.0
                        ],
                        [
                            0.8571428571428571,
                            -180.0
                        ],
                        [
                            1.0,
                            -180.0
                        ]
                    ],
                    "roll_curve": -1,
                    "roll_curve2": -1,
                    "rotation_over_direction": false,
                    "shell_thickness": 1.0,
                    "size_curve": 0,
                    "sizes": [
                        [
                            0.0,
                            1.0
                        ],
                        [
                            0.14285714285714285,
                            0.8857142925262451
                        ],
                        [
                            0.2857142857142857,
                            0.8285714387893677
                        ],
                        [
                            0.42857142857142855,
                            0.9428571462631226
                        ],
                        [
                            0.5714285714285714,
                            0.9428571462631226
                        ],
                        [
                            0.7142857142857142,
                            0.8285714387893677
                        ],
                        [
                            0.8571428571428571,
                            0.8857142925262451
                        ],
                        [
                            1.0,
                            1.0
                        ]
                    ],
                    "speed": "0.000000 0.000000",
                    "speedOverTimeValues": [
                        [
                            0.0,
                            1.0
                        ],
                        [
                            0.14285714285714285,
                            1.0
                        ],
                        [
                            0.2857142857142857,
                            1.0
                        ],
                        [
                            0.42857142857142855,
                            1.0
                        ],
                        [
                            0.5714285714285714,
                            1.0
                        ],
                        [
                            0.7142857142857142,
                            1.0
                        ],
                        [
                            0.8571428571428571,
                            1.0
                        ],
                        [
                            1.0,
                            1.0
                        ]
                    ],
                    "speed_curve": -1,
                    "system_delay_time": 0.0,
                    "system_total_life_time": 0.0,
                    "time_between_spawns": "1.000000 1.000000",
                    "type": "sphere",
                    "world_space": false,
                    "yaw": 0,
                    "yaw1": 0.0,
                    "yaw2": 0.0,
                    "yawOverTimeValues": [
                        [
                            0.0,
                            0.0
                        ],
                        [
                            0.14285714285714285,
                            0.0
                        ],
                        [
                            0.2857142857142857,
                            0.0
                        ],
                        [
                            0.42857142857142855,
                            0.0
                        ],
                        [
                            0.5714285714285714,
                            0.0
                        ],
                        [
                            0.7142857142857142,
                            0.0
                        ],
                        [
                            0.8571428571428571,
                            0.0
                        ],
                        [
                            1.0,
                            0.0
                        ]
                    ],
                    "yawOverTimeValues2": [
                        [
                            0.0,
                            0.0
                        ],
                        [
                            0.14285714285714285,
                            0.0
                        ],
                        [
                            0.2857142857142857,
                            0.0
                        ],
                        [
                            0.42857142857142855,
                            0.0
                        ],
                        [
                            0.5714285714285714,
                            0.0
                        ],
                        [
                            0.7142857142857142,
                            0.0
                        ],
                        [
                            0.8571428571428571,
                            0.0
                        ],
                        [
                            1.0,
                            0.0
                        ]
                    ],
                    "yaw_curve": -1,
                    "yaw_curve2": -1
                },
                "indirect_draw": {
                    "bytes_per_elem": 20,
                    "desc": "Arguments of the draw instanced indirect. 5 x uint",
                    "init_indirect_from_mesh": "unit_quad_xy_centered.mesh",
                    "is_indirect": true,
                    "name": "indirect_draw",
                    "num_elems": 1
                },
                "indirect_update": {
                    "bytes_per_elem": 12,
                    "desc": "Arguments of the dispachIndirect, so the CPU never knows how many particles are alive. 3 x uint",
                    "is_indirect": true,
                    "num_elems": 1
                },
                "instances": {
                    "bytes_per_elem": 320,
                    "desc": "Array of active particles at the start of the frame",
                    "num_elems": 2048
                },
                "instances_active": {
                    "bytes_per_elem": 320,
                    "desc": "Array of active particles after the update",
                    "num_elems": 2048
                },
                "system": {
                    "bytes_per_elem": 32,
                    "desc": "Stores dynamic information of this system: num particles alive/dead/time to next spawn/...",
                    "num_elems": 1
                }
            },
            "compute": [
                {
                    "cs": "cs_particles_flow_spawn.compute",
                    "desc": "Spawning just 1 thread",
                    "sizes": [
                        1,
                        1,
                        1
                    ]
                },
                {
                    "cs": "cs_particles_flow_update.compute",
                    "desc": "Updating as many thread groups as required & defined by the buffer indirect_update",
                    "sizes": {
                        "buffer": "indirect_update",
                        "offset": 0
                    }
                },
                {
                    "swap_a": "instances",
                    "swap_b": "instances_active"
                }
            ],
            "name": "Glow",
            "num_instances": "indirect_draw",
            "render": {
                "materials": [
                    "data\\materials\\particles\\Edge_B.material"
                ],
                "mesh": "unit_quad_xy_centered.mesh"
            },
            "transform": {
                "pos": "0 0 0",
                "rotation": "0.0 0.0 0.0 1.0"
            }
        }
    },
    {
        "entity": {
            "buffers": {
                "TCtesParticles": {
                    "billboard": true,
                    "center": "0.000000 0.000000 0.000000",
                    "center_radius": 0.0,
                    "color_curve": 0,
                    "colors": [
                        [
                            0.0,
                            "0.137255 0.215686 0.800000 0.000000"
                        ],
                        [
                            0.14285714285714285,
                            "0.137255 0.215686 0.800000 0.158730"
                        ],
                        [
                            0.2857142857142857,
                            "0.137255 0.215686 0.800000 0.317460"
                        ],
                        [
                            0.42857142857142855,
                            "0.137255 0.215686 0.800000 0.476191"
                        ],
                        [
                            0.5714285714285714,
                            "0.137255 0.215686 0.800000 0.634921"
                        ],
                        [
                            0.7142857142857142,
                            "0.137255 0.215686 0.800000 0.793651"
                        ],
                        [
                            0.8571428571428571,
                            "0.137255 0.215686 0.800000 0.952381"
                        ],
                        [
                            1.0,
                            "0.137255 0.215686 0.800000 0.000000"
                        ]
                    ],
                    "cube_half_size": "1.000000 1.000000 1.000000",
                    "desc": "Cte buffer to control emission parameters and update parameters",
                    "dir": "0.000000 1.000000 0.000000",
                    "dir_aperture": 0.5,
                    "duration": "1.000000 1.000000",
                    "forward": "0.000000 0.999949 0.010100",
                    "glow": 1.0,
                    "gravity_factor": "0.000000 0.000000",
                    "looping": true,
                    "modifier_size_factor": "1.200000 1.200000",
                    "node_color": [
                        [
                            0.8999999761581421,
                            "0.137255 0.215686 0.800000 1.000000"
                        ]
                    ],
                    "node_pitch": [],
                    "node_pitch2": [],
                    "node_roll": [],
                    "node_roll2": [],
                    "node_size": [],
                    "node_speed": [],
                    "node_yaw": [],
                    "node_yaw2": [],
                    "noise_factor": "0.000000 0.000000",
                    "noise_frequency": "0.500000 0.500000",
                    "num_particles_per_spawn": "1.000000 1.000000",
                    "pitch": 0,
                    "pitch1": 0.0,
                    "pitch2": 0.0,
                    "pitchOverTimeValues": [
                        [
                            0.0,
                            0.0
                        ],
                        [
                            0.14285714285714285,
                            0.0
                        ],
                        [
                            0.2857142857142857,
                            0.0
                        ],
                        [
                            0.42857142857142855,
                            0.0
                        ],
                        [
                            0.5714285714285714,
                            0.0
                        ],
                        [
                            0.7142857142857142,
                            0.0
                        ],
                        [
                            0.8571428571428571,
                            0.0
                        ],
                        [
                            1.0,
                            0.0
                        ]
                    ],
                    "pitchOverTimeValues2": [
                        [
                            0.0,
                            0.0
                        ],
                        [
                            0.14285714285714285,
                            0.0
                        ],
                        [
                            0.2857142857142857,
                            0.0
                        ],
                        [
                            0.42857142857142855,
                            0.0
                        ],
                        [
                            0.5714285714285714,
                            0.0
                        ],
                        [
                            0.7142857142857142,
                            0.0
                        ],
                        [
                            0.8571428571428571,
                            0.0
                        ],
                        [
                            1.0,
                            0.0
                        ]
                    ],
                    "pitch_curve": -1,
                    "pitch_curve2": -1,
                    "random_dir_factor": 0.0,
                    "random_over_time_type": 0,
                    "roll": 0,
                    "roll1": 0.0,
                    "roll2": 0.0,
                    "rollOverTimeValues": [
                        [
                            0.0,
                            0.0
                        ],
                        [
                            0.14285714285714285,
                            0.0
                        ],
                        [
                            0.2857142857142857,
                            0.0
                        ],
                        [
                            0.42857142857142855,
                            0.0
                        ],
                        [
                            0.5714285714285714,
                            0.0
                        ],
                        [
                            0.7142857142857142,
                            0.0
                        ],
                        [
                            0.8571428571428571,
                            0.0
                        ],
                        [
                            1.0,
                            0.0
                        ]
                    ],
                    "rollOverTimeValues2": [
                        [
                            0.0,
                            0.0
                        ],
                        [
                            0.14285714285714285,
                            0.0
                        ],
                        [
                            0.2857142857142857,
                            0.0
                        ],
                        [
                            0.42857142857142855,
                            0.0
                        ],
                        [
                            0.5714285714285714,
                            0.0
                        ],
                        [
                            0.7142857142857142,
                            0.0
                        ],
                        [
                            0.8571428571428571,
                            0.0
                        ],
                        [
                            1.0,
                            0.0
                        ]
                    ],
                    "roll_curve": -1,
                    "roll_curve2": -1,
                    "rotation_over_direction": false,
                    "shell_thickness": 1.0,
                    "size_curve": 0,
                    "sizes": [
                        [
                            0.0,
                            1.0
                        ],
                        [
                            0.14285714285714285,
                            0.9571428894996643
                        ],
                        [
                            0.2857142857142857,
                            0.9142857193946838
                        ],
                        [
                            0.42857142857142855,
                            0.8714285492897034
                        ],
                        [
                            0.5714285714285714,
                            0.8285714387893677
                        ],
                        [
                            0.7142857142857142,
                            0.7857142686843872
                        ],
                        [
                            0.8571428571428571,
                            0.7428571581840515
                        ],
                        [
                            1.0,
                            0.699999988079071
                        ]
                    ],
                    "speed": "0.000000 0.000000",
                    "speedOverTimeValues": [
                        [
                            0.0,
                            1.0
                        ],
                        [
                            0.14285714285714285,
                            1.0
                        ],
                        [
                            0.2857142857142857,
                            1.0
                        ],
                        [
                            0.42857142857142855,
                            1.0
                        ],
                        [
                            0.5714285714285714,
                            1.0
                        ],
                        [
                            0.7142857142857142,
                            1.0
                        ],
                        [
                            0.8571428571428571,
                            1.0
                        ],
                        [
                            1.0,
                            1.0
                        ]
                    ],
                    "speed_curve": -1,
                    "system_delay_time": 0.0,
                    "system_total_life_time": 0.0,
                    "time_between_spawns": "0.300000 0.300000",
                    "type": "sphere",
                    "world_space": false,
                    "yaw": 0,
                    "yaw1": 0.0,
                    "yaw2": 0.0,
                    "yawOverTimeValues": [
                        [
                            0.0,
                            0.0
                        ],
                        [
                            0.14285714285714285,
                            0.0
                        ],
                        [
                            0.2857142857142857,
                            0.0
                        ],
                        [
                            0.42857142857142855,
                            0.0
                        ],
                        [
                            0.5714285714285714,
                            0.0
                        ],
                        [
                            0.7142857142857142,
                            0.0
                        ],
                        [
                            0.8571428571428571,
                            0.0
                        ],
                        [
                            1.0,
                            0.0
                        ]
                    ],
                    "yawOverTimeValues2": [
                        [
                            0.0,
                            0.0
                        ],
                        [
                            0.14285714285714285,
                            0.0
                        ],
                        [
                            0.2857142857142857,
                            0.0
                        ],
                        [
                            0.42857142857142855,
                            0.0
                        ],
                        [
                            0.5714285714285714,
                            0.0
                        ],
                        [
                            0.7142857142857142,
                            0.0
                        ],
                        [
                            0.8571428571428571,
                            0.0
                        ],
                        [
                            1.0,
                            0.0
                        ]
                    ],
                    "yaw_curve": -1,
                    "yaw_curve2": -1
                },
                "indirect_draw": {
                    "bytes_per_elem": 20,
                    "desc": "Arguments of the draw instanced indirect. 5 x uint",
                    "init_indirect_from_mesh": "unit_quad_xy_centered.mesh",
                    "is_indirect": true,
                    "name": "indirect_draw",
                    "num_elems": 1
                },
                "indirect_update": {
                    "bytes_per_elem": 12,
                    "desc": "Arguments of the dispachIndirect, so the CPU never knows how many particles are alive. 3 x uint",
                    "is_indirect": true,
                    "num_elems": 1
                },
                "instances": {
                    "bytes_per_elem": 320,
                    "desc": "Array of active particles at the start of the frame",
                    "num_elems": 2048
                },
                "instances_active": {
                    "bytes_per_elem": 320,
                    "desc": "Array of active particles after the update",
                    "num_elems": 2048
                },
                "system": {
                    "bytes_per_elem": 32,
                    "desc": "Stores dynamic information of this system: num particles alive/dead/time to next spawn/...",
                    "num_elems": 1
                }
            },
            "compute": [
                {
                    "cs": "cs_particles_flow_spawn.compute",
                    "desc": "Spawning just 1 thread",
                    "sizes": [
                        1,
                        1,
                        1
                    ]
                },
                {
                    "cs": "cs_particles_flow_update.compute",
                    "desc": "Updating as many thread groups as required & defined by the buffer indirect_update",
                    "sizes": {
                        "buffer": "indirect_update",
                        "offset": 0
                    }
                },
                {
                    "swap_a": "instances",
                    "swap_b": "instances_active"
                }
            ],
            "name": "Outer_Circle",
            "num_instances": "indirect_draw",
            "render": {
                "materials": [
                    "data\\materials\\particles\\Fireball_Circle.material"
                ],
                "mesh": "unit_quad_xy_centered.mesh"
            },
            "transform": {
                "pos": "0 0 0",
                "rotation": "0.0 0.0 0.0 1.0"
            }
        }
    },
    {
        "entity": {
            "buffers": {
                "TCtesParticles": {
                    "billboard": false,
                    "center": "2.850000 0.000000 0.000000",
                    "center_radius": 0.0,
                    "color_curve": 0,
                    "colors": [
                        [
                            0.0,
                            "0.357411 0.652681 0.985294 0.000000"
                        ],
                        [
                            0.14285714285714285,
                            "0.357098 0.651709 0.984734 0.571429"
                        ],
                        [
                            0.2857142857142857,
                            "0.356863 0.650980 0.984314 1.000000"
                        ],
                        [
                            0.42857142857142855,
                            "0.356863 0.650980 0.984314 1.000000"
                        ],
                        [
                            0.5714285714285714,
                            "0.356863 0.650980 0.984314 1.000000"
                        ],
                        [
                            0.7142857142857142,
                            "0.356863 0.650980 0.984314 1.000000"
                        ],
                        [
                            0.8571428571428571,
                            "0.300972 0.540959 0.881793 0.571429"
                        ],
                        [
                            1.0,
                            "0.226451 0.394265 0.745098 0.000000"
                        ]
                    ],
                    "cube_half_size": "0.000000 0.000000 0.000000",
                    "desc": "Cte buffer to control emission parameters and update parameters",
                    "dir": "0.000000 0.000000 1.000000",
                    "dir_aperture": 0.5,
                    "duration": "2.000000 2.000000",
                    "forward": "0.000000 0.999949 0.010100",
                    "glow": 2.0,
                    "gravity_factor": "0.000000 0.000000",
                    "looping": true,
                    "modifier_size_factor": "1.500000 1.500000",
                    "node_color": [
                        [
                            0.25,
                            "0.356863 0.650980 0.984314 1.000000"
                        ],
                        [
                            0.75,
                            "0.356863 0.650980 0.984314 1.000000"
                        ]
                    ],
                    "node_pitch": [],
                    "node_pitch2": [],
                    "node_roll": [],
                    "node_roll2": [],
                    "node_size": [],
                    "node_speed": [],
                    "node_yaw": [],
                    "node_yaw2": [],
                    "noise_factor": "0.000000 0.000000",
                    "noise_frequency": "0.500000 0.500000",
                    "num_particles_per_spawn": "1.000000 1.000000",
                    "pitch": 0,
                    "pitch1": 0.0,
                    "pitch2": 0.0,
                    "pitchOverTimeValues": [
                        [
                            0.0,
                            0.0
                        ],
                        [
                            0.14285714285714285,
                            0.0
                        ],
                        [
                            0.2857142857142857,
                            0.0
                        ],
                        [
                            0.42857142857142855,
                            0.0
                        ],
                        [
                            0.5714285714285714,
                            0.0
                        ],
                        [
                            0.7142857142857142,
                            0.0
                        ],
                        [
                            0.8571428571428571,
                            0.0
                        ],
                        [
                            1.0,
                            0.0
                        ]
                    ],
                    "pitchOverTimeValues2": [
                        [
                            0.0,
                            0.0
                        ],
                        [
                            0.14285714285714285,
                            0.0
                        ],
                        [
                            0.2857142857142857,
                            0.0
                        ],
                        [
                            0.42857142857142855,
                            0.0
                        ],
                        [
                            0.5714285714285714,
                            0.0
                        ],
                        [
                            0.7142857142857142,
                            0.0
                        ],
                        [
                            0.8571428571428571,
                            0.0
                        ],
                        [
                            1.0,
                            0.0
                        ]
                    ],
                    "pitch_curve": -1,
                    "pitch_curve2": -1,
                    "random_dir_factor": 0.0,
                    "random_over_time_type": 3,
                    "roll": 0,
                    "roll1": 0.0,
                    "roll2": 0.0,
                    "rollOverTimeValues": [
                        [
                            0.0,
                            0.0
                        ],
                        [
                            0.14285714285714285,
                            47.755104064941406
                        ],
                        [
                            0.2857142857142857,
                            88.16326904296875
                        ],
                        [
                            0.42857142857142855,
                            121.22449493408203
                        ],
                        [
                            0.5714285714285714,
                            146.93878173828125
                        ],
                        [
                            0.7142857142857142,
                            165.30612182617188
                        ],
                        [
                            0.8571428571428571,
                            176.32652282714844
                        ],
                        [
                            1.0,
                            180.0
                        ]
                    ],
                    "rollOverTimeValues2": [
                        [
                            0.0,
                            0.0
                        ],
                        [
                            0.14285714285714285,
                            -47.755104064941406
                        ],
                        [
                            0.2857142857142857,
                            -88.16326904296875
                        ],
                        [
                            0.42857142857142855,
                            -121.22449493408203
                        ],
                        [
                            0.5714285714285714,
                            -146.93878173828125
                        ],
                        [
                            0.7142857142857142,
                            -165.30612182617188
                        ],
                        [
                            0.8571428571428571,
                            -176.32652282714844
                        ],
                        [
                            1.0,
                            -180.0
                        ]
                    ],
                    "roll_curve": 2,
                    "roll_curve2": 2,
                    "rotation_over_direction": false,
                    "shell_thickness": 0.0,
                    "size_curve": 0,
                    "sizes": [
                        [
                            0.0,
                            1.0
                        ],
                        [
                            0.14285714285714285,
                            0.9285714626312256
                        ],
                        [
                            0.2857142857142857,
                            0.8571428656578064
                        ],
                        [
                            0.42857142857142855,
                            0.7857142686843872
                        ],
                        [
                            0.5714285714285714,
                            0.7142857313156128
                        ],
                        [
                            0.7142857142857142,
                            0.6428571343421936
                        ],
                        [
                            0.8571428571428571,
                            0.5714285373687744
                        ],
                        [
                            1.0,
                            0.5
                        ]
                    ],
                    "speed": "0.050000 0.050000",
                    "speedOverTimeValues": [
                        [
                            0.0,
                            1.0
                        ],
                        [
                            0.14285714285714285,
                            1.0
                        ],
                        [
                            0.2857142857142857,
                            1.0
                        ],
                        [
                            0.42857142857142855,
                            1.0
                        ],
                        [
                            0.5714285714285714,
                            1.0
                        ],
                        [
                            0.7142857142857142,
                            1.0
                        ],
                        [
                            0.8571428571428571,
                            1.0
                        ],
                        [
                            1.0,
                            1.0
                        ]
                    ],
                    "speed_curve": -1,
                    "system_delay_time": 0.0,
                    "system_total_life_time": 0.0,
                    "time_between_spawns": "0.500000 0.500000",
                    "type": "cube",
                    "world_space": false,
                    "yaw": 0,
                    "yaw1": 0.0,
                    "yaw2": 0.0,
                    "yawOverTimeValues": [
                        [
                            0.0,
                            0.0
                        ],
                        [
                            0.14285714285714285,
                            0.0
                        ],
                        [
                            0.2857142857142857,
                            0.0
                        ],
                        [
                            0.42857142857142855,
                            0.0
                        ],
                        [
                            0.5714285714285714,
                            0.0
                        ],
                        [
                            0.7142857142857142,
                            0.0
                        ],
                        [
                            0.8571428571428571,
                            0.0
                        ],
                        [
                            1.0,
                            0.0
                        ]
                    ],
                    "yawOverTimeValues2": [
                        [
                            0.0,
                            0.0
                        ],
                        [
                            0.14285714285714285,
                            0.0
                        ],
                        [
                            0.2857142857142857,
                            0.0
                        ],
                        [
                            0.42857142857142855,
                            0.0
                        ],
                        [
                            0.5714285714285714,
                            0.0
                        ],
                        [
                            0.7142857142857142,
                            0.0
                        ],
                        [
                            0.8571428571428571,
                            0.0
                        ],
                        [
                            1.0,
                            0.0
                        ]
                    ],
                    "yaw_curve": -1,
                    "yaw_curve2": -1
                },
                "indirect_draw": {
                    "bytes_per_elem": 20,
                    "desc": "Arguments of the draw instanced indirect. 5 x uint",
                    "init_indirect_from_mesh": "unit_quad_xy_centered.mesh",
                    "is_indirect": true,
                    "name": "indirect_draw",
                    "num_elems": 1
                },
                "indirect_update": {
                    "bytes_per_elem": 12,
                    "desc": "Arguments of the dispachIndirect, so the CPU never knows how many particles are alive. 3 x uint",
                    "is_indirect": true,
                    "num_elems": 1
                },
                "instances": {
                    "bytes_per_elem": 320,
                    "desc": "Array of active particles at the start of the frame",
                    "num_elems": 2048
                },
                "instances_active": {
                    "bytes_per_elem": 320,
                    "desc": "Array of active particles after the update",
                    "num_elems": 2048
                },
                "system": {
                    "bytes_per_elem": 32,
                    "desc": "Stores dynamic information of this system: num particles alive/dead/time to next spawn/...",
                    "num_elems": 1
                }
            },
            "compute": [
                {
                    "cs": "cs_particles_flow_spawn.compute",
                    "desc": "Spawning just 1 thread",
                    "sizes": [
                        1,
                        1,
                        1
                    ]
                },
                {
                    "cs": "cs_particles_flow_update.compute",
                    "desc": "Updating as many thread groups as required & defined by the buffer indirect_update",
                    "sizes": {
                        "buffer": "indirect_update",
                        "offset": 0
                    }
                },
                {
                    "swap_a": "instances",
                    "swap_b": "instances_active"
                }
            ],
            "name": "Power_Emissions_Left",
            "num_instances": "indirect_draw",
            "render": {
                "materials": [
                    "data\\materials\\particles\\Power.material"
                ],
                "mesh": "unit_quad_xy_centered.mesh"
            },
            "transform": {
                "pos": "0 0 0",
                "rotation": "0.0 0.0 0.0 1.0"
            }
        }
    },
    {
        "entity": {
            "buffers": {
                "TCtesParticles": {
                    "billboard": false,
                    "center": "2.850000 0.000000 0.050000",
                    "center_radius": 0.0,
                    "color_curve": 0,
                    "colors": [
                        [
                            0.0,
                            "0.078816 0.182699 0.401961 1.000000"
                        ],
                        [
                            0.14285714285714285,
                            "0.078761 0.182930 0.402241 1.000000"
                        ],
                        [
                            0.2857142857142857,
                            "0.078706 0.183161 0.402521 1.000000"
                        ],
                        [
                            0.42857142857142855,
                            "0.078651 0.183391 0.402801 1.000000"
                        ],
                        [
                            0.5714285714285714,
                            "0.078596 0.183622 0.403081 1.000000"
                        ],
                        [
                            0.7142857142857142,
                            "0.078541 0.183853 0.403361 1.000000"
                        ],
                        [
                            0.8571428571428571,
                            "0.078486 0.184083 0.403641 1.000000"
                        ],
                        [
                            1.0,
                            "0.078431 0.184314 0.403922 1.000000"
                        ]
                    ],
                    "cube_half_size": "1.000000 1.000000 1.000000",
                    "desc": "Cte buffer to control emission parameters and update parameters",
                    "dir": "0.000000 1.000000 0.000000",
                    "dir_aperture": 0.5,
                    "duration": "2.000000 2.000000",
                    "forward": "0.000000 0.999949 0.010100",
                    "glow": 3.0,
                    "gravity_factor": "0.000000 0.000000",
                    "looping": true,
                    "modifier_size_factor": "1.000000 1.000000",
                    "node_color": [],
                    "node_pitch": [],
                    "node_pitch2": [],
                    "node_roll": [],
                    "node_roll2": [],
                    "node_size": [],
                    "node_speed": [],
                    "node_yaw": [],
                    "node_yaw2": [],
                    "noise_factor": "0.000000 0.000000",
                    "noise_frequency": "0.500000 0.500000",
                    "num_particles_per_spawn": "1.000000 1.000000",
                    "pitch": 0,
                    "pitch1": 0.0,
                    "pitch2": 0.0,
                    "pitchOverTimeValues": [
                        [
                            0.0,
                            0.0
                        ],
                        [
                            0.14285714285714285,
                            0.0
                        ],
                        [
                            0.2857142857142857,
                            0.0
                        ],
                        [
                            0.42857142857142855,
                            0.0
                        ],
                        [
                            0.5714285714285714,
                            0.0
                        ],
                        [
                            0.7142857142857142,
                            0.0
                        ],
                        [
                            0.8571428571428571,
                            0.0
                        ],
                        [
                            1.0,
                            0.0
                        ]
                    ],
                    "pitchOverTimeValues2": [
                        [
                            0.0,
                            0.0
                        ],
                        [
                            0.14285714285714285,
                            0.0
                        ],
                        [
                            0.2857142857142857,
                            0.0
                        ],
                        [
                            0.42857142857142855,
                            0.0
                        ],
                        [
                            0.5714285714285714,
                            0.0
                        ],
                        [
                            0.7142857142857142,
                            0.0
                        ],
                        [
                            0.8571428571428571,
                            0.0
                        ],
                        [
                            1.0,
                            0.0
                        ]
                    ],
                    "pitch_curve": -1,
                    "pitch_curve2": -1,
                    "random_dir_factor": 0.0,
                    "random_over_time_type": 0,
                    "roll": 0,
                    "roll1": 0.0,
                    "roll2": 0.0,
                    "rollOverTimeValues": [
                        [
                            0.0,
                            0.0
                        ],
                        [
                            0.14285714285714285,
                            0.0
                        ],
                        [
                            0.2857142857142857,
                            0.0
                        ],
                        [
                            0.42857142857142855,
                            0.0
                        ],
                        [
                            0.5714285714285714,
                            0.0
                        ],
                        [
                            0.7142857142857142,
                            0.0
                        ],
                        [
                            0.8571428571428571,
                            0.0
                        ],
                        [
                            1.0,
                            0.0
                        ]
                    ],
                    "rollOverTimeValues2": [
                        [
                            0.0,
                            0.0
                        ],
                        [
                            0.14285714285714285,
                            0.0
                        ],
                        [
                            0.2857142857142857,
                            0.0
                        ],
                        [
                            0.42857142857142855,
                            0.0
                        ],
                        [
                            0.5714285714285714,
                            0.0
                        ],
                        [
                            0.7142857142857142,
                            0.0
                        ],
                        [
                            0.8571428571428571,
                            0.0
                        ],
                        [
                            1.0,
                            0.0
                        ]
                    ],
                    "roll_curve": -1,
                    "roll_curve2": -1,
                    "rotation_over_direction": false,
                    "shell_thickness": 1.0,
                    "size_curve": -1,
                    "sizes": [
                        [
                            0.0,
                            1.0
                        ],
                        [
                            0.14285714285714285,
                            1.0
                        ],
                        [
                            0.2857142857142857,
                            1.0
                        ],
                        [
                            0.42857142857142855,
                            1.0
                        ],
                        [
                            0.5714285714285714,
                            1.0
                        ],
                        [
                            0.7142857142857142,
                            1.0
                        ],
                        [
                            0.8571428571428571,
                            1.0
                        ],
                        [
                            1.0,
                            1.0
                        ]
                    ],
                    "speed": "0.000000 0.000000",
                    "speedOverTimeValues": [
                        [
                            0.0,
                            1.0
                        ],
                        [
                            0.14285714285714285,
                            1.0
                        ],
                        [
                            0.2857142857142857,
                            1.0
                        ],
                        [
                            0.42857142857142855,
                            1.0
                        ],
                        [
                            0.5714285714285714,
                            1.0
                        ],
                        [
                            0.7142857142857142,
                            1.0
                        ],
                        [
                            0.8571428571428571,
                            1.0
                        ],
                        [
                            1.0,
                            1.0
                        ]
                    ],
                    "speed_curve": -1,
                    "system_delay_time": 0.0,
                    "system_total_life_time": 0.0,
                    "time_between_spawns": "1.000000 1.000000",
                    "type": "sphere",
                    "world_space": false,
                    "yaw": 0,
                    "yaw1": 0.0,
                    "yaw2": 0.0,
                    "yawOverTimeValues": [
                        [
                            0.0,
                            0.0
                        ],
                        [
                            0.14285714285714285,
                            0.0
                        ],
                        [
                            0.2857142857142857,
                            0.0
                        ],
                        [
                            0.42857142857142855,
                            0.0
                        ],
                        [
                            0.5714285714285714,
                            0.0
                        ],
                        [
                            0.7142857142857142,
                            0.0
                        ],
                        [
                            0.8571428571428571,
                            0.0
                        ],
                        [
                            1.0,
                            0.0
                        ]
                    ],
                    "yawOverTimeValues2": [
                        [
                            0.0,
                            0.0
                        ],
                        [
                            0.14285714285714285,
                            0.0
                        ],
                        [
                            0.2857142857142857,
                            0.0
                        ],
                        [
                            0.42857142857142855,
                            0.0
                        ],
                        [
                            0.5714285714285714,
                            0.0
                        ],
                        [
                            0.7142857142857142,
                            0.0
                        ],
                        [
                            0.8571428571428571,
                            0.0
                        ],
                        [
                            1.0,
                            0.0
                        ]
                    ],
                    "yaw_curve": -1,
                    "yaw_curve2": -1
                },
                "indirect_draw": {
                    "bytes_per_elem": 20,
                    "desc": "Arguments of the draw instanced indirect. 5 x uint",
                    "init_indirect_from_mesh": "unit_quad_xy_centered.mesh",
                    "is_indirect": true,
                    "name": "indirect_draw",
                    "num_elems": 1
                },
                "indirect_update": {
                    "bytes_per_elem": 12,
                    "desc": "Arguments of the dispachIndirect, so the CPU never knows how many particles are alive. 3 x uint",
                    "is_indirect": true,
                    "num_elems": 1
                },
                "instances": {
                    "bytes_per_elem": 320,
                    "desc": "Array of active particles at the start of the frame",
                    "num_elems": 2048
                },
                "instances_active": {
                    "bytes_per_elem": 320,
                    "desc": "Array of active particles after the update",
                    "num_elems": 2048
                },
                "system": {
                    "bytes_per_elem": 32,
                    "desc": "Stores dynamic information of this system: num particles alive/dead/time to next spawn/...",
                    "num_elems": 1
                }
            },
            "compute": [
                {
                    "cs": "cs_particles_flow_spawn.compute",
                    "desc": "Spawning just 1 thread",
                    "sizes": [
                        1,
                        1,
                        1
                    ]
                },
                {
                    "cs": "cs_particles_flow_update.compute",
                    "desc": "Updating as many thread groups as required & defined by the buffer indirect_update",
                    "sizes": {
                        "buffer": "indirect_update",
                        "offset": 0
                    }
                },
                {
                    "swap_a": "instances",
                    "swap_b": "instances_active"
                }
            ],
            "name": "Center_Left",
            "num_instances": "indirect_draw",
            "render": {
                "materials": [
                    "data\\materials\\particles\\Power_Dust.material"
                ],
                "mesh": "unit_quad_xy_centered.mesh"
            },
            "transform": {
                "pos": "0 0 0",
                "rotation": "0.0 0.0 0.0 1.0"
            }
        }
    }
]
