[
  {
    "entity": {
      "buffers": {
        "TCtesParticles": {
          "billboard": true,
          "center": "0.000000 0.000000 0.000000",
          "center_radius": 0.0,
          "color_curve": 0,
          "colors": [
            [
              0.0,
              "0.946078 0.460490 0.120579 1.000000"
            ],
            [
              0.14285714285714285,
              "0.950980 0.483271 0.126696 1.000000"
            ],
            [
              0.2857142857142857,
              "0.955882 0.506051 0.132813 1.000000"
            ],
            [
              0.42857142857142855,
              "0.960784 0.528832 0.138930 1.000000"
            ],
            [
              0.5714285714285714,
              "0.965686 0.551612 0.145047 1.000000"
            ],
            [
              0.7142857142857142,
              "0.970588 0.574392 0.151164 1.000000"
            ],
            [
              0.8571428571428571,
              "0.975490 0.597173 0.157282 1.000000"
            ],
            [
              1.0,
              "0.980392 0.619953 0.163399 1.000000"
            ]
          ],
          "cube_half_size": "1.000000 1.000000 1.000000",
          "desc": "Cte buffer to control emission parameters and update parameters",
          "dir": "0.000000 1.000000 0.000000",
          "dir_aperture": 0.5,
          "duration": "0.300000 0.300000",
          "forward": "0.000000 0.999949 0.010100",
          "glow": 1.0,
          "gravity_factor": "0.000000 0.000000",
          "looping": false,
          "modifier_size_factor": "2.000000 2.000000",
          "node_color": [],
          "node_pitch": [],
          "node_pitch2": [],
          "node_roll": [],
          "node_roll2": [],
          "node_size": [],
          "node_speed": [],
          "node_yaw": [],
          "node_yaw2": [],
          "noise_factor": "0.000000 0.000000",
          "noise_frequency": "0.000000 0.000000",
          "num_particles_per_spawn": "1.000000 1.000000",
          "pitch": 0,
          "pitch1": 0.0,
          "pitch2": 0.0,
          "pitchOverTimeValues": [
            [
              0.0,
              0.0
            ],
            [
              0.14285714285714285,
              0.0
            ],
            [
              0.2857142857142857,
              0.0
            ],
            [
              0.42857142857142855,
              0.0
            ],
            [
              0.5714285714285714,
              0.0
            ],
            [
              0.7142857142857142,
              0.0
            ],
            [
              0.8571428571428571,
              0.0
            ],
            [
              1.0,
              0.0
            ]
          ],
          "pitchOverTimeValues2": [
            [
              0.0,
              0.0
            ],
            [
              0.14285714285714285,
              0.0
            ],
            [
              0.2857142857142857,
              0.0
            ],
            [
              0.42857142857142855,
              0.0
            ],
            [
              0.5714285714285714,
              0.0
            ],
            [
              0.7142857142857142,
              0.0
            ],
            [
              0.8571428571428571,
              0.0
            ],
            [
              1.0,
              0.0
            ]
          ],
          "pitch_curve": -1,
          "pitch_curve2": -1,
          "random_dir_factor": 0.0,
          "random_over_time_type": 0,
          "roll": 0,
          "roll1": 0.0,
          "roll2": 0.0,
          "rollOverTimeValues": [
            [
              0.0,
              0.0
            ],
            [
              0.14285714285714285,
              0.0
            ],
            [
              0.2857142857142857,
              0.0
            ],
            [
              0.42857142857142855,
              0.0
            ],
            [
              0.5714285714285714,
              0.0
            ],
            [
              0.7142857142857142,
              0.0
            ],
            [
              0.8571428571428571,
              0.0
            ],
            [
              1.0,
              0.0
            ]
          ],
          "rollOverTimeValues2": [
            [
              0.0,
              0.0
            ],
            [
              0.14285714285714285,
              0.0
            ],
            [
              0.2857142857142857,
              0.0
            ],
            [
              0.42857142857142855,
              0.0
            ],
            [
              0.5714285714285714,
              0.0
            ],
            [
              0.7142857142857142,
              0.0
            ],
            [
              0.8571428571428571,
              0.0
            ],
            [
              1.0,
              0.0
            ]
          ],
          "roll_curve": -1,
          "roll_curve2": -1,
          "rotation_over_direction": false,
          "shell_thickness": 1.0,
          "size_curve": 5,
          "sizes": [
            [
              0.0,
              0.25
            ],
            [
              0.14285714285714285,
              0.5276967883110046
            ],
            [
              0.2857142857142857,
              0.726676344871521
            ],
            [
              0.42857142857142855,
              0.8600583076477051
            ],
            [
              0.5714285714285714,
              0.9409621357917786
            ],
            [
              0.7142857142857142,
              0.9825072884559631
            ],
            [
              0.8571428571428571,
              0.9978134036064148
            ],
            [
              1.0,
              1.0
            ]
          ],
          "speed": "0.000000 0.000000",
          "speedOverTimeValues": [
            [
              0.0,
              1.0
            ],
            [
              0.14285714285714285,
              1.0
            ],
            [
              0.2857142857142857,
              1.0
            ],
            [
              0.42857142857142855,
              1.0
            ],
            [
              0.5714285714285714,
              1.0
            ],
            [
              0.7142857142857142,
              1.0
            ],
            [
              0.8571428571428571,
              1.0
            ],
            [
              1.0,
              1.0
            ]
          ],
          "speed_curve": -1,
          "system_delay_time": 0.0,
          "system_total_life_time": 0.2,
          "time_between_spawns": "0.2000000 0.200000",
          "type": "cone",
          "world_space": false,
          "yaw": 0,
          "yaw1": 0.0,
          "yaw2": 0.0,
          "yawOverTimeValues": [
            [
              0.0,
              0.0
            ],
            [
              0.14285714285714285,
              0.0
            ],
            [
              0.2857142857142857,
              0.0
            ],
            [
              0.42857142857142855,
              0.0
            ],
            [
              0.5714285714285714,
              0.0
            ],
            [
              0.7142857142857142,
              0.0
            ],
            [
              0.8571428571428571,
              0.0
            ],
            [
              1.0,
              0.0
            ]
          ],
          "yawOverTimeValues2": [
            [
              0.0,
              0.0
            ],
            [
              0.14285714285714285,
              0.0
            ],
            [
              0.2857142857142857,
              0.0
            ],
            [
              0.42857142857142855,
              0.0
            ],
            [
              0.5714285714285714,
              0.0
            ],
            [
              0.7142857142857142,
              0.0
            ],
            [
              0.8571428571428571,
              0.0
            ],
            [
              1.0,
              0.0
            ]
          ],
          "yaw_curve": 0,
          "yaw_curve2": -1
        },
        "indirect_draw": {
          "bytes_per_elem": 20,
          "desc": "Arguments of the draw instanced indirect. 5 x uint",
          "init_indirect_from_mesh": "unit_quad_xy_centered.mesh",
          "is_indirect": true,
          "name": "indirect_draw",
          "num_elems": 1
        },
        "indirect_update": {
          "bytes_per_elem": 12,
          "desc": "Arguments of the dispachIndirect, so the CPU never knows how many particles are alive. 3 x uint",
          "is_indirect": true,
          "num_elems": 1
        },
        "instances": {
          "bytes_per_elem": 512,
          "desc": "Array of active particles at the start of the frame",
          "num_elems": 2048
        },
        "instances_active": {
          "bytes_per_elem": 512,
          "desc": "Array of active particles after the update",
          "num_elems": 2048
        },
        "system": {
          "bytes_per_elem": 32,
          "desc": "Stores dynamic information of this system: num particles alive/dead/time to next spawn/...",
          "num_elems": 1
        }
      },
      "compute": [
        {
          "cs": "cs_particles_flow_spawn.compute",
          "desc": "Spawning just 1 thread",
          "sizes": [
            1,
            1,
            1
          ]
        },
        {
          "cs": "cs_particles_flow_update.compute",
          "desc": "Updating as many thread groups as required & defined by the buffer indirect_update",
          "sizes": {
            "buffer": "indirect_update",
            "offset": 0
          }
        },
        {
          "swap_a": "instances",
          "swap_b": "instances_active"
        }
      ],
      "name": "PlaceHolder",
      "num_instances": "indirect_draw",
      "render": {
        "materials": [
          "data/materials/particles/particles_flow.material"
        ],
        "mesh": "unit_quad_xy_centered.mesh"
      },
      "transform": {
        "pos": "0 0 0",
        "rotation": "0.0 0.0 0.0 1.0"
      }
    }
  },
  {
    "entity": {
      "buffers": {
        "TCtesParticles": {
          "billboard": true,
          "center": "0.000000 0.000000 0.000000",
          "center_radius": 0.0,
          "color_curve": 0,
          "colors": [
            [
              0.0,
              "0.946078 0.460490 0.120579 1.000000"
            ],
            [
              0.14285714285714285,
              "0.950980 0.483271 0.126696 1.000000"
            ],
            [
              0.2857142857142857,
              "0.955882 0.506051 0.132813 1.000000"
            ],
            [
              0.42857142857142855,
              "0.960784 0.528832 0.138930 1.000000"
            ],
            [
              0.5714285714285714,
              "0.965686 0.551612 0.145047 1.000000"
            ],
            [
              0.7142857142857142,
              "0.970588 0.574392 0.151164 1.000000"
            ],
            [
              0.8571428571428571,
              "0.975490 0.597173 0.157282 1.000000"
            ],
            [
              1.0,
              "0.980392 0.619953 0.163399 1.000000"
            ]
          ],
          "cube_half_size": "1.000000 1.000000 1.000000",
          "desc": "Cte buffer to control emission parameters and update parameters",
          "dir": "0.000000 1.000000 0.000000",
          "dir_aperture": 0.5,
          "duration": "0.300000 0.300000",
          "forward": "0.000000 0.999949 0.010100",
          "glow": 1.0,
          "gravity_factor": "0.000000 0.000000",
          "looping": false,
          "modifier_size_factor": "2.000000 2.000000",
          "node_color": [],
          "node_pitch": [],
          "node_pitch2": [],
          "node_roll": [],
          "node_roll2": [],
          "node_size": [],
          "node_speed": [],
          "node_yaw": [],
          "node_yaw2": [],
          "noise_factor": "0.000000 0.000000",
          "noise_frequency": "0.000000 0.000000",
          "num_particles_per_spawn": "1.000000 1.000000",
          "pitch": 0,
          "pitch1": 0.0,
          "pitch2": 0.0,
          "pitchOverTimeValues": [
            [
              0.0,
              0.0
            ],
            [
              0.14285714285714285,
              0.0
            ],
            [
              0.2857142857142857,
              0.0
            ],
            [
              0.42857142857142855,
              0.0
            ],
            [
              0.5714285714285714,
              0.0
            ],
            [
              0.7142857142857142,
              0.0
            ],
            [
              0.8571428571428571,
              0.0
            ],
            [
              1.0,
              0.0
            ]
          ],
          "pitchOverTimeValues2": [
            [
              0.0,
              0.0
            ],
            [
              0.14285714285714285,
              0.0
            ],
            [
              0.2857142857142857,
              0.0
            ],
            [
              0.42857142857142855,
              0.0
            ],
            [
              0.5714285714285714,
              0.0
            ],
            [
              0.7142857142857142,
              0.0
            ],
            [
              0.8571428571428571,
              0.0
            ],
            [
              1.0,
              0.0
            ]
          ],
          "pitch_curve": -1,
          "pitch_curve2": -1,
          "random_dir_factor": 0.0,
          "random_over_time_type": 0,
          "roll": 0,
          "roll1": 0.0,
          "roll2": 0.0,
          "rollOverTimeValues": [
            [
              0.0,
              0.0
            ],
            [
              0.14285714285714285,
              0.0
            ],
            [
              0.2857142857142857,
              0.0
            ],
            [
              0.42857142857142855,
              0.0
            ],
            [
              0.5714285714285714,
              0.0
            ],
            [
              0.7142857142857142,
              0.0
            ],
            [
              0.8571428571428571,
              0.0
            ],
            [
              1.0,
              0.0
            ]
          ],
          "rollOverTimeValues2": [
            [
              0.0,
              0.0
            ],
            [
              0.14285714285714285,
              0.0
            ],
            [
              0.2857142857142857,
              0.0
            ],
            [
              0.42857142857142855,
              0.0
            ],
            [
              0.5714285714285714,
              0.0
            ],
            [
              0.7142857142857142,
              0.0
            ],
            [
              0.8571428571428571,
              0.0
            ],
            [
              1.0,
              0.0
            ]
          ],
          "roll_curve": -1,
          "roll_curve2": -1,
          "rotation_over_direction": false,
          "shell_thickness": 1.0,
          "size_curve": 5,
          "sizes": [
            [
              0.0,
              0.25
            ],
            [
              0.14285714285714285,
              0.5276967883110046
            ],
            [
              0.2857142857142857,
              0.726676344871521
            ],
            [
              0.42857142857142855,
              0.8600583076477051
            ],
            [
              0.5714285714285714,
              0.9409621357917786
            ],
            [
              0.7142857142857142,
              0.9825072884559631
            ],
            [
              0.8571428571428571,
              0.9978134036064148
            ],
            [
              1.0,
              1.0
            ]
          ],
          "speed": "0.000000 0.000000",
          "speedOverTimeValues": [
            [
              0.0,
              1.0
            ],
            [
              0.14285714285714285,
              1.0
            ],
            [
              0.2857142857142857,
              1.0
            ],
            [
              0.42857142857142855,
              1.0
            ],
            [
              0.5714285714285714,
              1.0
            ],
            [
              0.7142857142857142,
              1.0
            ],
            [
              0.8571428571428571,
              1.0
            ],
            [
              1.0,
              1.0
            ]
          ],
          "speed_curve": -1,
          "system_delay_time": 0.0,
          "system_total_life_time": 0.2,
          "time_between_spawns": "0.2000000 0.200000",
          "type": "cone",
          "world_space": false,
          "yaw": 0,
          "yaw1": 0.0,
          "yaw2": 0.0,
          "yawOverTimeValues": [
            [
              0.0,
              0.0
            ],
            [
              0.14285714285714285,
              0.0
            ],
            [
              0.2857142857142857,
              0.0
            ],
            [
              0.42857142857142855,
              0.0
            ],
            [
              0.5714285714285714,
              0.0
            ],
            [
              0.7142857142857142,
              0.0
            ],
            [
              0.8571428571428571,
              0.0
            ],
            [
              1.0,
              0.0
            ]
          ],
          "yawOverTimeValues2": [
            [
              0.0,
              0.0
            ],
            [
              0.14285714285714285,
              0.0
            ],
            [
              0.2857142857142857,
              0.0
            ],
            [
              0.42857142857142855,
              0.0
            ],
            [
              0.5714285714285714,
              0.0
            ],
            [
              0.7142857142857142,
              0.0
            ],
            [
              0.8571428571428571,
              0.0
            ],
            [
              1.0,
              0.0
            ]
          ],
          "yaw_curve": 0,
          "yaw_curve2": -1
        },
        "indirect_draw": {
          "bytes_per_elem": 20,
          "desc": "Arguments of the draw instanced indirect. 5 x uint",
          "init_indirect_from_mesh": "unit_quad_xy_centered.mesh",
          "is_indirect": true,
          "name": "indirect_draw",
          "num_elems": 1
        },
        "indirect_update": {
          "bytes_per_elem": 12,
          "desc": "Arguments of the dispachIndirect, so the CPU never knows how many particles are alive. 3 x uint",
          "is_indirect": true,
          "num_elems": 1
        },
        "instances": {
          "bytes_per_elem": 512,
          "desc": "Array of active particles at the start of the frame",
          "num_elems": 2048
        },
        "instances_active": {
          "bytes_per_elem": 512,
          "desc": "Array of active particles after the update",
          "num_elems": 2048
        },
        "system": {
          "bytes_per_elem": 32,
          "desc": "Stores dynamic information of this system: num particles alive/dead/time to next spawn/...",
          "num_elems": 1
        }
      },
      "compute": [
        {
          "cs": "cs_particles_flow_spawn.compute",
          "desc": "Spawning just 1 thread",
          "sizes": [
            1,
            1,
            1
          ]
        },
        {
          "cs": "cs_particles_flow_update.compute",
          "desc": "Updating as many thread groups as required & defined by the buffer indirect_update",
          "sizes": {
            "buffer": "indirect_update",
            "offset": 0
          }
        },
        {
          "swap_a": "instances",
          "swap_b": "instances_active"
        }
      ],
      "name": "PlaceHolder",
      "num_instances": "indirect_draw",
      "render": {
        "materials": [
          "data/materials/particles/particles_flow.material"
        ],
        "mesh": "unit_quad_xy_centered.mesh"
      },
      "transform": {
        "pos": "0 0 0",
        "rotation": "0.0 0.0 0.0 1.0"
      }
    }
  }
]
