[
    {
        "entity": {
            "buffers": {
                "TCtesParticles": {
                    "billboard": true,
                    "center": "0.000000 0.000000 0.000000",
                    "center_radius": 0.5,
                    "color_curve": 0,
                    "colors": [
                        [
                            0.0,
                            "0.000000 0.528563 0.691176 1.000000"
                        ],
                        [
                            0.14285714285714285,
                            "0.013971 0.500673 0.600607 1.000000"
                        ],
                        [
                            0.2857142857142857,
                            "0.027943 0.472783 0.510037 1.000000"
                        ],
                        [
                            0.42857142857142855,
                            "0.041914 0.444893 0.419468 1.000000"
                        ],
                        [
                            0.5714285714285714,
                            "0.055885 0.417003 0.328898 1.000000"
                        ],
                        [
                            0.7142857142857142,
                            "0.069856 0.389113 0.238329 1.000000"
                        ],
                        [
                            0.8571428571428571,
                            "0.083828 0.361223 0.147759 1.000000"
                        ],
                        [
                            1.0,
                            "0.097799 0.333333 0.057190 1.000000"
                        ]
                    ],
                    "cube_half_size": "40.000000 40.000000 40.000000",
                    "desc": "Cte buffer to control emission parameters and update parameters",
                    "dir": "0.000000 1.000000 0.000000",
                    "dir_aperture": 0.5,
                    "duration": "4.000000 10.000000",
                    "glow": 1.0,
                    "gravity_factor": "-0.005000 0.005000",
                    "looping": true,
                    "modifier_size_factor": "0.050000 0.060000",
                    "node_color": [],
                    "node_pitch": [],
                    "node_pitch2": [],
                    "node_roll": [],
                    "node_roll2": [],
                    "node_size": [
                        [
                            0.20000000298023224,
                            1.0
                        ],
                        [
                            0.4000000059604645,
                            0.8999999761581421
                        ],
                        [
                            0.6000000238418579,
                            1.2000000476837158
                        ],
                        [
                            0.800000011920929,
                            0.800000011920929
                        ]
                    ],
                    "node_speed": [],
                    "node_yaw": [],
                    "node_yaw2": [],
                    "noise_factor": "0.400000 0.800000",
                    "noise_frequency": "2.000000 2.000000",
                    "num_particles_per_spawn": "50.000000 100.000000",
                    "pitch": 0,
                    "pitch1": 0.0,
                    "pitch2": 0.0,
                    "pitchOverTimeValues": [
                        [
                            0.0,
                            0.0
                        ],
                        [
                            0.14285714285714285,
                            0.0
                        ],
                        [
                            0.2857142857142857,
                            0.0
                        ],
                        [
                            0.42857142857142855,
                            0.0
                        ],
                        [
                            0.5714285714285714,
                            0.0
                        ],
                        [
                            0.7142857142857142,
                            0.0
                        ],
                        [
                            0.8571428571428571,
                            0.0
                        ],
                        [
                            1.0,
                            0.0
                        ]
                    ],
                    "pitchOverTimeValues2": [
                        [
                            0.0,
                            0.0
                        ],
                        [
                            0.14285714285714285,
                            0.0
                        ],
                        [
                            0.2857142857142857,
                            0.0
                        ],
                        [
                            0.42857142857142855,
                            0.0
                        ],
                        [
                            0.5714285714285714,
                            0.0
                        ],
                        [
                            0.7142857142857142,
                            0.0
                        ],
                        [
                            0.8571428571428571,
                            0.0
                        ],
                        [
                            1.0,
                            0.0
                        ]
                    ],
                    "pitch_curve": -1,
                    "pitch_curve2": -1,
                    "random_dir_factor": 0.0,
                    "random_over_time_type": 0,
                    "roll": 0,
                    "roll1": 0.0,
                    "roll2": 0.0,
                    "rollOverTimeValues": [
                        [
                            0.0,
                            0.0
                        ],
                        [
                            0.14285714285714285,
                            0.0
                        ],
                        [
                            0.2857142857142857,
                            0.0
                        ],
                        [
                            0.42857142857142855,
                            0.0
                        ],
                        [
                            0.5714285714285714,
                            0.0
                        ],
                        [
                            0.7142857142857142,
                            0.0
                        ],
                        [
                            0.8571428571428571,
                            0.0
                        ],
                        [
                            1.0,
                            0.0
                        ]
                    ],
                    "rollOverTimeValues2": [
                        [
                            0.0,
                            0.0
                        ],
                        [
                            0.14285714285714285,
                            0.0
                        ],
                        [
                            0.2857142857142857,
                            0.0
                        ],
                        [
                            0.42857142857142855,
                            0.0
                        ],
                        [
                            0.5714285714285714,
                            0.0
                        ],
                        [
                            0.7142857142857142,
                            0.0
                        ],
                        [
                            0.8571428571428571,
                            0.0
                        ],
                        [
                            1.0,
                            0.0
                        ]
                    ],
                    "roll_curve": -1,
                    "roll_curve2": -1,
                    "shell_thickness": 0.9399999976158142,
                    "size_curve": 17,
                    "sizes": [
                        [
                            0.0,
                            0.5
                        ],
                        [
                            0.14285714285714285,
                            1.0025935173034668
                        ],
                        [
                            0.2857142857142857,
                            0.8953806161880493
                        ],
                        [
                            0.42857142857142855,
                            1.3102048635482788
                        ],
                        [
                            0.5714285714285714,
                            1.1995084285736084
                        ],
                        [
                            0.7142857142857142,
                            0.8062949776649475
                        ],
                        [
                            0.8571428571428571,
                            1.0604361295700073
                        ],
                        [
                            1.0,
                            1.100000023841858
                        ]
                    ],
                    "speed": "0.500000 0.500000",
                    "speedOverTimeValues": [
                        [
                            0.0,
                            1.0
                        ],
                        [
                            0.14285714285714285,
                            1.0
                        ],
                        [
                            0.2857142857142857,
                            1.0
                        ],
                        [
                            0.42857142857142855,
                            1.0
                        ],
                        [
                            0.5714285714285714,
                            1.0
                        ],
                        [
                            0.7142857142857142,
                            1.0
                        ],
                        [
                            0.8571428571428571,
                            1.0
                        ],
                        [
                            1.0,
                            1.0
                        ]
                    ],
                    "speed_curve": -1,
                    "system_delay_time": 0.0,
                    "system_total_life_time": 0.0,
                    "time_between_spawns": "1.000000 1.000000",
                    "type": "cube",
                    "yaw": 0,
                    "yaw1": 0.0,
                    "yaw2": 0.0,
                    "yawOverTimeValues": [
                        [
                            0.0,
                            0.0
                        ],
                        [
                            0.14285714285714285,
                            0.0
                        ],
                        [
                            0.2857142857142857,
                            0.0
                        ],
                        [
                            0.42857142857142855,
                            0.0
                        ],
                        [
                            0.5714285714285714,
                            0.0
                        ],
                        [
                            0.7142857142857142,
                            0.0
                        ],
                        [
                            0.8571428571428571,
                            0.0
                        ],
                        [
                            1.0,
                            0.0
                        ]
                    ],
                    "yawOverTimeValues2": [
                        [
                            0.0,
                            0.0
                        ],
                        [
                            0.14285714285714285,
                            0.0
                        ],
                        [
                            0.2857142857142857,
                            0.0
                        ],
                        [
                            0.42857142857142855,
                            0.0
                        ],
                        [
                            0.5714285714285714,
                            0.0
                        ],
                        [
                            0.7142857142857142,
                            0.0
                        ],
                        [
                            0.8571428571428571,
                            0.0
                        ],
                        [
                            1.0,
                            0.0
                        ]
                    ],
                    "yaw_curve": 0,
                    "yaw_curve2": -1
                },
                "indirect_draw": {
                    "bytes_per_elem": 20,
                    "desc": "Arguments of the draw instanced indirect. 5 x uint",
                    "init_indirect_from_mesh": "unit_quad_xy_centered.mesh",
                    "is_indirect": true,
                    "name": "indirect_draw",
                    "num_elems": 1
                },
                "indirect_update": {
                    "bytes_per_elem": 12,
                    "desc": "Arguments of the dispachIndirect, so the CPU never knows how many particles are alive. 3 x uint",
                    "is_indirect": true,
                    "num_elems": 1
                },
                "instances": {
                    "bytes_per_elem": 512,
                    "desc": "Array of active particles at the start of the frame",
                    "num_elems": 2048
                },
                "instances_active": {
                    "bytes_per_elem": 512,
                    "desc": "Array of active particles after the update",
                    "num_elems": 2048
                },
                "system": {
                    "bytes_per_elem": 32,
                    "desc": "Stores dynamic information of this system: num particles alive/dead/time to next spawn/...",
                    "num_elems": 1
                }
            },
            "compute": [
                {
                    "cs": "cs_particles_flow_spawn.compute",
                    "desc": "Spawning just 1 thread",
                    "sizes": [
                        1,
                        1,
                        1
                    ]
                },
                {
                    "cs": "cs_particles_flow_update.compute",
                    "desc": "Updating as many thread groups as required & defined by the buffer indirect_update",
                    "sizes": {
                        "buffer": "indirect_update",
                        "offset": 0
                    }
                },
                {
                    "swap_a": "instances",
                    "swap_b": "instances_active"
                }
            ],
            "name": "Sewer_Dust",
            "num_instances": "indirect_draw",
            "render": {
                "materials": [
                    "data\\materials\\particles\\shockwave.material"
                ],
                "mesh": "unit_quad_xy_centered.mesh"
            },
            "transform": {
                "pos": "0 0 0",
                "rotation": "0.0 0.0 0.0 1.0"
            }
        }
    }
]
