[
    {
        "entity": {
            "buffers": {
                "TCtesParticles": {
                    "billboard": true,
                    "center": "0.000000 0.000000 0.000000",
                    "center_radius": 0.0,
                    "color_curve": 0,
                    "colors": [
                        [
                            0.0,
                            "1.000000 0.694118 0.568627 0.521569"
                        ],
                        [
                            0.14285714285714285,
                            "0.869748 0.600891 0.488074 0.447059"
                        ],
                        [
                            0.2857142857142857,
                            "0.739496 0.507664 0.407522 0.372549"
                        ],
                        [
                            0.42857142857142855,
                            "0.609244 0.414437 0.326969 0.298039"
                        ],
                        [
                            0.5714285714285714,
                            "0.478991 0.321209 0.246416 0.223530"
                        ],
                        [
                            0.7142857142857142,
                            "0.348739 0.227982 0.165863 0.149020"
                        ],
                        [
                            0.8571428571428571,
                            "0.218487 0.134755 0.085311 0.074510"
                        ],
                        [
                            1.0,
                            "0.088235 0.041528 0.004758 0.000000"
                        ]
                    ],
                    "cube_half_size": "1.000000 1.000000 1.000000",
                    "desc": "Cte buffer to control emission parameters and update parameters",
                    "dir": "0.000000 1.000000 0.000000",
                    "dir_aperture": 0.0,
                    "duration": "0.150000 0.250000",
                    "forward": "0.000000 0.999949 0.010100",
                    "glow": 3.0,
                    "gravity_factor": "0.000000 0.000000",
                    "looping": false,
                    "modifier_size_factor": "0.200000 0.400000",
                    "node_color": [],
                    "node_pitch": [],
                    "node_pitch2": [],
                    "node_roll": [],
                    "node_roll2": [],
                    "node_size": [
                        [
                            0.44999998807907104,
                            5.0
                        ]
                    ],
                    "node_speed": [],
                    "node_yaw": [],
                    "node_yaw2": [],
                    "noise_factor": "0.000000 0.000000",
                    "noise_frequency": "0.000000 0.000000",
                    "num_elems": 16,
                    "num_particles_per_spawn": "1.000000 2.000000",
                    "pitch": 0,
                    "pitch1": 90.0,
                    "pitch2": 90.0,
                    "pitchOverTimeValues": [
                        [
                            0.0,
                            0.0
                        ],
                        [
                            0.14285714285714285,
                            0.0
                        ],
                        [
                            0.2857142857142857,
                            0.0
                        ],
                        [
                            0.42857142857142855,
                            0.0
                        ],
                        [
                            0.5714285714285714,
                            0.0
                        ],
                        [
                            0.7142857142857142,
                            0.0
                        ],
                        [
                            0.8571428571428571,
                            0.0
                        ],
                        [
                            1.0,
                            0.0
                        ]
                    ],
                    "pitchOverTimeValues2": [
                        [
                            0.0,
                            0.0
                        ],
                        [
                            0.14285714285714285,
                            0.0
                        ],
                        [
                            0.2857142857142857,
                            0.0
                        ],
                        [
                            0.42857142857142855,
                            0.0
                        ],
                        [
                            0.5714285714285714,
                            0.0
                        ],
                        [
                            0.7142857142857142,
                            0.0
                        ],
                        [
                            0.8571428571428571,
                            0.0
                        ],
                        [
                            1.0,
                            0.0
                        ]
                    ],
                    "pitch_curve": -1,
                    "pitch_curve2": -1,
                    "random_dir_factor": 0.0,
                    "random_over_time_type": 0,
                    "roll": 0,
                    "roll1": 0.0,
                    "roll2": 0.0,
                    "rollOverTimeValues": [
                        [
                            0.0,
                            0.0
                        ],
                        [
                            0.14285714285714285,
                            0.0
                        ],
                        [
                            0.2857142857142857,
                            0.0
                        ],
                        [
                            0.42857142857142855,
                            0.0
                        ],
                        [
                            0.5714285714285714,
                            0.0
                        ],
                        [
                            0.7142857142857142,
                            0.0
                        ],
                        [
                            0.8571428571428571,
                            0.0
                        ],
                        [
                            1.0,
                            0.0
                        ]
                    ],
                    "rollOverTimeValues2": [
                        [
                            0.0,
                            0.0
                        ],
                        [
                            0.14285714285714285,
                            0.0
                        ],
                        [
                            0.2857142857142857,
                            0.0
                        ],
                        [
                            0.42857142857142855,
                            0.0
                        ],
                        [
                            0.5714285714285714,
                            0.0
                        ],
                        [
                            0.7142857142857142,
                            0.0
                        ],
                        [
                            0.8571428571428571,
                            0.0
                        ],
                        [
                            1.0,
                            0.0
                        ]
                    ],
                    "roll_curve": -1,
                    "roll_curve2": -1,
                    "rotation_over_direction": false,
                    "rotation_speed": "1.000000 1.000000",
                    "shell_thickness": 1.0,
                    "size_curve": 8,
                    "sizes": [
                        [
                            0.0,
                            1.0
                        ],
                        [
                            0.14285714285714285,
                            4.131896495819092
                        ],
                        [
                            0.2857142857142857,
                            4.928942680358887
                        ],
                        [
                            0.42857142857142855,
                            4.999979496002197
                        ],
                        [
                            0.5714285714285714,
                            5.0
                        ],
                        [
                            0.7142857142857142,
                            5.0
                        ],
                        [
                            0.8571428571428571,
                            5.0
                        ],
                        [
                            1.0,
                            5.0
                        ]
                    ],
                    "speed": "0.000000 0.000000",
                    "speedOverTimeValues": [
                        [
                            0.0,
                            1.0
                        ],
                        [
                            0.14285714285714285,
                            1.0
                        ],
                        [
                            0.2857142857142857,
                            1.0
                        ],
                        [
                            0.42857142857142855,
                            1.0
                        ],
                        [
                            0.5714285714285714,
                            1.0
                        ],
                        [
                            0.7142857142857142,
                            1.0
                        ],
                        [
                            0.8571428571428571,
                            1.0
                        ],
                        [
                            1.0,
                            1.0
                        ]
                    ],
                    "speed_curve": -1,
                    "system_delay_time": 0.0,
                    "system_total_life_time": 0.10000000149011612,
                    "time_between_spawns": "1.000000 1.000000",
                    "type": "cone",
                    "world_space": false,
                    "yaw": 0,
                    "yaw1": 0.0,
                    "yaw2": 0.0,
                    "yawOverTimeValues": [
                        [
                            0.0,
                            0.0
                        ],
                        [
                            0.14285714285714285,
                            0.0
                        ],
                        [
                            0.2857142857142857,
                            0.0
                        ],
                        [
                            0.42857142857142855,
                            0.0
                        ],
                        [
                            0.5714285714285714,
                            0.0
                        ],
                        [
                            0.7142857142857142,
                            0.0
                        ],
                        [
                            0.8571428571428571,
                            0.0
                        ],
                        [
                            1.0,
                            0.0
                        ]
                    ],
                    "yawOverTimeValues2": [
                        [
                            0.0,
                            0.0
                        ],
                        [
                            0.14285714285714285,
                            0.0
                        ],
                        [
                            0.2857142857142857,
                            0.0
                        ],
                        [
                            0.42857142857142855,
                            0.0
                        ],
                        [
                            0.5714285714285714,
                            0.0
                        ],
                        [
                            0.7142857142857142,
                            0.0
                        ],
                        [
                            0.8571428571428571,
                            0.0
                        ],
                        [
                            1.0,
                            0.0
                        ]
                    ],
                    "yaw_curve": 0,
                    "yaw_curve2": -1
                },
                "indirect_draw": {
                    "bytes_per_elem": 20,
                    "desc": "Arguments of the draw instanced indirect. 5 x uint",
                    "init_indirect_from_mesh": "unit_quad_xy_centered.mesh",
                    "is_indirect": true,
                    "name": "indirect_draw",
                    "num_elems": 1
                },
                "indirect_update": {
                    "bytes_per_elem": 12,
                    "desc": "Arguments of the dispachIndirect, so the CPU never knows how many particles are alive. 3 x uint",
                    "is_indirect": true,
                    "num_elems": 1
                },
                "instances": {
                    "bytes_per_elem": 320,
                    "desc": "Array of active particles at the start of the frame",
                    "num_elems": 16
                },
                "instances_active": {
                    "bytes_per_elem": 320,
                    "desc": "Array of active particles after the update",
                    "num_elems": 16
                },
                "system": {
                    "bytes_per_elem": 32,
                    "desc": "Stores dynamic information of this system: num particles alive/dead/time to next spawn/...",
                    "num_elems": 1
                }
            },
            "compute": [
                {
                    "cs": "cs_particles_flow_spawn.compute",
                    "desc": "Spawning just 1 thread",
                    "sizes": [
                        1,
                        1,
                        1
                    ]
                },
                {
                    "cs": "cs_particles_flow_update.compute",
                    "desc": "Updating as many thread groups as required & defined by the buffer indirect_update",
                    "sizes": {
                        "buffer": "indirect_update",
                        "offset": 0
                    }
                },
                {
                    "swap_a": "instances",
                    "swap_b": "instances_active"
                }
            ],
            "name": "RedImpactCircle_1_1",
            "num_instances": "indirect_draw",
            "render": {
                "materials": [
                    "data\\materials\\particles\\Cartoon_Inner_Circle.material"
                ],
                "mesh": "unit_quad_xy_centered.mesh"
            },
            "transform": {
                "pos": "0 0 0",
                "rotation": "0.0 0.0 0.0 1.0"
            }
        }
    },
    {
        "entity": {
            "buffers": {
                "TCtesParticles": {
                    "billboard": false,
                    "center": "0.000000 0.000000 0.000000",
                    "center_radius": 0.5,
                    "color_curve": 0,
                    "colors": [
                        [
                            0.0,
                            "0.838235 0.606077 0.373919 0.607843"
                        ],
                        [
                            0.14285714285714285,
                            "0.726891 0.523126 0.320502 0.521008"
                        ],
                        [
                            0.2857142857142857,
                            "0.615546 0.440176 0.267085 0.434174"
                        ],
                        [
                            0.42857142857142855,
                            "0.504202 0.357225 0.213668 0.347339"
                        ],
                        [
                            0.5714285714285714,
                            "0.392857 0.274275 0.160251 0.260504"
                        ],
                        [
                            0.7142857142857142,
                            "0.281513 0.191325 0.106834 0.173669"
                        ],
                        [
                            0.8571428571428571,
                            "0.170168 0.108374 0.053417 0.086835"
                        ],
                        [
                            1.0,
                            "0.058824 0.025424 0.000000 0.000000"
                        ]
                    ],
                    "cube_half_size": "1.000000 1.000000 1.000000",
                    "desc": "Cte buffer to control emission parameters and update parameters",
                    "dir": "0.000000 1.000000 0.000000",
                    "dir_aperture": 0.5,
                    "duration": "0.750000 2.500000",
                    "forward": "0.000000 0.999949 0.010100",
                    "glow": 1.0,
                    "gravity_factor": "0.000000 0.000000",
                    "looping": false,
                    "modifier_size_factor": "0.020000 0.100000",
                    "node_color": [],
                    "node_pitch": [],
                    "node_pitch2": [],
                    "node_roll": [],
                    "node_roll2": [],
                    "node_size": [],
                    "node_speed": [],
                    "node_yaw": [],
                    "node_yaw2": [],
                    "noise_factor": "0.000000 0.000000",
                    "noise_frequency": "100.000000 200.000000",
                    "num_elems": 32,
                    "num_particles_per_spawn": "1.000000 5.000000",
                    "pitch": 0,
                    "pitch1": -89.0,
                    "pitch2": 89.0,
                    "pitchOverTimeValues": [
                        [
                            0.0,
                            180.0
                        ],
                        [
                            0.14285714285714285,
                            180.0
                        ],
                        [
                            0.2857142857142857,
                            180.0
                        ],
                        [
                            0.42857142857142855,
                            180.0
                        ],
                        [
                            0.5714285714285714,
                            180.0
                        ],
                        [
                            0.7142857142857142,
                            180.0
                        ],
                        [
                            0.8571428571428571,
                            180.0
                        ],
                        [
                            1.0,
                            180.0
                        ]
                    ],
                    "pitchOverTimeValues2": [
                        [
                            0.0,
                            180.0
                        ],
                        [
                            0.14285714285714285,
                            180.0
                        ],
                        [
                            0.2857142857142857,
                            180.0
                        ],
                        [
                            0.42857142857142855,
                            180.0
                        ],
                        [
                            0.5714285714285714,
                            180.0
                        ],
                        [
                            0.7142857142857142,
                            180.0
                        ],
                        [
                            0.8571428571428571,
                            180.0
                        ],
                        [
                            1.0,
                            180.0
                        ]
                    ],
                    "pitch_curve": -1,
                    "pitch_curve2": -1,
                    "random_dir_factor": 0.0,
                    "random_over_time_type": 1,
                    "roll": 0,
                    "roll1": -138.0,
                    "roll2": 180.0,
                    "rollOverTimeValues": [
                        [
                            0.0,
                            180.0
                        ],
                        [
                            0.14285714285714285,
                            180.0
                        ],
                        [
                            0.2857142857142857,
                            180.0
                        ],
                        [
                            0.42857142857142855,
                            180.0
                        ],
                        [
                            0.5714285714285714,
                            180.0
                        ],
                        [
                            0.7142857142857142,
                            180.0
                        ],
                        [
                            0.8571428571428571,
                            180.0
                        ],
                        [
                            1.0,
                            180.0
                        ]
                    ],
                    "rollOverTimeValues2": [
                        [
                            0.0,
                            180.0
                        ],
                        [
                            0.14285714285714285,
                            180.0
                        ],
                        [
                            0.2857142857142857,
                            180.0
                        ],
                        [
                            0.42857142857142855,
                            180.0
                        ],
                        [
                            0.5714285714285714,
                            180.0
                        ],
                        [
                            0.7142857142857142,
                            180.0
                        ],
                        [
                            0.8571428571428571,
                            180.0
                        ],
                        [
                            1.0,
                            180.0
                        ]
                    ],
                    "roll_curve": -1,
                    "roll_curve2": -1,
                    "rotation_over_direction": false,
                    "rotation_speed": "1.000000 1.000000",
                    "shell_thickness": 1.0,
                    "size_curve": 0,
                    "sizes": [
                        [
                            0.0,
                            0.550000011920929
                        ],
                        [
                            0.14285714285714285,
                            0.6142857074737549
                        ],
                        [
                            0.2857142857142857,
                            0.6785714626312256
                        ],
                        [
                            0.42857142857142855,
                            0.7428570985794067
                        ],
                        [
                            0.5714285714285714,
                            0.8071428537368774
                        ],
                        [
                            0.7142857142857142,
                            0.8714286088943481
                        ],
                        [
                            0.8571428571428571,
                            0.9357143044471741
                        ],
                        [
                            1.0,
                            1.0
                        ]
                    ],
                    "speed": "0.000000 4.000000",
                    "speedOverTimeValues": [
                        [
                            0.0,
                            1.0
                        ],
                        [
                            0.14285714285714285,
                            1.0
                        ],
                        [
                            0.2857142857142857,
                            1.0
                        ],
                        [
                            0.42857142857142855,
                            1.0
                        ],
                        [
                            0.5714285714285714,
                            1.0
                        ],
                        [
                            0.7142857142857142,
                            1.0
                        ],
                        [
                            0.8571428571428571,
                            1.0
                        ],
                        [
                            1.0,
                            1.0
                        ]
                    ],
                    "speed_curve": -1,
                    "system_delay_time": 0.0,
                    "system_total_life_time": 0.10000000149011612,
                    "time_between_spawns": "2.000000 2.000000",
                    "type": "sphere",
                    "world_space": false,
                    "yaw": 0,
                    "yaw1": -140.0,
                    "yaw2": 128.0,
                    "yawOverTimeValues": [
                        [
                            0.0,
                            -180.0
                        ],
                        [
                            0.14285714285714285,
                            -180.0
                        ],
                        [
                            0.2857142857142857,
                            -180.0
                        ],
                        [
                            0.42857142857142855,
                            -180.0
                        ],
                        [
                            0.5714285714285714,
                            -180.0
                        ],
                        [
                            0.7142857142857142,
                            -180.0
                        ],
                        [
                            0.8571428571428571,
                            -180.0
                        ],
                        [
                            1.0,
                            -180.0
                        ]
                    ],
                    "yawOverTimeValues2": [
                        [
                            0.0,
                            180.0
                        ],
                        [
                            0.14285714285714285,
                            180.0
                        ],
                        [
                            0.2857142857142857,
                            180.0
                        ],
                        [
                            0.42857142857142855,
                            180.0
                        ],
                        [
                            0.5714285714285714,
                            180.0
                        ],
                        [
                            0.7142857142857142,
                            180.0
                        ],
                        [
                            0.8571428571428571,
                            180.0
                        ],
                        [
                            1.0,
                            180.0
                        ]
                    ],
                    "yaw_curve": -1,
                    "yaw_curve2": -1
                },
                "indirect_draw": {
                    "bytes_per_elem": 20,
                    "desc": "Arguments of the draw instanced indirect. 5 x uint",
                    "init_indirect_from_mesh": "data\\meshes\\particles\\SmokeCloud.mesh",
                    "is_indirect": true,
                    "name": "indirect_draw",
                    "num_elems": 1
                },
                "indirect_update": {
                    "bytes_per_elem": 12,
                    "desc": "Arguments of the dispachIndirect, so the CPU never knows how many particles are alive. 3 x uint",
                    "is_indirect": true,
                    "num_elems": 1
                },
                "instances": {
                    "bytes_per_elem": 320,
                    "desc": "Array of active particles at the start of the frame",
                    "num_elems": 32
                },
                "instances_active": {
                    "bytes_per_elem": 320,
                    "desc": "Array of active particles after the update",
                    "num_elems": 32
                },
                "system": {
                    "bytes_per_elem": 32,
                    "desc": "Stores dynamic information of this system: num particles alive/dead/time to next spawn/...",
                    "num_elems": 1
                }
            },
            "compute": [
                {
                    "cs": "cs_particles_flow_spawn.compute",
                    "desc": "Spawning just 1 thread",
                    "sizes": [
                        1,
                        1,
                        1
                    ]
                },
                {
                    "cs": "cs_particles_flow_update.compute",
                    "desc": "Updating as many thread groups as required & defined by the buffer indirect_update",
                    "sizes": {
                        "buffer": "indirect_update",
                        "offset": 0
                    }
                },
                {
                    "swap_a": "instances",
                    "swap_b": "instances_active"
                }
            ],
            "name": "humoExpl",
            "num_instances": "indirect_draw",
            "render": {
                "materials": [
                    "data\\materials\\particles\\z_part_alpha_erosion8.material"
                ],
                "mesh": "data\\meshes\\particles\\SmokeCloud.mesh"
            },
            "transform": {
                "pos": "0 0 0",
                "rotation": "0.0 0.0 0.0 1.0"
            }
        }
    },
    {
        "entity": {
            "buffers": {
                "TCtesParticles": {
                    "billboard": true,
                    "center": "0.000000 0.000000 0.000000",
                    "center_radius": 0.5,
                    "color_curve": 0,
                    "colors": [
                        [
                            0.0,
                            "1.000000 0.790503 0.583333 1.000000"
                        ],
                        [
                            0.14285714285714285,
                            "0.865546 0.680935 0.500000 1.000000"
                        ],
                        [
                            0.2857142857142857,
                            "0.731093 0.571368 0.416666 1.000000"
                        ],
                        [
                            0.42857142857142855,
                            "0.596639 0.461800 0.333333 1.000000"
                        ],
                        [
                            0.5714285714285714,
                            "0.462185 0.352232 0.250000 1.000000"
                        ],
                        [
                            0.7142857142857142,
                            "0.327731 0.242664 0.166667 1.000000"
                        ],
                        [
                            0.8571428571428571,
                            "0.193278 0.133097 0.083333 1.000000"
                        ],
                        [
                            1.0,
                            "0.058824 0.023529 0.000000 1.000000"
                        ]
                    ],
                    "cube_half_size": "1.000000 1.000000 1.000000",
                    "desc": "Cte buffer to control emission parameters and update parameters",
                    "dir": "0.000000 1.000000 0.000000",
                    "dir_aperture": 0.5,
                    "duration": "0.100000 1.000000",
                    "forward": "0.000000 0.999949 0.010100",
                    "glow": 1.0,
                    "gravity_factor": "0.100000 2.000000",
                    "looping": false,
                    "modifier_size_factor": "0.010000 0.200000",
                    "node_color": [],
                    "node_pitch": [],
                    "node_pitch2": [],
                    "node_roll": [],
                    "node_roll2": [],
                    "node_size": [],
                    "node_speed": [],
                    "node_yaw": [],
                    "node_yaw2": [],
                    "noise_factor": "0.000000 0.100000",
                    "noise_frequency": "400.000000 800.000000",
                    "num_elems": 64,
                    "num_particles_per_spawn": "5.000000 10.000000",
                    "pitch": 0,
                    "pitch1": -89.0,
                    "pitch2": 89.0,
                    "pitchOverTimeValues": [
                        [
                            0.0,
                            180.0
                        ],
                        [
                            0.14285714285714285,
                            180.0
                        ],
                        [
                            0.2857142857142857,
                            180.0
                        ],
                        [
                            0.42857142857142855,
                            180.0
                        ],
                        [
                            0.5714285714285714,
                            180.0
                        ],
                        [
                            0.7142857142857142,
                            180.0
                        ],
                        [
                            0.8571428571428571,
                            180.0
                        ],
                        [
                            1.0,
                            180.0
                        ]
                    ],
                    "pitchOverTimeValues2": [
                        [
                            0.0,
                            180.0
                        ],
                        [
                            0.14285714285714285,
                            180.0
                        ],
                        [
                            0.2857142857142857,
                            180.0
                        ],
                        [
                            0.42857142857142855,
                            180.0
                        ],
                        [
                            0.5714285714285714,
                            180.0
                        ],
                        [
                            0.7142857142857142,
                            180.0
                        ],
                        [
                            0.8571428571428571,
                            180.0
                        ],
                        [
                            1.0,
                            180.0
                        ]
                    ],
                    "pitch_curve": -1,
                    "pitch_curve2": -1,
                    "random_dir_factor": 0.0,
                    "random_over_time_type": 1,
                    "roll": 0,
                    "roll1": -138.0,
                    "roll2": 180.0,
                    "rollOverTimeValues": [
                        [
                            0.0,
                            180.0
                        ],
                        [
                            0.14285714285714285,
                            180.0
                        ],
                        [
                            0.2857142857142857,
                            180.0
                        ],
                        [
                            0.42857142857142855,
                            180.0
                        ],
                        [
                            0.5714285714285714,
                            180.0
                        ],
                        [
                            0.7142857142857142,
                            180.0
                        ],
                        [
                            0.8571428571428571,
                            180.0
                        ],
                        [
                            1.0,
                            180.0
                        ]
                    ],
                    "rollOverTimeValues2": [
                        [
                            0.0,
                            180.0
                        ],
                        [
                            0.14285714285714285,
                            180.0
                        ],
                        [
                            0.2857142857142857,
                            180.0
                        ],
                        [
                            0.42857142857142855,
                            180.0
                        ],
                        [
                            0.5714285714285714,
                            180.0
                        ],
                        [
                            0.7142857142857142,
                            180.0
                        ],
                        [
                            0.8571428571428571,
                            180.0
                        ],
                        [
                            1.0,
                            180.0
                        ]
                    ],
                    "roll_curve": -1,
                    "roll_curve2": -1,
                    "rotation_over_direction": false,
                    "rotation_speed": "1.000000 1.000000",
                    "shell_thickness": 1.0,
                    "size_curve": 0,
                    "sizes": [
                        [
                            0.0,
                            1.0
                        ],
                        [
                            0.14285714285714285,
                            0.8571428656578064
                        ],
                        [
                            0.2857142857142857,
                            0.7142857313156128
                        ],
                        [
                            0.42857142857142855,
                            0.5714285373687744
                        ],
                        [
                            0.5714285714285714,
                            0.4285714030265808
                        ],
                        [
                            0.7142857142857142,
                            0.2857142686843872
                        ],
                        [
                            0.8571428571428571,
                            0.1428571343421936
                        ],
                        [
                            1.0,
                            0.0
                        ]
                    ],
                    "speed": "1.000000 10.000000",
                    "speedOverTimeValues": [
                        [
                            0.0,
                            1.0
                        ],
                        [
                            0.14285714285714285,
                            1.0
                        ],
                        [
                            0.2857142857142857,
                            1.0
                        ],
                        [
                            0.42857142857142855,
                            1.0
                        ],
                        [
                            0.5714285714285714,
                            1.0
                        ],
                        [
                            0.7142857142857142,
                            1.0
                        ],
                        [
                            0.8571428571428571,
                            1.0
                        ],
                        [
                            1.0,
                            1.0
                        ]
                    ],
                    "speed_curve": -1,
                    "system_delay_time": 0.0,
                    "system_total_life_time": 0.10000000149011612,
                    "time_between_spawns": "2.000000 2.000000",
                    "type": "sphere",
                    "world_space": false,
                    "yaw": 0,
                    "yaw1": -140.0,
                    "yaw2": 128.0,
                    "yawOverTimeValues": [
                        [
                            0.0,
                            -180.0
                        ],
                        [
                            0.14285714285714285,
                            -180.0
                        ],
                        [
                            0.2857142857142857,
                            -180.0
                        ],
                        [
                            0.42857142857142855,
                            -180.0
                        ],
                        [
                            0.5714285714285714,
                            -180.0
                        ],
                        [
                            0.7142857142857142,
                            -180.0
                        ],
                        [
                            0.8571428571428571,
                            -180.0
                        ],
                        [
                            1.0,
                            -180.0
                        ]
                    ],
                    "yawOverTimeValues2": [
                        [
                            0.0,
                            180.0
                        ],
                        [
                            0.14285714285714285,
                            180.0
                        ],
                        [
                            0.2857142857142857,
                            180.0
                        ],
                        [
                            0.42857142857142855,
                            180.0
                        ],
                        [
                            0.5714285714285714,
                            180.0
                        ],
                        [
                            0.7142857142857142,
                            180.0
                        ],
                        [
                            0.8571428571428571,
                            180.0
                        ],
                        [
                            1.0,
                            180.0
                        ]
                    ],
                    "yaw_curve": -1,
                    "yaw_curve2": -1
                },
                "indirect_draw": {
                    "bytes_per_elem": 20,
                    "desc": "Arguments of the draw instanced indirect. 5 x uint",
                    "init_indirect_from_mesh": "unit_quad_xy_centered.mesh",
                    "is_indirect": true,
                    "name": "indirect_draw",
                    "num_elems": 1
                },
                "indirect_update": {
                    "bytes_per_elem": 12,
                    "desc": "Arguments of the dispachIndirect, so the CPU never knows how many particles are alive. 3 x uint",
                    "is_indirect": true,
                    "num_elems": 1
                },
                "instances": {
                    "bytes_per_elem": 320,
                    "desc": "Array of active particles at the start of the frame",
                    "num_elems": 64
                },
                "instances_active": {
                    "bytes_per_elem": 320,
                    "desc": "Array of active particles after the update",
                    "num_elems": 64
                },
                "system": {
                    "bytes_per_elem": 32,
                    "desc": "Stores dynamic information of this system: num particles alive/dead/time to next spawn/...",
                    "num_elems": 1
                }
            },
            "compute": [
                {
                    "cs": "cs_particles_flow_spawn.compute",
                    "desc": "Spawning just 1 thread",
                    "sizes": [
                        1,
                        1,
                        1
                    ]
                },
                {
                    "cs": "cs_particles_flow_update.compute",
                    "desc": "Updating as many thread groups as required & defined by the buffer indirect_update",
                    "sizes": {
                        "buffer": "indirect_update",
                        "offset": 0
                    }
                },
                {
                    "swap_a": "instances",
                    "swap_b": "instances_active"
                }
            ],
            "name": "dustExplosion",
            "num_instances": "indirect_draw",
            "render": {
                "materials": [
                    "data\\materials\\particles\\humo_ger.material"
                ],
                "mesh": "unit_quad_xy_centered.mesh"
            },
            "transform": {
                "pos": "0 0 0",
                "rotation": "0.0 0.0 0.0 1.0"
            }
        }
    }
]
