[
    {
        "entity": {
            "buffers": {
                "TCtesParticles": {
                    "billboard": false,
                    "center": "0.000000 -0.900000 0.000000",
                    "center_radius": 0.0,
                    "color_curve": 1,
                    "colors": [
                        [
                            0.0,
                            "0.950980 0.913687 0.913687 0.603922"
                        ],
                        [
                            0.14285714285714285,
                            "0.951421 0.913688 0.910006 0.591597"
                        ],
                        [
                            0.2857142857142857,
                            "0.952741 0.913690 0.898964 0.554622"
                        ],
                        [
                            0.42857142857142855,
                            "0.954942 0.913694 0.880561 0.492997"
                        ],
                        [
                            0.5714285714285714,
                            "0.958023 0.913700 0.854796 0.406723"
                        ],
                        [
                            0.7142857142857142,
                            "0.961985 0.913707 0.821670 0.295798"
                        ],
                        [
                            0.8571428571428571,
                            "0.966827 0.913715 0.781182 0.160224"
                        ],
                        [
                            1.0,
                            "0.972549 0.913725 0.733333 0.000000"
                        ]
                    ],
                    "cube_half_size": "1.000000 1.000000 1.000000",
                    "desc": "Cte buffer to control emission parameters and update parameters",
                    "dir": "0.000000 1.000000 0.000000",
                    "dir_aperture": 180.0,
                    "duration": "0.600000 0.600000",
                    "forward": "0.962572 0.271011 0.002737",
                    "glow": 1.0,
                    "gravity_factor": "0.000000 0.000000",
                    "looping": true,
                    "modifier_size_factor": "0.300000 0.300000",
                    "node_color": [],
                    "node_pitch": [],
                    "node_pitch2": [],
                    "node_roll": [],
                    "node_roll2": [],
                    "node_size": [],
                    "node_speed": [],
                    "node_yaw": [],
                    "node_yaw2": [],
                    "noise_factor": "0.000000 0.000000",
                    "noise_frequency": "0.500000 0.500000",
                    "num_particles_per_spawn": "1.000000 1.000000",
                    "pitch": 0,
                    "pitch1": 0.0,
                    "pitch2": 0.0,
                    "pitchOverTimeValues": [
                        [
                            0.0,
                            0.0
                        ],
                        [
                            0.14285714285714285,
                            0.0
                        ],
                        [
                            0.2857142857142857,
                            0.0
                        ],
                        [
                            0.42857142857142855,
                            0.0
                        ],
                        [
                            0.5714285714285714,
                            0.0
                        ],
                        [
                            0.7142857142857142,
                            0.0
                        ],
                        [
                            0.8571428571428571,
                            0.0
                        ],
                        [
                            1.0,
                            0.0
                        ]
                    ],
                    "pitchOverTimeValues2": [
                        [
                            0.0,
                            8.300000190734863
                        ],
                        [
                            0.14285714285714285,
                            7.800000190734863
                        ],
                        [
                            0.2857142857142857,
                            10.0
                        ],
                        [
                            0.42857142857142855,
                            19.5
                        ],
                        [
                            0.5714285714285714,
                            12.5
                        ],
                        [
                            0.7142857142857142,
                            32.20000076293945
                        ],
                        [
                            0.8571428571428571,
                            0.0
                        ],
                        [
                            1.0,
                            25.299999237060547
                        ]
                    ],
                    "pitch_curve": -1,
                    "pitch_curve2": -1,
                    "random_dir_factor": 0.0,
                    "random_over_time_type": 3,
                    "roll": 0,
                    "roll1": 0.0,
                    "roll2": 0.0,
                    "rollOverTimeValues": [
                        [
                            0.0,
                            0.0
                        ],
                        [
                            0.14285714285714285,
                            8.071429252624512
                        ],
                        [
                            0.2857142857142857,
                            16.142858505249023
                        ],
                        [
                            0.42857142857142855,
                            24.21428680419922
                        ],
                        [
                            0.5714285714285714,
                            32.28571701049805
                        ],
                        [
                            0.7142857142857142,
                            40.35714340209961
                        ],
                        [
                            0.8571428571428571,
                            48.42857360839844
                        ],
                        [
                            1.0,
                            56.5
                        ]
                    ],
                    "rollOverTimeValues2": [
                        [
                            0.0,
                            0.0
                        ],
                        [
                            0.14285714285714285,
                            13.228571891784668
                        ],
                        [
                            0.2857142857142857,
                            26.457143783569336
                        ],
                        [
                            0.42857142857142855,
                            39.68571472167969
                        ],
                        [
                            0.5714285714285714,
                            52.91428756713867
                        ],
                        [
                            0.7142857142857142,
                            66.14286041259766
                        ],
                        [
                            0.8571428571428571,
                            79.37142944335938
                        ],
                        [
                            1.0,
                            92.5999984741211
                        ]
                    ],
                    "roll_curve": 0,
                    "roll_curve2": 0,
                    "rotation_over_direction": false,
                    "shell_thickness": 1.0,
                    "size_curve": -1,
                    "sizes": [
                        [
                            0.0,
                            0.05000000074505806
                        ],
                        [
                            0.14285714285714285,
                            1.0671428442001343
                        ],
                        [
                            0.2857142857142857,
                            1.1342856884002686
                        ],
                        [
                            0.42857142857142855,
                            1.2014285326004028
                        ],
                        [
                            0.5714285714285714,
                            1.268571376800537
                        ],
                        [
                            0.7142857142857142,
                            1.1859999895095825
                        ],
                        [
                            0.8571428571428571,
                            1.1430000066757202
                        ],
                        [
                            1.0,
                            1.1399999856948853
                        ]
                    ],
                    "speed": "0.000000 0.000000",
                    "speedOverTimeValues": [
                        [
                            0.0,
                            0.7099999785423279
                        ],
                        [
                            0.14285714285714285,
                            0.30799999833106995
                        ],
                        [
                            0.2857142857142857,
                            0.13500000536441803
                        ],
                        [
                            0.42857142857142855,
                            0.08299999684095383
                        ],
                        [
                            0.5714285714285714,
                            0.0560000017285347
                        ],
                        [
                            0.7142857142857142,
                            0.026000000536441803
                        ],
                        [
                            0.8571428571428571,
                            0.02199999988079071
                        ],
                        [
                            1.0,
                            0.019999999552965164
                        ]
                    ],
                    "speed_curve": -1,
                    "system_delay_time": 0.10000000149011612,
                    "system_total_life_time": 0.0,
                    "time_between_spawns": "2.000000 2.000000",
                    "type": "sphere",
                    "world_space": false,
                    "yaw": 0,
                    "yaw1": 0.0,
                    "yaw2": 0.0,
                    "yawOverTimeValues": [
                        [
                            0.0,
                            0.0
                        ],
                        [
                            0.14285714285714285,
                            8.128572463989258
                        ],
                        [
                            0.2857142857142857,
                            16.257144927978516
                        ],
                        [
                            0.42857142857142855,
                            24.38571548461914
                        ],
                        [
                            0.5714285714285714,
                            32.51428985595703
                        ],
                        [
                            0.7142857142857142,
                            40.642860412597656
                        ],
                        [
                            0.8571428571428571,
                            48.77143096923828
                        ],
                        [
                            1.0,
                            56.900001525878906
                        ]
                    ],
                    "yawOverTimeValues2": [
                        [
                            0.0,
                            0.0
                        ],
                        [
                            0.14285714285714285,
                            0.0
                        ],
                        [
                            0.2857142857142857,
                            0.0
                        ],
                        [
                            0.42857142857142855,
                            0.0
                        ],
                        [
                            0.5714285714285714,
                            0.0
                        ],
                        [
                            0.7142857142857142,
                            0.0
                        ],
                        [
                            0.8571428571428571,
                            0.0
                        ],
                        [
                            1.0,
                            0.0
                        ]
                    ],
                    "yaw_curve": 0,
                    "yaw_curve2": -1
                },
                "indirect_draw": {
                    "bytes_per_elem": 20,
                    "desc": "Arguments of the draw instanced indirect. 5 x uint",
                    "init_indirect_from_mesh": "data\\meshes\\particles\\esfera.mesh",
                    "is_indirect": true,
                    "name": "indirect_draw",
                    "num_elems": 1
                },
                "indirect_update": {
                    "bytes_per_elem": 12,
                    "desc": "Arguments of the dispachIndirect, so the CPU never knows how many particles are alive. 3 x uint",
                    "is_indirect": true,
                    "num_elems": 1
                },
                "instances": {
                    "bytes_per_elem": 320,
                    "desc": "Array of active particles at the start of the frame",
                    "num_elems": 2048
                },
                "instances_active": {
                    "bytes_per_elem": 320,
                    "desc": "Array of active particles after the update",
                    "num_elems": 2048
                },
                "system": {
                    "bytes_per_elem": 32,
                    "desc": "Stores dynamic information of this system: num particles alive/dead/time to next spawn/...",
                    "num_elems": 1
                }
            },
            "compute": [
                {
                    "cs": "cs_particles_flow_spawn.compute",
                    "desc": "Spawning just 1 thread",
                    "sizes": [
                        1,
                        1,
                        1
                    ]
                },
                {
                    "cs": "cs_particles_flow_update.compute",
                    "desc": "Updating as many thread groups as required & defined by the buffer indirect_update",
                    "sizes": {
                        "buffer": "indirect_update",
                        "offset": 0
                    }
                },
                {
                    "swap_a": "instances",
                    "swap_b": "instances_active"
                }
            ],
            "name": "SmokePuffs",
            "num_instances": "indirect_draw",
            "render": {
                "materials": [
                    "data\\materials\\particles\\z_part_alpha_erosion10.material"
                ],
                "mesh": "data\\meshes\\particles\\esfera.mesh"
            },
            "transform": {
                "pos": "0 0 0",
                "rotation": "0.0 0.0 0.0 1.0"
            }
        }
    }
]
