{
  "cast_shadows": true
  ,
  "textures":
  {
    "albedo": "data/textures/props/pedestal/pedestal_Base_Color.dds"
    ,
    "normal": "data/textures/props/pedestal/pedestal_Normal_DirectX.dds"
  }
}
