{
  "casts_shadows": true,
  "priority": 900,
  "textures":
  {
	"albedo": "data/textures/props/sword/espada_low_Material _24_BaseColor.dds",
    "normal": "data/textures/null_normal.dds",
	"specular": "data/textures/white.dds"
  }
}
