[
  {
    "entity":
    {
      "name":
      {
        "entityName": "Chest_Piece_01"
        ,
        "tag": "NoInteractable"
      }
      ,
      "transform":
      {
        "pos": "0.00161713 0.428635 -0.000388497"
        ,
        "rotation": "0.0 0.0 -0.707107 -0.707107"
      }
      ,
      "collider":
      {
        "shapes":
        [
          {
            "shape": "convex"
            ,
            "collision_mesh": "data/meshes/props/broken_chest/CST_Chest_Rotos_Chest_Piece_01.col_mesh"
            ,
            "group": "world"
            ,
            "mask": "world"
          }
        ]
        ,
        "density": 1.0
        ,
        "mass": 1.0
        ,
        "linearDrag": 0.5
        ,
        "angularDrag": 0.25
        ,
        "dynamic": true
        ,
        "kinematic": false,
        "continuous_collision": true
      }
      ,
      "abs_aabb":
      {
      }
      ,
      "local_aabb":
      {
        "half_size": "0.552995 0.295801 0.052419"
      }
      ,
      "comp_audio": {
        "name": "chest_piece",
        "sound": "event:/Props/Table",
        "isContact": true
      },
      "render":
      {
        "mesh": "data/meshes/props/broken_chest/CST_Chest_Rotos_Chest_Piece_01.mesh"
        ,
        "color": "1.0 1.0 1.0 1.0"
        ,
        "materials":
        [
          "data/materials/props/mat_chest_mossy.material"
          ,
          "data/materials/props/mat_chest_mossy.material"
        ]
      }
    }
  }
]
