[
  {
    "entity": {
      "name": {
        "entityName": "green_fire",
        "tag": "No Interactable"
      },
      "transform": {
        "pos": "0 0 0",
        "scale": 0.7
      },
      "magic_fire": {
        "enabled": true,
        "distorsion_ammount": 0.8,
        "fire_glow": 200,
        "inner_fire_color": "1 1 1 1",
        "outer_fire_color": "0 1 0.03 1"
      },
      "collider":
      {
        "shapes":
        [
         {
          "shape": "box",
          "half_size": "0.4 0.5 0.4",
          "group": "triggers",
          "trigger": true
          }
        ]
      },
      "fire_trigger":
      {
        "damage": 5,
        "knockbackForce": 5,
        "timeToDamage": 0.5
      },
      "light_point": {
        "color": "0 1 0.4",
        "flicker": true,
        "min_intensity": 2,
        "max_intensity": 5,
        "smoothness": 15,
        "radius": 10
      },
      "comp_audio": {
        "name": "green_fire",
        "sound": "event:/Props/Fire",
        "isContact": false
      },
      "render": {
        "mesh": "data/meshes/unit_plane.mesh",
        "materials": [
          "data/materials/torch.material"
        ]
      },
      "abs_aabb": {
      }
    }
  }
]
