[
  {
    "entity": {
      "name": {
        "entityName": "orange_fire",
        "tag": "No Interactable"
      },
      "transform": {
        "pos": "0 0 0",
        "scale": 1.5
      },
      "magic_fire": {
        "enabled": true,
        "distorsion_ammount": 0.8,
        "fire_glow": 200,
        "inner_fire_color": "0.85 1 0 1",
        "outer_fire_color": "0.41 0.01 0 0"
      },
      "collider":
      {
        "shapes":
        [
         {
          "shape": "box",
          "half_size": "0.4 0.5 0.4",
          "group": "triggers",
          "trigger": true
          }
        ]
      },
      "fire_trigger":
      {
        "damage": 20,
        "knockbackForce": 5,
        "timeToDamage": 0.5
      },
      "comp_audio": {
        "name": "fire",
        "sound": "event:/Props/Fire",
        "isContact": false
      },
      "render": {
	    "rimFactor": 1,
        "mesh": "data/meshes/unit_plane.mesh",
        "materials": [
          "data/materials/torch.material"
        ]
      },
      "abs_aabb": {
      }
    }
  }
]
